165 = {

	culture = western_chubu
	religion = shinto
	holding = castle_holding
	1000.1.1={
	}
	1331.1.1={
	}
	1400.1.1={
	}
	1460.1.1={
		religion = shinto
		holding = castle_holding
	}
	1567.1.1={
	}
}
