171 = {

	culture = central_kinai
	religion = shinto
	holding = castle_holding
	1100.1.1={
	}
	1331.1.1={
	}
	1400.1.1={
	}
	1490.1.1 = {
		religion = shinto
		holding = castle_holding
	}

}
