190 = {

	culture = northern_kyushu
	religion = shinto
	holding = castle_holding
	919.1.1={
	}
	1100.1.1={
	}
	1400.1.1={
	}
	1570.1.1 = {
		religion = shinto
		holding = castle_holding
	}

}
