250 = {

	culture = sanyo
	religion = shinto
	holding = castle_holding
	1000.1.1={
	}
	1310.1.1={
	}
	1331.1.1={
	}
	1490.1.1 = {
		religion = shinto
		holding = castle_holding
	}

}
