352 = {

	culture = shikoku
	religion = shinto
	holding = castle_holding
	1100.1.1={
	}
	1221.7.6={
	}
	1400.1.1={
	}
	1549.1.1 = {
		religion = shinto
		holding = castle_holding
	}

}
