381 = {

	culture = eastern_kanto
	religion = shinto
	holding = castle_holding
	1180.1.1={
	}
	1390.1.1={
	}
	1400.1.1={
	}
	1455.1.1={
	}
	1460.1.1={
		religion=shinto
		holding = castle_holding
	}
	1592.1.1={
	}
}
