﻿11005000={
	name=character_name_11005000 # Toyonari
	dynasty=10001097 # Fujiwara
	religion="shinto"
	culture="aristocrats"
	father=11000007	#Fujiwara Muchimaro
	0704.1.1={
		birth=yes
	}
	0727.1.1 ={
		add_spouse=11005011 #Fujiwara Fusako
	}
	0764.1.1={
		effect = {
			add_trait = "juichii"
		}
	}
	0766.1.12={
		death=yes
	}
}
11005001={
	name=character_name_11005001 # Nakamaro
	dynasty=10001097 # Fujiwara
	religion="shinto"
	culture="aristocrats"
	father=11000007	#Fujiwara Muchimaro
	trait="intellect_good_2"
	0706.1.1={
		birth=yes
	}
	0727.1.1={
		add_spouse =11000013	#
	}
	0762.2.1={
		effect = {
			add_trait = "shoichii"
		}
	}
	0764.10.21={
		death={
			death_reason=death_execution
		}
	}
}
11005002={
	name=character_name_11005002 # Otomaro
	dynasty=10001097 # Fujiwara
	religion="shinto"
	culture="aristocrats"
	father=11000007	#Fujiwara Muchimaro
	0710.1.1={
		birth=yes
	}
	0750.1.1={
		effect = {
			add_trait = "jusanmi"
		}
	}
	0760.8.2={
		death=yes
	}
}
11005003={
	name=character_name_11005003 # Kosemaro
	dynasty=10001097 # Fujiwara
	religion="shinto"
	culture="aristocrats"
	father=11000007	#Fujiwara Muchimaro
	0714.1.1={
		birth=yes
	}
	0760.1.1={
		effect = {
			add_trait = "jusanmi"
		}
	}
	0764.10.17={
		death={
			death_reason=death_execution
		}
	}
}
11005004={
	name=character_name_11005004 # Minami
	dynasty=10001097 # Fujiwara
	religion="shinto"
	culture="aristocrats"
	female=yes
	father=11000007	#Fujiwara Muchimaro
	0708.1.1={
		birth=yes
	}
	0748.1.1={
		death=yes
	}
}
11005006={
	name=character_name_11005006 # Muraji
	dynasty=10001097 # Fujiwara
	religion="shinto"
	culture="aristocrats"
	father=11005000	#Fujiwara Toyonari
	0725.1.1={
		birth=yes
	}
	0754.1.1={
		effect = {
			add_trait = "jugoi_ge"
		}
	}
	0775.1.1={
		death=yes
	}
}
11005007={
	name=character_name_11005007 # Chujo
	dynasty=10001097 # Fujiwara
	religion="shinto"
	culture="aristocrats"
	female=yes
	father=11005000	#Fujiwara Toyonari
	trait="devoted"
	0747.9.30={
		birth=yes
	}
	0775.4.22={
		death=yes
	}
}
11005008={
	name=character_name_11005008 # Tsugutada
	dynasty=10001097 # Fujiwara
	religion="shinto"
	culture="aristocrats"
	father=11005000	#Fujiwara Toyonari
	trait="trusting"
	0727.1.1={
		birth=yes
	}
	0790.1.1={
		effect = {
			add_trait = "shonii"
		}
	}
	0796.8.27={
		death=yes
	}
}
11005009={
	name=character_name_11005009 # Ototada
	dynasty=10001097 # Fujiwara
	religion="shinto"
	culture="aristocrats"
	father=11005000	#Fujiwara Toyonari
	0728.1.1={
		birth=yes
	}
	0770.1.1={
		effect = {
			add_trait = "jushii_jo"
		}
	}
	0781.7.1={
		death=yes
	}
}
11005010={
	name=character_name_11005010 # Tadamaro
	dynasty=10001097 # Fujiwara
	religion="shinto"
	culture="aristocrats"
	father=11005000	#Fujiwara Toyonari
	mother=11005011	#Fujiwara Fusako
	0729.1.1={
		birth=yes
	}
	0768.1.1={
		effect = {
			add_trait = "jusanmi"
		}
	}
	0780.1.24={
		death=yes
	}
}
11005011={
	name=character_name_11005011 # Fusako
	dynasty=10001000 # Fujiwara
	religion="shinto"
	culture="aristocrats"
	female=yes
	father=11000008	#Fujiwara Fusasaki
	0709.1.1={
		birth=yes
	}
	0759.1.1={
		death=yes
	}
}
11005013={
	name=character_name_11005013 # Nagamichi
	dynasty=10001097 # Fujiwara
	religion="shinto"
	culture="aristocrats"
	father=11005006	#Fujiwara Muraji
	0745.1.1={
		birth=yes
	}
	0774.1.1={
		effect = {
			add_trait = "jugoi_jo"
		}
	}
	0779.1.1={
		add_spouse =11005018	#daughter of Fujiwara Uona
	}
	0795.1.1={
		death=yes
	}
}
11005014={
	name=character_name_11005014 # Nagayama
	dynasty=10001097 # Fujiwara
	religion="shinto"
	culture="aristocrats"
	father=11005006	#Fujiwara Muraji
	0750.1.1={
		birth=yes
	}
	0770.1.1={
		effect = {
			add_trait = "jugoi_ge"
		}
	}
	0800.1.1={
		death=yes
	}
}
11005015={
	name=character_name_11005015 # Notomaro
	dynasty=10001097 # Fujiwara
	religion="shinto"
	culture="aristocrats"
	father=11005013	#Fujiwara Nagamichi
	0775.1.1={
		birth=yes
	}
	0795.1.1={
		effect = {
			add_trait = "jugoi_jo"
		}
	}
	0825.1.1={
		death=yes
	}
}
11005016={
	name=character_name_11005016 # Miyakomaro
	dynasty=10001097 # Fujiwara
	religion="shinto"
	culture="aristocrats"
	father=11005013	#Fujiwara Nagamichi
	0777.1.1={
		birth=yes
	}
	0797.1.1={
		effect = {
			add_trait = "jugoi_jo"
		}
	}
	0827.1.1={
		death=yes
	}
}
11005017={
	name=character_name_11005017 # Edatsugu
	dynasty=10001097 # Fujiwara
	religion="shinto"
	culture="aristocrats"
	father=11005013	#Fujiwara Nagamichi
	0780.1.1={
		birth=yes
	}
	0830.1.1={
		death=yes
	}
}
11005018={
	name=character_name_11005018 # Kawabe
	dynasty=10001091 # Fujiwara
	religion="shinto"
	culture="aristocrats"
	female=yes
	father=11000018	#Fujiwara Uona
	0760.1.1={
		birth=yes
	}
	0810.1.1={
		death=yes
	}
}
11005019={
	name=character_name_11005019 # Suketsugu
	dynasty=10001097 # Fujiwara
	religion="shinto"
	culture="aristocrats"
	father=11005013	#Fujiwara Nagamichi
	0781.1.1={
		birth=yes
	}
	0831.1.1={
		death=yes
	}
}
11005020={
	name=character_name_11005020 # Takakai
	dynasty=10001097 # Fujiwara
	religion="shinto"
	culture="aristocrats"
	father=11005013	#Fujiwara Nagamichi
	0782.1.1={
		birth=yes
	}
	0802.1.1={
		effect = {
			add_trait = "jugoi_jo"
		}
	}
	0814.11.1={
		death=yes
	}
}
11005021={
	name=character_name_11005021 # Nagao
	dynasty=10001097 # Fujiwara
	religion="shinto"
	culture="aristocrats"
	father=11005015	#Fujiwara Notomaro
	0805.1.1={
		birth=yes
	}
	0825.1.1={
		effect = {
			add_trait = "jugoi_ge"
		}
	}
	0855.1.1={
		death=yes
	}
}
11005022={
	name=character_name_11005022 # Fujimine
	dynasty=10001097 # Fujiwara
	religion="shinto"
	culture="aristocrats"
	father=11005021	#Fujiwara Nagao
	0825.1.1={
		birth=yes
	}
	0845.1.1={
		effect = {
			add_trait = "jugoi_ge"
		}
	}
	0875.1.1={
		death=yes
	}
}
11005023={
	name=character_name_11005023 # Motoyoshi
	dynasty=10001097 # Fujiwara
	religion="shinto"
	culture="aristocrats"
	father=11005021	#Fujiwara Nagao
	0828.1.1={
		birth=yes
	}
	0848.1.1={
		effect = {
			add_trait = "jugoi_ge"
		}
	}
	0878.1.1={
		death=yes
	}
}
11005024={
	name=character_name_11005024 # Aritaka
	dynasty=10001097 # Fujiwara
	religion="shinto"
	culture="aristocrats"
	father=11005023	#Fujiwara Motoyoshi
	0858.1.1={
		birth=yes
	}
	0878.1.1={
		effect = {
			add_trait = "jugoi_ge"
		}
	}
	0908.1.1={
		death=yes
	}
}
11005025={
	name=character_name_11005025 # Muneshige
	dynasty=10001097 # Fujiwara
	religion="shinto"
	culture="aristocrats"
	father=11005016	#Fujiwara Miyakomaro
	0797.1.1={
		birth=yes
	}
	0817.1.1={
		effect = {
			add_trait = "jugoi_ge"
		}
	}
	0847.1.1={
		death=yes
	}
}
11005026={
	name=character_name_11005026 # Hitohide
	dynasty=10001097 # Fujiwara
	religion="shinto"
	culture="aristocrats"
	father=11005016	#Fujiwara Miyakomaro
	0800.1.1={
		birth=yes
	}
	0820.1.1={
		effect = {
			add_trait = "jugoi_ge"
		}
	}
	0850.1.1={
		death=yes
	}
}
11005027={
	name=character_name_11005027 # Kiyomi
	dynasty=10001097 # Fujiwara
	religion="shinto"
	culture="aristocrats"
	father=11005025	#Fujiwara Muneshige
	0827.1.1={
		birth=yes
	}
	0847.1.1={
		effect = {
			add_trait = "jugoi_jo"
		}
	}
	0877.1.1={
		death=yes
	}
}
11005028={
	name=character_name_11005028 # Masamoto
	dynasty=10001097 # Fujiwara
	religion="shinto"
	culture="aristocrats"
	father=11005026	#Fujiwara Hitohide
	0830.1.1={
		birth=yes
	}
	0850.1.1={
		effect = {
			add_trait = "jugoi_ge"
		}
	}
	0880.1.1={
		death=yes
	}
}
11005029={
	name=character_name_11005029 # Yasumi
	dynasty=10001097 # Fujiwara
	religion="shinto"
	culture="aristocrats"
	father=11005028	#Fujiwara Masamoto
	0850.1.1={
		birth=yes
	}
	0870.1.1={
		effect = {
			add_trait = "jugoi_ge"
		}
	}
	0900.1.1={
		death=yes
	}
}
11005030={
	name=character_name_11005030 # Yasukusa
	dynasty=10001097 # Fujiwara
	religion="shinto"
	culture="aristocrats"
	father=11005028	#Fujiwara Masamoto
	0853.1.1={
		birth=yes
	}
	0873.1.1={
		effect = {
			add_trait = "jugoi_ge"
		}
	}
	0903.1.1={
		death=yes
	}
}
11005031={
	name=character_name_11005031 # Michinari
	dynasty=10001097 # Fujiwara
	religion="shinto"
	culture="aristocrats"
	father=11005019	#Fujiwara Suketsugu
	0811.1.1={
		birth=yes
	}
	0831.1.1={
		effect = {
			add_trait = "jugoi_ge"
		}
	}
	0861.1.1={
		death=yes
	}
}
11005032={
	name=character_name_11005032 # Kiyose
	dynasty=10001097 # Fujiwara
	religion="shinto"
	culture="aristocrats"
	father=11005031	#Fujiwara Michinari
	0831.1.1={
		birth=yes
	}
	0851.1.1={
		effect = {
			add_trait = "jugoi_jo"
		}
	}
	0881.1.1={
		death=yes
	}
}
11005033={
	name=character_name_11005033 # Yoshikata
	dynasty=10001097 # Fujiwara
	religion="shinto"
	culture="aristocrats"
	father=11005032	#Fujiwara Kiyose
	0861.1.1={
		birth=yes
	}
	0881.1.1={
		effect = {
			add_trait = "jugoi_jo"
		}
	}
	0933.1.1={
		death=yes
	}
}
11005034={
	name=character_name_11005034 # Chikashige
	dynasty=10001097 # Fujiwara
	religion="shinto"
	culture="aristocrats"
	father=11005032	#Fujiwara Kiyose
	0862.1.1={
		birth=yes
	}
	0882.1.1={
		effect = {
			add_trait = "jugoi_ge"
		}
	}
	0912.1.1={
		death=yes
	}
}
11005035={
	name=character_name_11005035 # Tsurazane
	dynasty=10001097 # Fujiwara
	religion="shinto"
	culture="aristocrats"
	father=11005034	#Fujiwara Chikashige
	0902.1.1={
		birth=yes
	}
	0902.1.1={
		effect = {
			add_trait = "jugoi_jo"
		}
	}
	0952.1.1={
		death=yes
	}
}
11005037={
	name=character_name_11005037 # Takatoshi
	dynasty=10001097 # Fujiwara
	religion="shinto"
	culture="aristocrats"
	father=11005008	#Fujiwara Tsugutada
	trait="arrogant"
	trait="lustful"
	0761.1.1={
		birth=yes
	}
	0800.1.1={
		effect = {
			add_trait = "jusanmi"
		}
	}
	0808.6.30={
		death=yes
	}
}
11005038={
	name=character_name_11005038 # Matsugu
	dynasty=10001097 # Fujiwara
	religion="shinto"
	culture="aristocrats"
	father=11005008	#Fujiwara Tsugutada
	0765.1.1={
		birth=yes
	}
	0785.1.1={
		effect = {
			add_trait = "jushii_jo"
		}
	}
	0815.1.1={
		death=yes
	}
}
11005040={
	name=character_name_11005040 # Michimaro
	dynasty=10001097 # Fujiwara
	religion="shinto"
	culture="aristocrats"
	father=11005037	#Fujiwara Takatoshi
	0781.1.1={
		birth=yes
	}
	0801.1.1={
		effect = {
			add_trait = "jugoi_ge"
		}
	}
	0831.1.1={
		death=yes
	}
}
11005041={
	name=character_name_11005041 # Sadao
	dynasty=10001097 # Fujiwara
	religion="shinto"
	culture="aristocrats"
	father=11005037	#Fujiwara Takatoshi
	0783.1.1={
		birth=yes
	}
	0803.1.1={
		effect = {
			add_trait = "shogoi_ge"
		}
	}
	0833.1.1={
		death=yes
	}
}
11005042={
	name=character_name_11005042 # Katsutoshi
	dynasty=10001097 # Fujiwara
	religion="shinto"
	culture="aristocrats"
	father=11005037	#Fujiwara Takatoshi
	0785.1.1={
		birth=yes
	}
	0805.1.1={
		effect = {
			add_trait = "jugoi_ge"
		}
	}
	0835.1.1={
		death=yes
	}
}
11005043={
	name=character_name_11005043 # Sogamaro
	dynasty=10001097 # Fujiwara
	religion="shinto"
	culture="aristocrats"
	father=11005037	#Fujiwara Takatoshi
	0787.1.1={
		birth=yes
	}
	0807.1.1={
		effect = {
			add_trait = "jugoi_ge"
		}
	}
	0837.1.1={
		death=yes
	}
}
11005044={
	name=character_name_11005044 # Sakatamaro
	dynasty=10001097 # Fujiwara
	religion="shinto"
	culture="aristocrats"
	father=11005037	#Fujiwara Takatoshi
	0790.1.1={
		birth=yes
	}
	0840.1.1={
		death=yes
	}
}
11005045={
	name=character_name_11005045 # Otoko
	dynasty=10001097 # Fujiwara
	religion="shinto"
	culture="aristocrats"
	female=yes
	father=11005037	#Fujiwara Takatoshi
	0791.1.1={
		birth=yes
	}
	0841.1.1={
		death=yes
	}
}
11005047={
	name=character_name_11005047 # Yasuo
	dynasty=10001097 # Fujiwara
	religion="shinto"
	culture="aristocrats"
	father=11005040	#Fujiwara Michimaro
	0811.1.1={
		birth=yes
	}
	0831.1.1={
		effect = {
			add_trait = "jugoi_ge"
		}
	}
	0861.1.1={
		death=yes
	}
}
11005048={
	name=character_name_11005048 # Toyoo
	dynasty=10001097 # Fujiwara
	religion="shinto"
	culture="aristocrats"
	father=11005040	#Fujiwara Michimaro
	0812.1.1={
		birth=yes
	}
	0832.1.1={
		effect = {
			add_trait = "jugoi_ge"
		}
	}
	0862.1.1={
		death=yes
	}
}
11005049={
	name=character_name_11005049 # Chikazane
	dynasty=10001097 # Fujiwara
	religion="shinto"
	culture="aristocrats"
	father=11005047	#Fujiwara Yasuo
	0831.1.1={
		birth=yes
	}
	0881.1.1={
		death=yes
	}
}
11005050={
	name=character_name_11005050 # Saneyo
	dynasty=10001097 # Fujiwara
	religion="shinto"
	culture="aristocrats"
	father=11005047	#Fujiwara Yasuo
	0833.1.1={
		birth=yes
	}
	0853.1.1={
		effect = {
			add_trait = "jugoi_ge"
		}
	}
	0883.1.1={
		death=yes
	}
}
11005051={
	name=character_name_11005051 # Fumimoto
	dynasty=10001097 # Fujiwara
	religion="shinto"
	culture="aristocrats"
	father=11005049	#Fujiwara Chikazane
	0861.1.1={
		birth=yes
	}
	0881.1.1={
		effect = {
			add_trait = "jugoi_ge"
		}
	}
	0911.1.1={
		death=yes
	}
}
11005052={
	name=character_name_11005052 # Chiharu
	dynasty=10001097 # Fujiwara
	religion="shinto"
	culture="aristocrats"
	father=11005050	#Fujiwara Saneyo
	0853.1.1={
		birth=yes
	}
	0873.1.1={
		effect = {
			add_trait = "jugoi_ge"
		}
	}
	0903.1.1={
		death=yes
	}
}
11005053={
	name=character_name_11005053 # Shigetaki
	dynasty=10001097 # Fujiwara
	religion="shinto"
	culture="aristocrats"
	father=11005048	#Fujiwara Toyoo
	0842.1.1={
		birth=yes
	}
	0862.1.1={
		effect = {
			add_trait = "jugoi_ge"
		}
	}
	0892.1.1={
		death=yes
	}
}
11005054={
	name=character_name_11005054 # Shigesuke
	dynasty=10001097 # Fujiwara
	religion="shinto"
	culture="aristocrats"
	father=11005048	#Fujiwara Toyoo
	0845.1.1={
		birth=yes
	}
	0865.1.1={
		effect = {
			add_trait = "jugoi_ge"
		}
	}
	0895.1.1={
		death=yes
	}
}
11005055={
	name=character_name_11005055 # Yasuyoshi
	dynasty=10001097 # Fujiwara
	religion="shinto"
	culture="aristocrats"
	father=11005053	#Fujiwara Shigetaki
	0862.1.1={
		birth=yes
	}
	0882.1.1={
		effect = {
			add_trait = "jugoi_ge"
		}
	}
	0912.1.1={
		death=yes
	}
}
11005057={
	name=character_name_11005057 # Yasunori
	dynasty=10001097 # Fujiwara
	religion="shinto"
	culture="aristocrats"
	father=11005041	#Fujiwara Sadao
	0825.1.1={
		birth=yes
	}
	0892.5.28={
		effect = {
			add_trait = "jushii_jo"
		}
	}
	0895.5.19={
		death=yes
	}
}
11005058={
	name=character_name_11005058 # Kazuo
	dynasty=10001097 # Fujiwara
	religion="shinto"
	culture="aristocrats"
	father=11005057	#Fujiwara Yasunori
	0842.1.1={
		birth=yes
	}
	0865.1.1={
		effect = {
			add_trait = "jugoi_ge"
		}
	}
	0893.1.1={
		death=yes
	}
}
11005059={
	name=character_name_11005059 # Kiyonuki
	dynasty=10001097 # Fujiwara
	religion="shinto"
	culture="aristocrats"
	father=11005057	#Fujiwara Yasunori
	0867.1.1={
		birth=yes
	}
	0910.2.25={
		effect = {
			add_trait = "shosanmi"
		}
	}
	0930.7.24={
		death=yes
	}
}
11005060={
	name=character_name_11005060 # Hirotsune
	dynasty=10001097 # Fujiwara
	religion="shinto"
	culture="aristocrats"
	father=11005058	#Fujiwara Kazuo
	0858.1.1={
		birth=yes
	}
	0876.1.1={
		effect = {
			add_trait = "jugoi_ge"
		}
	}
	0906.1.1={
		death=yes
	}
}
11005061={
	name=character_name_11005061 # Koreyoshi
	dynasty=10001097 # Fujiwara
	religion="shinto"
	culture="aristocrats"
	father=11005060	#Fujiwara Hirotsune
	0876.1.1={
		birth=yes
	}
	0896.1.1={
		effect = {
			add_trait = "jugoi_ge"
		}
	}
	0926.1.1={
		death=yes
	}
}
11005062={
	name=character_name_11005062 # Koretoki
	dynasty=10001097 # Fujiwara
	religion="shinto"
	culture="aristocrats"
	father=11005060	#Fujiwara Hirotsune
	0880.1.1={
		birth=yes
	}
	0900.1.1={
		effect = {
			add_trait = "jugoi_ge"
		}
	}
	0930.1.1={
		death=yes
	}
}
11005063={
	name=character_name_11005063 # Arikata
	dynasty=10001097 # Fujiwara
	religion="shinto"
	culture="aristocrats"
	father=11005059	#Fujiwara Kiyonuki
	0887.1.1={
		birth=yes
	}
	0907.1.1={
		effect = {
			add_trait = "jugoi_ge"
		}
	}
	0937.1.1={
		death=yes
	}
}
11005064={
	name=character_name_11005064 # Chinatsu
	dynasty=10001097 # Fujiwara
	religion="shinto"
	culture="aristocrats"
	father=11005059	#Fujiwara Kiyonuki
	0889.1.1={
		birth=yes
	}
	0909.1.1={
		effect = {
			add_trait = "jugoi_ge"
		}
	}
	0939.1.1={
		death=yes
	}
}
11005065={
	name=character_name_11005065 # Kanko
	dynasty=10001097 # Fujiwara
	religion="shinto"
	culture="aristocrats"
	female=yes
	father=11005059	#Fujiwara Kiyonuki
	0890.1.1={
		birth=yes
	}
	0940.1.1={
		death=yes
	}
}
11005066={
	name=character_name_11005066 # Tsunetane
	dynasty=10001097 # Fujiwara
	religion="shinto"
	culture="aristocrats"
	father=11005064	#Fujiwara Chinatsu
	0919.1.1={
		birth=yes
	}
	0939.1.1={
		effect = {
			add_trait = "jugoi_ge"
		}
	}
	0959.1.1={
		death=yes
	}
}
11005068={
	name=character_name_11005068 # Sanesada
	dynasty=10001097 # Fujiwara
	religion="shinto"
	culture="aristocrats"
	father=11005043	#Fujiwara Sogamaro
	0804.1.1={
		birth=yes
	}
	0817.1.1={
		effect = {
			add_trait = "jugoi_ge"
		}
	}
	0854.1.1={
		death=yes
	}
}
11005069={
	name=character_name_11005069 # Motoaki
	dynasty=10001097 # Fujiwara
	religion="shinto"
	culture="aristocrats"
	father=11005068	#Fujiwara Sanesada
	0824.1.1={
		birth=yes
	}
	0854.1.1={
		effect = {
			add_trait = "jugoi_ge"
		}
	}
	0874.1.1={
		death=yes
	}
}
11005070={
	name=character_name_11005070 # Haruniwa
	dynasty=10001097 # Fujiwara
	religion="shinto"
	culture="aristocrats"
	father=11005044	#Fujiwara Sakatamaro
	0810.1.1={
		birth=yes
	}
	0830.1.1={
		effect = {
			add_trait = "jugoi_ge"
		}
	}
	0860.1.1={
		death=yes
	}
}
11005071={
	name=character_name_11005071 # Ariniwa
	dynasty=10001097 # Fujiwara
	religion="shinto"
	culture="aristocrats"
	father=11005044	#Fujiwara Sakatamaro
	0815.1.1={
		birth=yes
	}
	0835.1.1={
		effect = {
			add_trait = "jugoi_ge"
		}
	}
	0865.1.1={
		death=yes
	}
}
11005073={
	name=character_name_11005073 # Moronushi
	dynasty=10001097 # Fujiwara
	religion="shinto"
	culture="aristocrats"
	father=11005038	#Fujiwara Matsugu
	0785.1.1={
		birth=yes
	}
	0805.1.1={
		effect = {
			add_trait = "jugoi_jo"
		}
	}
	0835.1.1={
		death=yes
	}
}
11005074={
	name=character_name_11005074 # Ujinushi
	dynasty=10001097 # Fujiwara
	religion="shinto"
	culture="aristocrats"
	father=11005038	#Fujiwara Matsugu
	0787.1.1={
		birth=yes
	}
	0807.1.1={
		effect = {
			add_trait = "jugoi_ge"
		}
	}
	0837.1.1={
		death=yes
	}
}
11005075={
	name=character_name_11005075 # Otonushi
	dynasty=10001097 # Fujiwara
	religion="shinto"
	culture="aristocrats"
	father=11005038	#Fujiwara Matsugu
	0790.1.1={
		birth=yes
	}
	0810.1.1={
		effect = {
			add_trait = "jugoi_ge"
		}
	}
	0840.1.1={
		death=yes
	}
}
11005076={
	name=character_name_11005076 # Nogimoto
	dynasty=10001097 # Fujiwara
	religion="shinto"
	culture="aristocrats"
	father=11005074	#Fujiwara Ujinushi
	0817.1.1={
		birth=yes
	}
	0837.1.1={
		effect = {
			add_trait = "jugoi_ge"
		}
	}
	0867.1.1={
		death=yes
	}
}
11005077={
	name=character_name_11005077 # Yoshiyuki
	dynasty=10001097 # Fujiwara
	religion="shinto"
	culture="aristocrats"
	father=11005076	#Fujiwara Nogimoto
	0837.1.1={
		birth=yes
	}
	0857.1.1={
		effect = {
			add_trait = "jugoi_jo"
		}
	}
	0887.1.1={
		death=yes
	}
}
11005078={
	name=character_name_11005078 # Gogaku
	dynasty=10001097 # Fujiwara
	religion="shinto"
	culture="aristocrats"
	father=11005077	#Fujiwara Yoshiyuki
	0867.1.1={
		birth=yes
	}
	0887.1.1={
		effect = {
			add_trait = "jugoi_ge"
		}
	}
	0917.1.1={
		death=yes
	}
}
11005080={
	name=character_name_11005080 # Kiyooka
	dynasty=10001097 # Fujiwara
	religion="shinto"
	culture="aristocrats"
	father=11005009	#Fujiwara Ototada
	0748.1.1={
		birth=yes
	}
	0806.1.1={
		effect = {
			add_trait = "jugoi_ge"
		}
	}
	0808.1.1={
		death=yes
	}
}
11005081={
	name=character_name_11005081 # Okatsugu
	dynasty=10001097 # Fujiwara
	religion="shinto"
	culture="aristocrats"
	father=11005009	#Fujiwara Ototada
	0750.1.1={
		birth=yes
	}
	0770.1.1={
		effect = {
			add_trait = "jugoi_jo"
		}
	}
	0800.1.1={
		death=yes
	}
}
11005082={
	name=character_name_11005082 # Yatsuri
	dynasty=10001097 # Fujiwara
	religion="shinto"
	culture="aristocrats"
	father=11005080	#Fujiwara Kiyooka
	0778.1.1={
		birth=yes
	}
	0798.1.1={
		effect = {
			add_trait = "jugoi_ge"
		}
	}
	0828.1.1={
		death=yes
	}
}
11005083={
	name=character_name_11005083 # Hideo
	dynasty=10001097 # Fujiwara
	religion="shinto"
	culture="aristocrats"
	father=11005082	#Fujiwara Yatsuri
	0798.1.1={
		birth=yes
	}
	0818.1.1={
		effect = {
			add_trait = "jugoi_jo"
		}
	}
	0848.1.1={
		death=yes
	}
}
11005084={
	name=character_name_11005084 # Atemichi
	dynasty=10001097 # Fujiwara
	religion="shinto"
	culture="aristocrats"
	father=11005081	#Fujiwara Okatsugu
	0780.1.1={
		birth=yes
	}
	0800.1.1={
		effect = {
			add_trait = "jugoi_jo"
		}
	}
	0830.1.1={
		death=yes
	}
}
11005085={
	name=character_name_11005085 # Edanori
	dynasty=10001097 # Fujiwara
	religion="shinto"
	culture="aristocrats"
	father=11005084	#Fujiwara Atemichi
	0800.1.1={
		birth=yes
	}
	0820.1.1={
		effect = {
			add_trait = "jugoi_ge"
		}
	}
	0850.1.1={
		death=yes
	}
}
11005086={
	name=character_name_11005086 # Nokaze
	dynasty=10001097 # Fujiwara
	religion="shinto"
	culture="aristocrats"
	father=11005084	#Fujiwara Atemichi
	0801.1.1={
		birth=yes
	}
	0821.1.1={
		effect = {
			add_trait = "jugoi_ge"
		}
	}
	0851.1.1={
		death=yes
	}
}
11005087={
	name=character_name_11005087 # Seisen
	dynasty=10001097 # Fujiwara
	religion="shinto"
	culture="aristocrats"
	father=11005085	#Fujiwara Edanori
	0830.1.1={
		birth=yes
	}
	0880.1.1={
		death=yes
	}
}
11005088={
	name=character_name_11005088 # Tamehito
	dynasty=10001097 # Fujiwara
	religion="shinto"
	culture="aristocrats"
	father=11005085	#Fujiwara Edanori
	0831.1.1={
		birth=yes
	}
	0851.1.1={
		effect = {
			add_trait = "jugoi_ge"
		}
	}
	0881.1.1={
		death=yes
	}
}
11005089={
	name=character_name_11005089 # Yasutsura
	dynasty=10001097 # Fujiwara
	religion="shinto"
	culture="aristocrats"
	father=11005087	#Fujiwara Seisen
	0850.1.1={
		birth=yes
	}
	0900.1.1={
		death=yes
	}
}
11005090={
	name=character_name_11005090 # Nobutada
	dynasty=10001097 # Fujiwara
	religion="shinto"
	culture="aristocrats"
	father=11005089	#Fujiwara Yasutsura
	0880.1.1={
		birth=yes
	}
	0930.1.1={
		death=yes
	}
}
11005091={
	name=character_name_11005091 # Nobumitsu
	dynasty=10001097 # Fujiwara
	religion="shinto"
	culture="aristocrats"
	father=11005090	#Fujiwara Nobutada
	0900.1.1={
		birth=yes
	}
	0920.1.1={
		effect = {
			add_trait = "jugoi_ge"
		}
	}
	0950.1.1={
		death=yes
	}
}
11005092={
	name=character_name_11005092 # Masumitsu
	dynasty=10001097 # Fujiwara
	religion="shinto"
	culture="aristocrats"
	father=11005090	#Fujiwara Nobutada
	0905.1.1={
		birth=yes
	}
	0925.1.1={
		effect = {
			add_trait = "jugoi_ge"
		}
	}
	0955.1.1={
		death=yes
	}
}
11005093={
	name=character_name_11005093 # Yoshitomo
	dynasty=10001097 # Fujiwara
	religion="shinto"
	culture="aristocrats"
	father=11005088	#Fujiwara Tamehito
	0851.1.1={
		birth=yes
	}
	0871.1.1={
		effect = {
			add_trait = "jugoi_ge"
		}
	}
	0901.1.1={
		death=yes
	}
}
11005094={
	name=character_name_11005094 # Moritomo
	dynasty=10001097 # Fujiwara
	religion="shinto"
	culture="aristocrats"
	father=11005093	#Fujiwara Yoshitomo
	0881.1.1={
		birth=yes
	}
	0901.1.1={
		effect = {
			add_trait = "jugoi_ge"
		}
	}
	0931.1.1={
		death=yes
	}
}
11005095={
	name=character_name_11005095 # Noriie
	dynasty=10001097 # Fujiwara
	religion="shinto"
	culture="aristocrats"
	father=11005094	#Fujiwara Moritomo
	0911.1.1={
		birth=yes
	}
	0931.1.1={
		effect = {
			add_trait = "jugoi_ge"
		}
	}
	0961.1.1={
		death=yes
	}
}
11005097={
	name=character_name_11005097 # Tameaki
	dynasty=10001097 # Fujiwara
	religion="shinto"
	culture="aristocrats"
	father=11005035	#Fujiwara Tsurazane
	0922.1.1={
		birth=yes
	}
	0922.1.1={
		effect = {
			add_trait = "jugoi_ge"
		}
	}
	0972.1.1={
		death=yes
	}
}
11005098={
	name=character_name_11005098 # Tamemoto
	dynasty=10001097 # Fujiwara
	religion="shinto"
	culture="aristocrats"
	father=11005035	#Fujiwara Tsurazane
	0924.1.1={
		birth=yes
	}
	0924.1.1={
		effect = {
			add_trait = "jugoi_ge"
		}
	}
	0974.1.1={
		death=yes
	}
}
11005099={
	name=character_name_11005099 # Keien
	dynasty=10001097 # Fujiwara
	religion="shinto"
	culture="aristocrats"
	father=11005035 # Fujiwara Tsurazane
	0940.1.1={
		birth=yes
	}
	0950.1.1={
		culture="kinai_buddhist"
		effect = {
			add_trait = "devoted"
		}
	}
	1014.12.26={
		employer=0 # Tendai Zasu (24th chief priest of the Tendai sect)
	}
	1019.9.3={
		death=yes
	}
}
11005100={
	name=character_name_11005100 # Tamefusa
	dynasty=10001097 # Fujiwara
	religion="shinto"
	culture="aristocrats"
	father=11005098	#Fujiwara Tamemoto
	0944.1.1={
		birth=yes
	}
	0994.1.1={
		death=yes
	}
}
11005101={
	name=character_name_11005101 # Ariyuki
	dynasty=10001097 # Fujiwara
	religion="shinto"
	culture="aristocrats"
	father=11005097	#Fujiwara Tameaki
	0952.1.1={
		birth=yes
	}
	0972.1.1={
		effect = {
			add_trait = "jugoi_ge"
		}
	}
	1002.1.1={
		death=yes
	}
}
11005102={
	name=character_name_11005102 # Akiyuki
	dynasty=10001097 # Fujiwara
	religion="shinto"
	culture="aristocrats"
	father=11005101	#Fujiwara Ariyuki
	0982.1.1={
		birth=yes
	}
	1002.1.1={
		effect = {
			add_trait = "jugoi_ge"
		}
	}
	1032.1.1={
		death=yes
	}
}
11005103={
	name=character_name_11005103 # Yukinaka
	dynasty=10001097 # Fujiwara
	religion="shinto"
	culture="aristocrats"
	father=11005102	#Fujiwara Akiyuki
	1012.1.1={
		birth=yes
	}
	1062.1.1={
		death=yes
	}
}
11005104={
	name=character_name_11005104 # Sosho
	dynasty=10001097 # Fujiwara
	religion="shinto"
	culture="aristocrats"
	father=11005102	#Fujiwara Akiyuki
	trait="devoted"
	1013.1.1={
		birth=yes
		culture="kinai_buddhist"
	}
	1063.1.1={
		death=yes
	}
}
11005106={
	name=character_name_11005106 # Mayori
	dynasty=10001097 # Fujiwara
	religion="shinto"
	culture="aristocrats"
	father=11005001	#Fujiwara Nakamaro
	mother=11000013	#Fujiwara Ohirako
	0728.1.1={
		birth=yes
	}
	0749.4.1={
		effect = {
			add_trait = "jugoi_ge"
		}
	}
	0753.1.1={
		death=yes
	}
}
11005107={
	name=character_name_11005107 # Masaki
	dynasty=10001097 # Fujiwara
	religion="shinto"
	culture="aristocrats"
	father=11005001	#Fujiwara Nakamaro
	mother=11000013	#Fujiwara Ohirako
	0729.1.1={
		birth=yes
	}
	0762.12.1={
		effect = {
			add_trait = "shoshii_jo"
		}
	}
	0764.10.21={
		death={
			death_reason=death_execution
		}
	}
}
11005108={
	name=character_name_11005108 # Kusumaro
	dynasty=10001097 # Fujiwara
	religion="shinto"
	culture="aristocrats"
	father=11005001	#Fujiwara Nakamaro
	mother=11000013	#Fujiwara Ohirako
	0730.1.1={
		birth=yes
	}
	0759.5.1={
		effect = {
			add_trait = "jushii_ge"
		}
	}
	0764.10.14={
		death={
			death_reason=death_battle
		}
	}
}
11005109={
	name=character_name_11005109 # Asakari
	dynasty=10001097 # Fujiwara
	religion="shinto"
	culture="aristocrats"
	father=11005001	#Fujiwara Nakamaro
	0732.1.1={
		birth=yes
	}
	0762.12.20={
		effect = {
			add_trait = "jushii_ge"
		}
	}
	0764.10.21={
		death={
			death_reason=death_execution
		}
	}
}
11005110={
	name=character_name_11005110 # Koyumaro
	dynasty=10001097 # Fujiwara
	religion="shinto"
	culture="aristocrats"
	father=11005001	#Fujiwara Nakamaro
	0734.1.1={
		birth=yes
	}
	0764.1.1={
		effect = {
			add_trait = "jushii_jo"
		}
	}
	0764.10.21={
		death={
			death_reason=death_execution
		}
	}
}
11005111={
	name=character_name_11005111 # Yoshio
	dynasty=10001097 # Fujiwara
	religion="shinto"
	culture="aristocrats"
	father=11005001	#Fujiwara Nakamaro
	trait="scholar"
	0736.1.1={
		birth=yes
	}
	0778.1.1={
		effect = {
			add_trait = "jugoi_jo"
		}
	}
	0786.1.1={
		death=yes
	}
}
11005112={
	name=character_name_11005112 # Hiroo
	dynasty=10001097 # Fujiwara
	religion="shinto"
	culture="aristocrats"
	father=11005001	#Fujiwara Nakamaro
	0737.1.1={
		birth=yes
	}
	0759.1.1={
		effect = {
			add_trait = "jugoi_ge"
		}
	}
	0764.10.21={
		death={
			death_reason=death_execution
		}
	}
}
11005113={
	name=character_name_11005113 # Shikachi
	dynasty=10001097 # Fujiwara
	religion="shinto"
	culture="aristocrats"
	father=11005001	#Fujiwara Nakamaro
	0738.1.1={
		birth=yes
	}
	0761.1.1={
		effect = {
			add_trait = "jugoi_ge"
		}
	}
	0764.10.7={
		death={
			death_reason=death_execution
		}
	}
}
11005114={
	name=character_name_11005114 # Torisao
	dynasty=10001097 # Fujiwara
	religion="shinto"
	culture="aristocrats"
	father=11005001	#Fujiwara Nakamaro
	0739.1.1={
		birth=yes
	}
	0763.1.1={
		effect = {
			add_trait = "jugoi_ge"
		}
	}
	0764.10.21={
		death={
			death_reason=death_execution
		}
	}
}
11005115={
	name=character_name_11005115 # Sanefumi
	dynasty=10001097 # Fujiwara
	religion="shinto"
	culture="aristocrats"
	father=11005001	#Fujiwara Nakamaro
	mother=11000013	#Fujiwara Ohirako
	0740.1.1={
		birth=yes
	}
	0760.1.1={
		effect = {
			add_trait = "jugoi_ge"
		}
	}
	0764.10.21={
		death={
			death_reason=death_execution
		}
	}
}
11005116={
	name=character_name_11005116 # Tokuitsu
	dynasty=10001097 # Fujiwara
	religion="shinto"
	culture="aristocrats"
	father=11005001	#Fujiwara Nakamaro
	trait="devoted"
	0749.1.1={
		birth=yes
		culture="kinai_buddhist"
	}
	0825.1.1={
		death=yes
	}
}
11005117={
	name=character_name_11005117 # Koyori
	dynasty=10001097 # Fujiwara
	religion="shinto"
	culture="aristocrats"
	female=yes
	father=11005001	#Fujiwara Nakamaro
	mother=11000013	#Fujiwara Ohirako
	0731.1.1={
		birth=yes
	}
	0761.1.1={
		effect = {
			add_trait = "shoshii_ge"
		}
	}
	0761.1.1={
		death=yes
	}
}
11005118={
	name=character_name_11005118 # Toko
	dynasty=10001097 # Fujiwara
	religion="shinto"
	culture="aristocrats"
	female=yes
	father=11005001	#Fujiwara Nakamaro
	0735.1.1={
		birth=yes
	}
	0764.10.21={
		death={
			death_reason=death_execution
		}
	}
}
11005119={
	name=character_name_11005119 # Hitai
	dynasty=10001097 # Fujiwara
	religion="shinto"
	culture="aristocrats"
	female=yes
	father=11005001	#Fujiwara Nakamaro
	0742.1.1={
		birth=yes
	}
	0752.1.1={
		death=yes
	}
}
11005121={
	name=character_name_11005121 # Mioka
	dynasty=10001097 # Fujiwara
	religion="shinto"
	culture="aristocrats"
	father=11005108	#Fujiwara Kusumaro
	0750.1.1={
		birth=yes
	}
	0761.1.1={
		effect = {
			add_trait = "jugoi_ge"
		}
	}
	0764.10.21={
		death={
			death_reason=death_execution
		}
	}
}
11005122={
	name=character_name_11005122 # Naganori
	dynasty=10001097 # Fujiwara
	religion="shinto"
	culture="aristocrats"
	father=11005115	#Fujiwara Sanefumi
	0760.1.1={
		birth=yes
	}
	0810.1.1={
		death=yes
	}
}
11005123={
	name=character_name_11005123 # Asatada
	dynasty=10001097 # Fujiwara
	religion="shinto"
	culture="aristocrats"
	father=11005112	#Fujiwara Hiroo
	0757.1.1={
		birth=yes
	}
	0797.1.1={
		effect = {
			add_trait = "jugoi_ge"
		}
	}
	0807.1.1={
		death=yes
	}
}
11005124={
	name=character_name_11005124 # Yoshitaka
	dynasty=10001097 # Fujiwara
	religion="shinto"
	culture="aristocrats"
	father=11005123	#Fujiwara Asatada
	0787.1.1={
		birth=yes
	}
	0807.1.1={
		effect = {
			add_trait = "jugoi_ge"
		}
	}
	0837.1.1={
		death=yes
	}
}
11005125={
	name=character_name_11005125 # Omachi
	dynasty=10001097 # Fujiwara
	religion="shinto"
	culture="aristocrats"
	father=11005124	#Fujiwara Yoshitaka
	0807.1.1={
		birth=yes
	}
	0827.1.1={
		effect = {
			add_trait = "jugoi_ge"
		}
	}
	0857.1.1={
		death=yes
	}
}
11005126={
	name=character_name_11005126 # Okage
	dynasty=10001097 # Fujiwara
	religion="shinto"
	culture="aristocrats"
	father=11005125	#Fujiwara Omachi
	0837.1.1={
		birth=yes
	}
	0857.1.1={
		effect = {
			add_trait = "jugoi_ge"
		}
	}
	0887.1.1={
		death=yes
	}
}
11005127={
	name=character_name_11005127 # Arikoe
	dynasty=10001097 # Fujiwara
	religion="shinto"
	culture="aristocrats"
	father=11005126	#Fujiwara Okage
	0857.1.1={
		birth=yes
	}
	0877.1.1={
		effect = {
			add_trait = "jushii_jo"
		}
	}
	0907.1.1={
		death=yes
	}
}
11005128={
	name=character_name_11005128 # Yoshimoto
	dynasty=10001097 # Fujiwara
	religion="shinto"
	culture="aristocrats"
	father=11005127	#Fujiwara Arikoe
	0887.1.1={
		birth=yes
	}
	0907.1.1={
		effect = {
			add_trait = "jugoi_ge"
		}
	}
	0937.1.1={
		death=yes
	}
}
11005129={
	name=character_name_11005129 # Chiyo
	dynasty=10001097 # Fujiwara
	religion="shinto"
	culture="aristocrats"
	father=11005111	#Fujiwara Yoshio
	0766.1.1={
		birth=yes
	}
	0786.1.1={
		effect = {
			add_trait = "jugoi_ge"
		}
	}
	0816.1.1={
		death=yes
	}
}
11005130={
	name=character_name_11005130 # Tomitsugu
	dynasty=10001097 # Fujiwara
	religion="shinto"
	culture="aristocrats"
	father=11005129	#Fujiwara Chiyo
	0796.1.1={
		birth=yes
	}
	0846.1.1={
		death=yes
	}
}
11005131={
	name=character_name_11005131 # Saneyuki
	dynasty=10001097 # Fujiwara
	religion="shinto"
	culture="aristocrats"
	father=11005130	#Fujiwara Tomitsugu
	0826.1.1={
		birth=yes
	}
	0876.1.1={
		death=yes
	}
}
11005150={
	name=character_name_11005150 # Kotomaro
	dynasty=10001097 # Fujiwara
	religion="shinto"
	culture="aristocrats"
	father=11005002	#Fujiwara Otomaro
	0730.1.1={
		birth=yes
	}
	0750.1.1={
		effect = {
			add_trait = "shogoi_ge"
		}
	}
	0780.1.1={
		death=yes
	}
}
11005151={
	name=character_name_11005151 # Korekimi
	dynasty=10001097 # Fujiwara
	religion="shinto"
	culture="aristocrats"
	father=11005002	#Fujiwara Otomaro
	trait="administrator"
	0727.1.1={
		birth=yes
	}
	0783.1.1={
		effect = {
			add_trait = "junii"
		}
	}
	0789.12.12={
		death=yes
	}
}
11005152={
	name=character_name_11005152 # Tomoko
	dynasty=10001097 # Fujiwara
	religion="shinto"
	culture="aristocrats"
	female=yes
	father=11005002	#Fujiwara Otomaro
	0749.1.1={
		birth=yes
	}
	0799.1.1={
		death=yes
	}
}
11005154={
	name=character_name_11005154 # Kikuchimaro
	dynasty=10001097 # Fujiwara
	religion="shinto"
	culture="aristocrats"
	father=11005150	#Fujiwara Kotomaro
	0760.1.1={
		birth=yes
	}
	0800.1.1={
		effect = {
			add_trait = "jugoi_jo"
		}
	}
	0810.1.1={
		death=yes
	}
}
11005155={
	name=character_name_11005155 # Ujimune
	dynasty=10001097 # Fujiwara
	religion="shinto"
	culture="aristocrats"
	father=11005154	#Fujiwara Kikuchimaro
	0790.1.1={
		birth=yes
	}
	0830.1.1={
		effect = {
			add_trait = "shogoi_jo"
		}
	}
	0840.1.1={
		death=yes
	}
}
11005156={
	name=character_name_11005156 # Kunimori
	dynasty=10001097 # Fujiwara
	religion="shinto"
	culture="aristocrats"
	father=11005155	#Fujiwara Ujimune
	0810.1.1={
		birth=yes
	}
	0840.1.1={
		effect = {
			add_trait = "jugoi_ge"
		}
	}
	0860.1.1={
		death=yes
	}
}
11005157={
	name=character_name_11005157 # Harukage
	dynasty=10001097 # Fujiwara
	religion="shinto"
	culture="aristocrats"
	father=11005155	#Fujiwara Ujimune
	0812.1.1={
		birth=yes
	}
	0842.1.1={
		effect = {
			add_trait = "shogoi_ge"
		}
	}
	0862.1.1={
		death=yes
	}
}
11005158={
	name=character_name_11005158 # Yoshishige
	dynasty=10001097 # Fujiwara
	religion="shinto"
	culture="aristocrats"
	father=11005156	#Fujiwara Kunimori
	0840.1.1={
		birth=yes
	}
	0860.1.1={
		effect = {
			add_trait = "jugoi_ge"
		}
	}
	0890.1.1={
		death=yes
	}
}
11005159={
	name=character_name_11005159 # Kimiyoshi
	dynasty=10001097 # Fujiwara
	religion="shinto"
	culture="aristocrats"
	father=11005156	#Fujiwara Kunimori
	0841.1.1={
		birth=yes
	}
	0891.1.1={
		death=yes
	}
}
11005160={
	name=character_name_11005160 # Yoshitomo
	dynasty=10001097 # Fujiwara
	religion="shinto"
	culture="aristocrats"
	father=11005158	#Fujiwara Yoshishige
	0860.1.1={
		birth=yes
	}
	0900.1.1={
		effect = {
			add_trait = "shogoi_jo"
		}
	}
	0910.1.1={
		death=yes
	}
}
11005161={
	name=character_name_11005161 # Arifusa
	dynasty=10001097 # Fujiwara
	religion="shinto"
	culture="aristocrats"
	father=11005158	#Fujiwara Yoshishige
	0865.1.1={
		birth=yes
	}
	0905.1.1={
		effect = {
			add_trait = "jugoi_ge"
		}
	}
	0915.1.1={
		death=yes
	}
}
11005162={
	name=character_name_11005162 # Kagefusa
	dynasty=10001097 # Fujiwara
	religion="shinto"
	culture="aristocrats"
	father=11005160	#Fujiwara Yoshitomo
	0890.1.1={
		birth=yes
	}
	0940.1.1={
		death=yes
	}
}
11005164={
	name=character_name_11005164 # Matomo
	dynasty=10001097 # Fujiwara
	religion="shinto"
	culture="aristocrats"
	father=11005151	#Fujiwara Korekimi
	0742.1.1={
		birth=yes
	}
	0796.1.1={
		effect = {
			add_trait = "jushii_jo"
		}
	}
	0797.7.23={
		death=yes
	}
}
11005165={
	name=character_name_11005165 # Otomo
	dynasty=10001097 # Fujiwara
	religion="shinto"
	culture="aristocrats"
	father=11005151	#Fujiwara Korekimi
	trait="patient"
	0753.1.1={
		birth=yes
	}
	0804.1.1={
		effect = {
			add_trait = "shosanmi"
		}
	}
	0811.5.18={
		death=yes
	}
}
11005166={
	name=character_name_11005166 # Ototomo
	dynasty=10001097 # Fujiwara
	religion="shinto"
	culture="aristocrats"
	father=11005151	#Fujiwara Korekimi
	0755.1.1={
		birth=yes
	}
	0784.1.1={
		effect = {
			add_trait = "jugoi_ge"
		}
	}
	0805.1.1={
		death=yes
	}
}
11005167={
	name=character_name_11005167 # Yoshiko
	dynasty=10001097 # Fujiwara
	religion="shinto"
	culture="aristocrats"
	female=yes
	father=11005151	#Fujiwara Korekimi
	0763.1.1={
		birth=yes
	}
	0783.1.1={
		effect = {
			add_trait = "shosanmi"
		}
	}
	0807.12.1={
		death={
			death_reason=death_suicide
		}
	}
}
11005168={
	name=character_name_11005168 # Tomohito
	dynasty=10001097 # Fujiwara
	religion="shinto"
	culture="aristocrats"
	father=11005151	#Fujiwara Korekimi
#	trait="shugendo_buddhist"
	trait="arbitrary"
	0767.1.1={
		birth=yes
	}
	0820.1.1={
		effect = {
			add_trait = "jushii_ge"
		}
	}
	0822.9.4={
		death=yes
	}
}
11005170={
	name=character_name_11005170 # Asatsugu
	dynasty=10001097 # Fujiwara
	religion="shinto"
	culture="aristocrats"
	father=11005164	#Fujiwara Matomo
	0762.1.1={
		birth=yes
	}
	0782.1.1={
		effect = {
			add_trait = "jugoi_ge"
		}
	}
	0812.1.1={
		death=yes
	}
}
11005171={
	name=character_name_11005171 # Michinaga
	dynasty=10001097 # Fujiwara
	religion="shinto"
	culture="aristocrats"
	father=11005164	#Fujiwara Matomo
	0765.1.1={
		birth=yes
	}
	0785.1.1={
		effect = {
			add_trait = "jugoi_ge"
		}
	}
	0815.1.1={
		death=yes
	}
}
11005172={
	name=character_name_11005172 # Sadano
	dynasty=10001097 # Fujiwara
	religion="shinto"
	culture="aristocrats"
	father=11005170	#Fujiwara Asatsugu
	0792.1.1={
		birth=yes
	}
	0812.1.1={
		effect = {
			add_trait = "jugoi_ge"
		}
	}
	0842.1.1={
		death=yes
	}
}
11005173={
	name=character_name_11005173 # Toyonori
	dynasty=10001097 # Fujiwara
	religion="shinto"
	culture="aristocrats"
	father=11005172	#Fujiwara Sadano
	0812.1.1={
		birth=yes
	}
	0832.1.1={
		effect = {
			add_trait = "jugoi_jo"
		}
	}
	0862.1.1={
		death=yes
	}
}
11005174={
	name=character_name_11005174 # Morouji
	dynasty=10001097 # Fujiwara
	religion="shinto"
	culture="aristocrats"
	father=11005171	#Fujiwara Michinaga
	0795.1.1={
		birth=yes
	}
	0815.1.1={
		effect = {
			add_trait = "jugoi_jo"
		}
	}
	0845.1.1={
		death=yes
	}
}
11005175={
	name=character_name_11005175 # Shodoji
	dynasty=10001097 # Fujiwara
	religion="shinto"
	culture="aristocrats"
	female=yes
	father=11005171	#Fujiwara Michinaga
	0810.1.1={
		birth=yes
	}
	0860.1.1={
		death=yes
	}
}
11005176={
	name=character_name_11005176 # Mako
	dynasty=10001097 # Fujiwara
	religion="shinto"
	culture="aristocrats"
	female=yes
	father=11005164	#Fujiwara Matomo
	0770.1.1={
		birth=yes
	}
	0820.1.1={
		death=yes
	}
}
11005177={
	name=character_name_11005177 # Tomoko
	dynasty=10001097 # Fujiwara
	religion="shinto"
	culture="aristocrats"
	female=yes
	father=11005164	#Fujiwara Matomo
	0775.1.1={
		birth=yes
	}
	0825.1.1={
		death=yes
	}
}
11005179={
	name=character_name_11005179 # Okimichi
	dynasty=10001097 # Fujiwara
	religion="shinto"
	culture="aristocrats"
	father=11005168	#Fujiwara Tomohito
	0787.1.1={
		birth=yes
	}
	0837.1.1={
		death=yes
	}
}
11005180={
	name=character_name_11005180 # Yoshimichi
	dynasty=10001097 # Fujiwara
	religion="shinto"
	culture="aristocrats"
	father=11005168	#Fujiwara Tomohito
	0790.1.1={
		birth=yes
	}
	0810.1.1={
		effect = {
			add_trait = "jugoi_ge"
		}
	}
	0840.1.1={
		death=yes
	}
}
11005181={
	name=character_name_11005181 # Takamune
	dynasty=10001097 # Fujiwara
	religion="shinto"
	culture="aristocrats"
	father=11005179	#Fujiwara Okimichi
	0817.1.1={
		birth=yes
	}
	0867.1.1={
		death=yes
	}
}
11005182={
	name=character_name_11005182 # Yasuo
	dynasty=10001097 # Fujiwara
	religion="shinto"
	culture="aristocrats"
	father=11005180	#Fujiwara Yoshimichi
	0820.1.1={
		birth=yes
	}
	0870.1.1={
		death=yes
	}
}
11005183={
	name=character_name_11005183 # Tokiuji
	dynasty=10001097 # Fujiwara
	religion="shinto"
	culture="aristocrats"
	father=11005181	#Fujiwara Takamune
	0847.1.1={
		birth=yes
	}
	0867.1.1={
		effect = {
			add_trait = "jugoi_ge"
		}
	}
	0897.1.1={
		death=yes
	}
}
11005184={
	name=character_name_11005184 # Saneki
	dynasty=10001097 # Fujiwara
	religion="shinto"
	culture="aristocrats"
	father=11005182	#Fujiwara Yasuo
	0850.1.1={
		birth=yes
	}
	0870.1.1={
		effect = {
			add_trait = "jugoi_ge"
		}
	}
	0900.1.1={
		death=yes
	}
}
11005186={
	name=character_name_11005186 # Makawa
	dynasty=10001097 # Fujiwara
	religion="shinto"
	culture="aristocrats"
	father=11005165	#Fujiwara Otomo
	0773.1.1={
		birth=yes
	}
	0793.1.1={
		effect = {
			add_trait = "jugoi_jo"
		}
	}
	0823.1.1={
		death=yes
	}
}
11005187={
	name=character_name_11005187 # Fumiyama
	dynasty=10001097 # Fujiwara
	religion="shinto"
	culture="aristocrats"
	father=11005165	#Fujiwara Otomo
	0775.1.1={
		birth=yes
	}
	0791.1.1={
		add_spouse =11005176	#daughter of Fujiwara Sanetomo
	}
	0833.1.1={
		effect = {
			add_trait = "jushii_jo"
		}
	}
	0841.4.16={
		death=yes
	}
}
11005188={
	name=character_name_11005188 # Hirokawa
	dynasty=10001097 # Fujiwara
	religion="shinto"
	culture="aristocrats"
	father=11005165	#Fujiwara Otomo
	0777.1.1={
		birth=yes
	}
	0827.1.1={
		death=yes
	}
}
11005189={
	name=character_name_11005189 # Otokawa
	dynasty=10001097 # Fujiwara
	religion="shinto"
	culture="aristocrats"
	father=11005165	#Fujiwara Otomo
	0780.1.1={
		birth=yes
	}
	0796.1.1={
		add_spouse =11005177	#daughter of Fujiwara Sanetomo
	}
	0813.1.7={
		effect = {
			add_trait = "jugoi_ge"
		}
	}
	0830.1.1={
		death=yes
	}
}
11005190={
	name=character_name_11005190 # Akitsune
	dynasty=10001097 # Fujiwara
	religion="shinto"
	culture="aristocrats"
	father=11005165	#Fujiwara Otomo
	0779.1.1={
		birth=yes
	}
	0833.1.1={
		effect = {
			add_trait = "jugoi_ge"
		}
	}
	0859.1.1={
		death=yes
	}
}
11005191={
	name=character_name_11005191 # Otoo
	dynasty=10001097 # Fujiwara
	religion="shinto"
	culture="aristocrats"
	father=11005165	#Fujiwara Otomo
	0778.1.1={
		birth=yes
	}
	0798.1.1={
		effect = {
			add_trait = "jugoi_ge"
		}
	}
	0828.1.1={
		death=yes
	}
}
11005193={
	name=character_name_11005193 # Nagamoto
	dynasty=10001097 # Fujiwara
	religion="shinto"
	culture="aristocrats"
	father=11005187	#Fujiwara Fumiyama
	0805.1.1={
		birth=yes
	}
	0825.1.1={
		effect = {
			add_trait = "jugoi_ge"
		}
	}
	0855.1.1={
		death=yes
	}
}
11005194={
	name=character_name_11005194 # Tsunemoto
	dynasty=10001097 # Fujiwara
	religion="shinto"
	culture="aristocrats"
	father=11005187	#Fujiwara Fumiyama
	mother=11005176	#Fujiwara Mako
	0806.1.1={
		birth=yes
	}
	0826.1.1={
		effect = {
			add_trait = "jugoi_ge"
		}
	}
	0856.1.1={
		death=yes
	}
}
11005195={
	name=character_name_11005195 # Aritsune
	dynasty=10001097 # Fujiwara
	religion="shinto"
	culture="aristocrats"
	father=11005193	#Fujiwara Nagamoto
	0825.1.1={
		birth=yes
	}
	0845.1.1={
		effect = {
			add_trait = "jugoi_ge"
		}
	}
	0875.1.1={
		death=yes
	}
}
11005196={
	name=character_name_11005196 # Hidetaka
	dynasty=10001097 # Fujiwara
	religion="shinto"
	culture="aristocrats"
	father=11005191	#Fujiwara Otoo
	0808.1.1={
		birth=yes
	}
	0858.1.1={
		death=yes
	}
}
11005197={
	name=character_name_11005197 # Yoshisada
	dynasty=10001097 # Fujiwara
	religion="shinto"
	culture="aristocrats"
	father=11005190	#Fujiwara Akitsune
	0799.1.1={
		birth=yes
	}
	0849.1.1={
		death=yes
	}
}
11005198={
	name=character_name_11005198 # Hidesada
	dynasty=10001097 # Fujiwara
	religion="shinto"
	culture="aristocrats"
	father=11005190	#Fujiwara Akitsune
	0800.1.1={
		birth=yes
	}
	0850.1.1={
		death=yes
	}
}
11005199={
	name=character_name_11005199 # Nyodo
	dynasty=10001097 # Fujiwara
	religion="shinto"
	culture="aristocrats"
	father=11005198	#Fujiwara Hidesada
	0830.1.1={
		birth=yes
	}
	0850.1.1={
		effect = {
			add_trait = "shogoi_ge"
		}
	}
	0880.1.1={
		death=yes
	}
}
11005200={
	name=character_name_11005200 # Kageto
	dynasty=10001097 # Fujiwara
	religion="shinto"
	culture="aristocrats"
	father=11005198	#Fujiwara Hidesada
	0831.1.1={
		birth=yes
	}
	0851.1.1={
		effect = {
			add_trait = "jugoi_ge"
		}
	}
	0881.1.1={
		death=yes
	}
}
11005201={
	name=character_name_11005201 # Shigefuji
	dynasty=10001097 # Fujiwara
	religion="shinto"
	culture="aristocrats"
	father=11005198	#Fujiwara Hidesada
	0832.1.1={
		birth=yes
	}
	0882.1.1={
		death=yes
	}
}
11005203={
	name=character_name_11005203 # Takasuke
	dynasty=10001097 # Fujiwara
	religion="shinto"
	culture="aristocrats"
	father=11005189	#Fujiwara Otokawa
	mother=11005177	#Fujiwara Tomoko
	0797.1.1={
		birth=yes
	}
	0837.2.13={
		effect = {
			add_trait = "jugoi_jo"
		}
	}
	0880.1.1={
		death=yes
	}
}
11005204={
	name=character_name_11005204 # Aritoshi
	dynasty=10001097 # Fujiwara
	religion="shinto"
	culture="aristocrats"
	father=11005203	#Fujiwara Takasuke
	0822.1.1={
		birth=yes
	}
	0869.1.1={
		effect = {
			add_trait = "jugoi_jo"
		}
	}
	0877.1.1={
		death=yes
	}
}
11005205={
	name=character_name_11005205 # Kiyonatsu
	dynasty=10001097 # Fujiwara
	religion="shinto"
	culture="aristocrats"
	father=11005203	#Fujiwara Takasuke
	0826.1.1={
		birth=yes
	}
	0875.1.1={
		effect = {
			add_trait = "jushii_ge"
		}
	}
	0886.1.1={
		death=yes
	}
}
11005206={
	name=character_name_11005206 # Arikage
	dynasty=10001097 # Fujiwara
	religion="shinto"
	culture="aristocrats"
	father=11005203	#Fujiwara Takasuke
	0824.1.1={
		birth=yes
	}
	0884.7.1={
		effect = {
			add_trait = "jushii_ge"
		}
	}
	0885.11.12={
		death=yes
	}
}
11005207={
	name=character_name_11005207 # Kiyokage
	dynasty=10001097 # Fujiwara
	religion="shinto"
	culture="aristocrats"
	father=11005203	#Fujiwara Takasuke
	0825.1.1={
		birth=yes
	}
	0870.1.1={
		effect = {
			add_trait = "jugoi_ge"
		}
	}
	0875.1.1={
		death=yes
	}
}
11005209={
	name=character_name_11005209 # Masaki
	dynasty=10001097 # Fujiwara
	religion="shinto"
	culture="aristocrats"
	father=11005204	#Fujiwara Aritoshi
	0852.1.1={
		birth=yes
	}
	0872.1.1={
		effect = {
			add_trait = "jugoi_jo"
		}
	}
	0902.1.1={
		death=yes
	}
}
11005210={
	name=character_name_11005210 # Masashige
	dynasty=10001097 # Fujiwara
	religion="shinto"
	culture="aristocrats"
	father=11005204	#Fujiwara Aritoshi
	0855.1.1={
		birth=yes
	}
	0875.1.1={
		effect = {
			add_trait = "jugoi_jo"
		}
	}
	0905.1.1={
		death=yes
	}
}
11005211={
	name=character_name_11005211 # Motokazu
	dynasty=10001097 # Fujiwara
	religion="shinto"
	culture="aristocrats"
	father=11005209	#Fujiwara Masaki
	0872.1.1={
		birth=yes
	}
	0892.1.1={
		effect = {
			add_trait = "jugoi_ge"
		}
	}
	0922.1.1={
		death=yes
	}
}
11005212={
	name=character_name_11005212 # Akishige
	dynasty=10001097 # Fujiwara
	religion="shinto"
	culture="aristocrats"
	father=11005211	#Fujiwara Motokazu
	0902.1.1={
		birth=yes
	}
	0952.1.1={
		death=yes
	}
}
11005213={
	name=character_name_11005213 # Fumisato
	dynasty=10001097 # Fujiwara
	religion="shinto"
	culture="aristocrats"
	father=11005210	#Fujiwara Masashige
	0875.1.1={
		birth=yes
	}
	0925.1.1={
		death=yes
	}
}
11005215={
	name=character_name_11005215 # Korechiyo
	dynasty=10001097 # Fujiwara
	religion="shinto"
	culture="aristocrats"
	father=11005205	#Fujiwara Kiyonatsu
	0863.1.1={
		birth=yes
	}
	0890.1.1={
		add_spouse=10110499
	}
	0900.1.1={
		effect = {
			add_trait = "jugoi_jo"
		}
	}
	0943.1.1={
		death=yes
	}
}
11005216={
	name=character_name_11005216 # Tamenori
	dynasty=10001097 # Fujiwara
	religion="shinto"
	culture="aristocrats"
	father=11005215	#Fujiwara Korechiyo
	mother=10110499
	0903.1.1={
		birth=yes
	}
	0941.1.1={
		dynasty=10006000 # Kudo
		effect = {
			add_trait = "jugoi_ge"
		}
	}
	0953.1.1={
		death=yes
	}
}
11005218={
	name=character_name_11005218 # Tadahito
	dynasty=10001097 # Fujiwara
	religion="shinto"
	culture="aristocrats"
	father=11005206	#Fujiwara Arikage
	0854.1.1={
		birth=yes
	}
	0874.1.1={
		effect = {
			add_trait = "jugoi_ge"
		}
	}
	0904.1.1={
		death=yes
	}
}
11005219={
	name=character_name_11005219 # Tadafusa
	dynasty=10001097 # Fujiwara
	religion="shinto"
	culture="aristocrats"
	father=11005206	#Fujiwara Arikage
	0855.1.1={
		birth=yes
	}
	0875.1.1={
		effect = {
			add_trait = "jugoi_ge"
		}
	}
	0905.1.1={
		death=yes
	}
}
11005220={
	name=character_name_11005220 # Tsunetada
	dynasty=10001097 # Fujiwara
	religion="shinto"
	culture="aristocrats"
	father=11005206	#Fujiwara Arikage
	0857.1.1={
		birth=yes
	}
	0877.1.1={
		effect = {
			add_trait = "jugoi_jo"
		}
	}
	0907.1.1={
		death=yes
	}
}
11005221={
	name=character_name_11005221 # Tonari
	dynasty=10001097 # Fujiwara
	religion="shinto"
	culture="aristocrats"
	father=11005218	#Fujiwara Tadahito
	0884.1.1={
		birth=yes
	}
	0904.1.1={
		effect = {
			add_trait = "shogoi_ge"
		}
	}
	0934.1.1={
		death=yes
	}
}
11005222={
	name=character_name_11005222 # Michiyuki
	dynasty=10001097 # Fujiwara
	religion="shinto"
	culture="aristocrats"
	father=11005219	#Fujiwara Tadafusa
	0885.1.1={
		birth=yes
	}
	0935.1.1={
		death=yes
	}
}
11005223={
	name=character_name_11005223 # Shigemasa
	dynasty=10001097 # Fujiwara
	religion="shinto"
	culture="aristocrats"
	father=11005222	#Fujiwara Michiyuki
	0905.1.1={
		birth=yes
	}
	0955.1.1={
		death=yes
	}
}
11005224={
	name=character_name_11005224 # Moriyuki
	dynasty=10001097 # Fujiwara
	religion="shinto"
	culture="aristocrats"
	father=11005207	#Fujiwara Kiyokage
	0855.1.1={
		birth=yes
	}
	0905.1.1={
		death=yes
	}
}
11006800={
	name=character_name_11006800 # Sadatsugu
	dynasty=10001097 # Fujiwara
	father=11005003 # 
	religion="shinto"
	culture="aristocrats"
	759.1.1={
		birth=yes
	}
	824.2.7={
		death=yes
	}
}
11006805={
	name=character_name_11006805 # Takahito
	dynasty=10001097 # Fujiwara
	father=11006800 # 
	religion="shinto"
	culture="aristocrats"
	790.1.1={
		birth=yes
	}
	835.7.4={
		death=yes
	}
}
11006810={
	name=character_name_11006810 # Yasukage
	dynasty=10001097 # Fujiwara
	father=11006805 # 
	religion="shinto"
	culture="aristocrats"
	820.1.1={
		birth=yes
	}
	880.1.1={
		death=yes
	}
}
11006815={
	name=character_name_11006815 # Michiaki
	dynasty=10001097 # Fujiwara
	father=11006810 # 
	religion="shinto"
	culture="aristocrats"
	856.1.1={
		birth=yes
	}
	920.7.5={
		death=yes
	}
}
11006820={
	name=character_name_11006820 # Masafumi
	dynasty=10001097 # Fujiwara
	father=11006815 # 
	religion="shinto"
	culture="aristocrats"
	890.1.1={
		birth=yes
	}
	950.1.1={
		death=yes
	}
}
11006825={
	name=character_name_11006825 # Nagayori
	dynasty=10001097 # Fujiwara
	father=11006820 # 
	religion="shinto"
	culture="aristocrats"
	932.1.1={
		birth=yes
	}
	1010.4.14={
		death=yes
	}
}
11006830={
	name=character_name_11006830 # Yoshimichi
	dynasty=10001097 # Fujiwara
	father=11006825 # 
	religion="shinto"
	culture="aristocrats"
	970.1.1={
		birth=yes
	}
	1030.1.1={
		death=yes
	}
}
11006835={
	name=character_name_11006835 # Sanenori
	dynasty=10001097 # Fujiwara
	father=11006830 # 
	religion="shinto"
	culture="aristocrats"
	1005.1.1={
		birth=yes
	}
	1065.1.1={
		death=yes
	}
}
11006840={
	name=character_name_11006840 # Suekane
	dynasty=10001097 # Fujiwara
	father=11006835 # 
	religion="shinto"
	culture="aristocrats"
	1044.1.1={
		birth=yes
	}
	1088.1.1={
		add_spouse=10260725 # Owari Motoko
	}
	1101.1.1={
		death=yes
	}
}
11006841={
	name=character_name_11006841 # Suetsuna
	dynasty=10001097 # Fujiwara
	father=11006835 # 
	religion="shinto"
	culture="aristocrats"
	1045.1.1={
		birth=yes
	}
	1105.1.1={
		death=yes
	}
}
11006845={
	name=character_name_11006845 # Suenori
	dynasty=10001097 # Fujiwara
	father=11006840 # 
	mother=10260725 # Owari Motoko
	religion="shinto"
	culture="central_kinai"
	1090.1.1={
		birth=yes
	}
	1155.12.27={
		death=yes
	}
}
11006850={
	name=character_name_11006850 # Noritada
	dynasty=10001097 # Fujiwara
	father=11006845 # 
	religion="shinto"
	culture="central_kinai"
	1110.1.1={
		birth=yes
	}
	1180.1.1={
		death=yes
	}
}
11006851={
	name=character_name_11006851 # Norinobu
	dynasty=10001097 # Fujiwara
	father=11006845 # 
	religion="shinto"
	culture="central_kinai"
	1115.1.1={
		birth=yes
	}
	1175.1.1={
		death=yes
	}
}
11006852={
	name=character_name_11006852 # Norimasa
	dynasty=10001097 # Fujiwara
	father=11006845 # 
	religion="shinto"
	culture="central_kinai"
	1120.1.1={
		birth=yes
	}
	1178.1.1={
		employer=11006865 # Fujiwara Tadakane
	}
	1185.1.1={
		death=yes
	}
}
11006853={
	name=character_name_11006853 # Yuhan
	dynasty=10001097 # Fujiwara
	father=11006845 # 
	religion="shinto"
	culture="kinai_buddhist"
	trait="devoted"
	1122.1.1={
		birth=yes
	}
	1180.1.1={
		death=yes
	}
}
11006854={
	name=character_name_11006854 # Yura
	female=yes
	dynasty=10001097 # Fujiwara
	father=11006845 # 
	religion="shinto"
	culture="central_kinai"
	1125.1.1={
		birth=yes
	}
	1159.3.22={
		death=yes
	}
}
11006860={
	name=character_name_11006860 # Tadasue
	dynasty=10001097 # Fujiwara
	father=11006850 # 
	religion="shinto"
	culture="central_kinai"
	1130.1.1={
		birth=yes
	}
	1170.1.1={
		death=yes
	}
}
11006861={
	name=character_name_11006861 # Tadako
	female=yes
	dynasty=10001097 # Fujiwara
	father=11006850 # 
	religion="shinto"
	culture="central_kinai"
	1132.1.1={
		birth=yes
	}
	1170.1.1={
		death=yes
	}
}
11006865={
	name=character_name_11006865 # Tadakane
	dynasty=10001097 # Fujiwara
	father=11006860 # 
	religion="shinto"
	culture="central_kinai"
	1150.1.1={
		birth=yes
	}
	1210.1.1={
		death=yes
	}
}
11006870={
	name=character_name_11006870 # Noritsune
	dynasty=10001097 # Fujiwara
	father=11006852 # 
	religion="shinto"
	culture="central_kinai"
	1140.1.1={
		birth=yes
	}
	1178.1.1={
		employer=11006865 # Fujiwara Tadakane
	}
	1200.1.1={
		death=yes
	}
}
11006880={
	name=character_name_11006880 # Tomozane
	dynasty=10001097 # Fujiwara
	father=11006841 # 
	religion="shinto"
	culture="aristocrats"
	1062.1.1={
		birth=yes
	}
	1098.1.1={
		death=yes
	}
}
11006881={
	name=character_name_11006881 # Tadamichi
	dynasty=10001097 # Fujiwara
	father=11006841 # 
	religion="shinto"
	culture="aristocrats"
	1081.1.1={
		birth=yes
	}
	1122.1.1={
		death=yes
	}
}
11006882={
	name=character_name_11006882 # Sanekane
	dynasty=10001097 # Fujiwara
	father=11006841 # 
	religion="shinto"
	culture="aristocrats"
	1085.1.1={
		birth=yes
	}
	1112.1.1={
		death=yes
	}
}
11006885={
	name=character_name_11006885 # Yoshikane
	dynasty=10001097 # Fujiwara
	father=11006880 # 
	religion="shinto"
	culture="aristocrats"
	1086.1.1={
		birth=yes
	}
	1139.1.1={
		death=yes
	}
}
11006890={
	name=character_name_11006890 # Norikane
	dynasty=10001097 # Fujiwara
	father=11006885 # 
	religion="shinto"
	culture="aristocrats"
	1107.1.1={
		birth=yes
	}
	1165.6.6={
		death=yes
	}
}
11006891={
	name=character_name_11006891 # Norisue
	dynasty=10001097 # Fujiwara
	father=11006885 # 
	religion="shinto"
	culture="aristocrats"
	1130.1.1={
		birth=yes
	}
	1180.5.18={
		employer=10041059 # Emperor Antoku
	}
	1205.5.30={
		death=yes
	}
}
11006895={
	name=character_name_11006895 # Norimitsu
	dynasty=10001097 # Fujiwara
	father=11006890 # 
	religion="shinto"
	culture="aristocrats"
	1154.1.1={
		birth=yes
	}
	1180.5.18={
		employer=10041059 # Emperor Antoku
	}
	1213.4.27={
		death=yes
	}
}
11006896={
	name=character_name_11006896 # Noriko
	female=yes
	dynasty=10001097 # Fujiwara
	father=11006890 # 
	religion="shinto"
	culture="aristocrats"
	1152.1.1={
		birth=yes
	}
	1180.5.18={
		employer=10041059 # Emperor Antoku
	}
	1200.9.13={
		death=yes
	}
}
11006897={
	name=character_name_11006897 # Kaneko
	female=yes
	dynasty=10001097 # Fujiwara
	father=11006890 # 
	religion="shinto"
	culture="aristocrats"
	1155.1.1={
		birth=yes
	}
	1180.5.18={
		employer=10041059 # Emperor Antoku
	}
	1229.9.5={
		death=yes
	}
}
11006900={
	name=character_name_11006900 # Norishige
	dynasty=10001097 # Fujiwara
	father=11006891 # 
	mother=10110112 # 
	religion="shinto"
	culture="aristocrats"
	1185.1.1={
		birth=yes
	}
	1221.7.9={
		death=yes
	}
}
11006901={
	name=character_name_11006901 # Shigeko
	female=yes
	dynasty=10001097 # Fujiwara
	father=11006891 # 
	mother=10110112 # 
	religion="shinto"
	culture="aristocrats"
	1182.1.1={
		birth=yes
	}
	1264.9.20={
		death=yes
	}
}
11006910={
	name=character_name_11006910 # Shinzei
	dynasty=10001097 # Fujiwara
	father=11006882 # 
	religion="shinto"
	culture="kinai_buddhist"
	trait="devoted"
	1106.1.1={
		birth=yes
	}
	1160.1.23={
		death=yes
	}
}
11006920={
	name=character_name_11006920 # Toshinori
	dynasty=10001097 # Fujiwara
	father=11006910 # 
	religion="shinto"
	culture="aristocrats"
	1122.1.1={
		birth=yes
	}
	1167.4.30={
		death=yes
	}
}
11006921={
	name=character_name_11006921 # Sadanori
	dynasty=10001097 # Fujiwara
	father=11006910 # 
	religion="shinto"
	culture="aristocrats"
	1123.1.1={
		birth=yes
	}
	1173.1.1={
		death=yes
	}
}
11006922={
	name=character_name_11006922 # Korenori
	dynasty=10001097 # Fujiwara
	father=11006910 # 
	religion="shinto"
	culture="aristocrats"
	1139.1.1={
		birth=yes
	}
	1177.1.1={
		death=yes
	}
}
11006923={
	name=character_name_11006923 # Joken
	dynasty=10001097 # Fujiwara
	father=11006910 # 
	religion="shinto"
	culture="kinai_buddhist"
	trait="devoted"
	1124.1.1={
		birth=yes
	}
	1180.5.18={
		employer=10041059 # Emperor Antoku
	}
	1204.1.1={
		death=yes
	}
}
11006924={
	name=character_name_11006924 # Choken
	dynasty=10001097 # Fujiwara
	father=11006910 # 
	religion="shinto"
	culture="kinai_buddhist"
	trait="devoted"
	1126.1.1={
		birth=yes
	}
	1179.12.23={
		employer=12570100 # Myoun, Enryaku-ji
	}
	1203.1.1={
		death=yes
	}
}
11006925={
	name=character_name_11006925 # Shigenori
	dynasty=10001097 # Fujiwara
	father=11006910 # 
	religion="shinto"
	culture="aristocrats"
	1135.1.1={
		birth=yes
	}
	1180.5.18={
		employer=10041059 # Emperor Antoku
	}
	1187.4.26={
		death=yes
	}
}
11006926={
	name=character_name_11006926 # Shoken
	dynasty=10001097 # Fujiwara
	father=11006910 # 
	religion="shinto"
	culture="kinai_buddhist"
	trait="devoted"
	1138.3.30={
		birth=yes
	}
	1177.12.27={
		employer=11006570 # Teiki, Todai-ji
	}
	1196.7.19={
		death=yes
	}
}
11006927={
	name=character_name_11006927 # Myohen
	dynasty=10001097 # Fujiwara
	father=11006910 # 
	religion="shinto"
	culture="kinai_buddhist"
	trait="devoted"
	1142.1.1={
		birth=yes
	}
	1177.12.27={
		employer=11006570 # Teiki, Todai-ji
	}
	1224.7.4={
		death=yes
	}
}
11006928={
	name=character_name_11006928 # Naganori
	dynasty=10001097 # Fujiwara
	father=11006910 # 
	religion="shinto"
	culture="aristocrats"
	1143.1.1={
		birth=yes
	}
	1180.5.18={
		employer=10041059 # Emperor Antoku
	}
	1190.1.1={
		death=yes
	}
}
11006929={
	name=character_name_11006929 # Kakuken
	dynasty=10001097 # Fujiwara
	father=11006910 # 
	religion="shinto"
	culture="kinai_buddhist"
	1131.1.1={
		birth=yes
	}
	1141.1.1={
		culture="kinai_buddhist"
		effect = {
			add_trait = "devoted"
		}
	}
	1179.5.20={
		employer=12570101 # Genen, Kofuku-ji
	}
	1213.1.10={
		death=yes
	}
}
