﻿10110000 = {
	name=character_name_10110000 # Kazuwara
	dynasty=10000420 # Yamato (Imperial Family)
	religion="shinto"
	culture="imperial_family"
	father=10041028
	786.12.1={
		birth=yes
	}
	853.7.13={
		death=yes
	}
}
10110001 = {
	name=character_name_10110001 # Takamochi
	dynasty=10001100 # Taira (Kanmu Heishi)
	religion="shinto"
	culture="central_kinai"
	father=10110000
	trait="bastard"
	839.10.21={
		birth=yes
	}
	911.6.28={
		death=yes
	}
}
10110002 = {
	name=character_name_10110002 # Kunika
	dynasty=10001100 # Taira (Kanmu Heishi)
	religion="shinto"
	culture="central_kinai"
	father=10110001
	870.1.1={
		birth=yes
	}
	900.1.1={
		add_concubine=11004617
	}
	920.1.1={
		give_nickname="nick_the_chinjufu_shogun"
		effect = {
			add_trait = "jugoi_jo"
		}
	}
	930.1.1={
		add_spouse=10127074
	}
	935.2.1={
		death={
			death_reason=death_battle
			killer=10110402 # Taira no Masakado
		}
	}
}
10110003 = {
	name=character_name_10110003 # Yoshikane
	dynasty=10001100 # Taira (Kanmu Heishi)
	religion="shinto"
	culture="central_kinai"
	father=10110001
	872.1.1={
		birth=yes
	}
	900.1.1={
		give_nickname="nick_the_kazusa_no_suke"
		effect = {
			add_trait = "jugoi_ge"
		}
	}
	930.1.1={
		add_spouse=10127075
	}
	939.6.1={
		death=yes
	}
}
10110004 = {
	name=character_name_10110004 # Yoshimochi
	dynasty=10001100 # Taira (Kanmu Heishi)
	religion="shinto"
	culture="central_kinai"
	father=10110001
	874.1.1={
		birth=yes
	}
	923.1.1={
		give_nickname="nick_the_chinjufu_shogun"
		death=yes
		effect = {
			add_trait = "jushii_ge"
		}
	}
}
10110005 = {
	name=character_name_10110005 # Yoshiyori
	dynasty=10001100 # Taira (Kanmu Heishi)
	religion="shinto"
	culture="central_kinai"
	father=10110001
	880.1.1={
		birth=yes
	}
	935.1.1={
		death=yes
	}
}
10110006 = {
	name=character_name_10110006 # Yoshihiro
	dynasty=10001100 # Taira (Kanmu Heishi)
	religion="shinto"
	culture="central_kinai"
	father=10110001
	875.6.5={
		birth=yes
	}
	928.12.4={
		death=yes
	}
}
10110007 = {
	name=character_name_10110007 # Yoshimasa
	dynasty=10001100 # Taira (Kanmu Heishi)
	religion="shinto"
	culture="central_kinai"
	father=10110001
	890.1.1={
		birth=yes
	}
	930.1.1={
		add_spouse=10127076
		give_nickname="nick_the_shimotsukeno_no_suke"
	}
	940.1.1={
		death=yes
	}
}
10110008 = {
	name=character_name_10110008 # Yoshishige
	dynasty=10001100 # Taira (Kanmu Heishi)
	religion="shinto"
	culture="central_kinai"
	father=10110001
	888.1.1={
		birth=yes
	}
	960.1.1={
		death=yes
	}
}
10110009 = {
	name=character_name_10110009 # Sadamori
	dynasty=10001100 # Taira (Kanmu Heishi)
	religion="shinto"
	culture="central_kinai"
	father=10110002
	mother=11004617
	905.1.1={
		birth=yes
	}
	935.1.1={
		give_nickname="nick_sama_no_jo"
	}
	940.3.25={
		give_nickname="nick_the_chinjufu_shogun"
		effect = {
			add_trait = "jugoi_jo"
		}
	}
	989.11.16={
		death=yes
	}
}
10110010 = {
	name=character_name_10110010 # Shigemori
	dynasty=10001100 # Taira (Kanmu Heishi)
	religion="shinto"
	culture="central_kinai"
	father=10110002
	910.1.1={
		birth=yes
	}
	980.1.1={
		give_nickname="nick_the_chinjufu_shogun"
		death=yes
	}
}
10110011 = {
	name=character_name_10110011 # Kaneto
	dynasty=10001100 # Taira (Kanmu Heishi)
	religion="shinto"
	culture="central_kinai"
	father=10110002
	915.1.1={
		birth=yes
	}
	985.1.1={
		death=yes
	}
}
10110012 = {
	name=character_name_10110012 # Korenobu
	dynasty=10001100 # Taira (Kanmu Heishi)
	religion="shinto"
	culture="central_kinai"
	father=10110009
	930.1.1={
		birth=yes
	}
	995.1.1={
		death=yes
	}
}
10110013 = {
	name=character_name_10110013 # Koremasa
	dynasty=10001100 # Taira (Kanmu Heishi)
	religion="shinto"
	culture="central_kinai"
	father=10110009
	935.1.1={
		birth=yes
	}
	1000.1.1={
		death=yes
	}
}
10110014 = {
	name=character_name_10110014 # Koretoshi
	dynasty=10001100 # Taira (Kanmu Heishi)
	religion="shinto"
	culture="central_kinai"
	father=10110009
	940.1.1={
		birth=yes
	}
	1010.1.1={
		death=yes
	}
}
10110015 = {
	name=character_name_10110015 # Korehira
	dynasty=10001100 # Taira (Kanmu Heishi)
	religion="shinto"
	culture="central_kinai"
	father=10110009
	950.1.1={
		birth=yes
	}
	1035.1.1={
		death=yes
	}
}
10110016 = {
	name=character_name_10110016 # Masanori
	dynasty=10001100 # Taira (Kanmu Heishi)
	religion="shinto"
	culture="central_kinai"
	father=10110015
	990.1.1={
		birth=yes
	}
	1060.1.1={
		death=yes
	}
}
10110017 = {
	name=character_name_10110017 # Masazumi
	dynasty=10001100 # Taira (Kanmu Heishi)
	religion="shinto"
	culture="central_kinai"
	father=10110015
	1000.1.1={
		birth=yes
	}
	1070.1.1={
		death=yes
	}
}
10110018 = {
	name=character_name_10110018 # Koremori
	dynasty=10001100 # Taira (Kanmu Heishi)
	religion="shinto"
	culture="central_kinai"
	father=10110016
	1030.1.1={
		birth=yes
	}
	1090.1.1={
		death=yes
	}
}
10110019 = {
	name=character_name_10110019 # Sadasue
	dynasty=10001100 # Taira (Kanmu Heishi)
	religion="shinto"
	culture="central_kinai"
	father=10110016
	1030.1.1={
		birth=yes
	}
	1090.1.1={
		death=yes
	}
}
10110020 = {
	name=character_name_10110020 # Suehira
	dynasty=10001100 # Taira (Kanmu Heishi)
	religion="shinto"
	culture="central_kinai"
	father=10110016
	1035.1.1={
		birth=yes
	}
	1095.1.1={
		death=yes
	}
}
10110021 = {
	name=character_name_10110021 # Sadahira
	dynasty=10001100 # Taira (Kanmu Heishi)
	religion="shinto"
	culture="central_kinai"
	father=10110016
	1040.1.1={
		birth=yes
	}
	1100.1.1={
		death=yes
	}
}
10110022 = {
	name=character_name_10110022 # Masahira
	dynasty=10001100 # Taira (Kanmu Heishi)
	religion="shinto"
	culture="central_kinai"
	father=10110016
	1045.1.1={
		birth=yes
	}
	1110.1.1={
		death=yes
	}
}
10110023 = {
	name=character_name_10110023 # Masamori
	dynasty=10001100 # Taira (Kanmu Heishi)
	religion="shinto"
	culture="central_kinai"
	father=10110022
	1070.1.1={
		birth=yes
	}
	1121.4.1={
		death=yes
	}
}
10110024 = {
	name=character_name_10110024 # Tadamasa
	dynasty=10001100 # Taira (Kanmu Heishi)
	religion="shinto"
	culture="central_kinai"
	father=10110023 # Taira Masamori
	1100.1.1={
		birth=yes
	}
	1156.8.15={
		death=yes
	}
}
10110027={
	name=character_name_10110027 # Sadamasa
	dynasty=10001100 # Taira
	father=10110023 # 
	religion="shinto"
	culture="central_kinai"
	1098.1.1={
		birth=yes
	}
	1150.1.1={
		death=yes
	}
}
10110026 = {
	name=character_name_10110026 # Tadamori
	dynasty=10001100 # Taira (Kanmu Heishi)
	father=10110023 # Taira Masamori
	religion="shinto"
	culture="central_kinai"
	trait="education_stewardship_4"
	trait="intellect_good_3"
	trait="brave"
	trait="poet"
	trait="ambitious"
	1096.1.1={
		birth=yes
	}
	1121.1.1={
		add_spouse=11006617 # Fujiwara Muneko [Ike no Zenni]
	}
	1153.2.10={
		death=yes
	}
}
10110025 = {
	name=character_name_10110025 # Kiyomori
	dynasty=10001100 # Taira (Kanmu Heishi)
	father=10110026 # Taira Tadamori
	religion="shinto"
	culture="central_kinai"
	martial=4
	diplomacy=7
	intrigue=6
	stewardship=11
	learning=3
	trait="education_stewardship_4"
	trait="intellect_good_3"
	trait="compassionate"
	trait="generous"
	trait="brave"
	trait="ambitious"
	prowess=8
	1118.1.1={
		birth=yes
	}
	1137.1.1={
		add_spouse=10243055
	}
	1145.1.1={
		remove_spouse=10243055
		add_spouse=10110650
	}
	1167.3.4={
		give_nickname="nick_the_daijo_daijin"
		effect = {
			add_trait = "juichii"
		}
	}
	1179.12.18={
		effect = {
			set_realm_capital = title:c_nmih_yatabe
		}
	}
	1181.3.20={
		death=yes
	}
}
10110030={
	name=character_name_10110030 # Iemori
	dynasty=10001100 # Taira
	father=10110026 # Taira Tadamori
	mother=11006617 # Fujiwara Muneko [Ike no Zenni]
	religion="shinto"
	culture="central_kinai"
	1123.1.1={
		birth=yes
	}
	1149.4.24={
		death=yes
	}
}
10110031={
	name=character_name_10110031 # Tsunemori
	dynasty=10001100 # Taira
	father=10110026 # Taira Tadamori
	religion="shinto"
	culture="central_kinai"
	martial=6
	diplomacy=7
	intrigue=7
	stewardship=8
	learning=5
	trait="education_diplomacy_3"
	trait="gregarious"
	trait="poet"
	prowess=10
	1124.1.1={
		birth=yes
	}
	1168.1.1={
		add_spouse=10110037
	}
	1177.2.24={
		effect = {
			add_trait = "shosanmi"
		}
	}
	1180.1.1={
		give_nickname="nick_the_shuri_daibu"
	}
	1185.4.25={
		death=yes
	}
}
10110032={
	name=character_name_10110032 # Norimori
	dynasty=10001100 # Taira
	father=10110026 # Taira Tadamori
	religion="shinto"
	culture="central_kinai"
	martial=7
	diplomacy=7
	intrigue=7
	stewardship=8
	learning=5
	trait="education_intrigue_3"
	trait="administrator"
	trait="brave"
	prowess=11
	1128.1.1={
		birth=yes
	}
	1152.1.1={
		add_spouse=11004038
	}
	1168.9.15={
		give_nickname="nick_the_sangi"
		effect = {
			add_trait = "shosanmi"
		}
	}
	1182.1.1={
		give_nickname="nick_gon_chu_nagon"
	}
	1182.4.12={
		effect = {
			remove_trait = "shosanmi"
			add_trait = "junii"
		}
	}
	1185.4.25={
		death=yes
	}
}
10110033={
	name=character_name_10110033 # Yorimori
	dynasty=10001100 # Taira
	father=10110026 # Taira Tadamori
	mother=11006617 # Fujiwara Muneko [Ike no Zenni]
	religion="shinto"
	culture="central_kinai"
	martial=1
	diplomacy=7
	intrigue=6
	stewardship=6
	learning=5
	trait="education_diplomacy_4"
	trait="intellect_good_2"
	trait="brave"
	trait="ambitious"
	prowess=5
	1133.1.1={
		birth=yes
	}
	1177.1.1={
		give_nickname="nick_gon_chu_nagon"
	}
	1180.5.17={
		effect = {
			add_trait = "junii"
		}
	}
	1180.6.28={
		effect = {
			remove_trait = "junii"
			add_trait = "shonii"
		}
	}
	1183.4.5={
		give_nickname="nick_gon_dai_nagon"
	}
	1183.9.8={
		employer=10041060
	}
	1186.6.20={
		death=yes
	}
}
10110034={
	name=character_name_10110034 # Tadanori
	dynasty=10001100 # Taira
	father=10110026 # Taira Tadamori
	religion="shinto"
	culture="central_kinai"
	martial=8
	diplomacy=6
	intrigue=5
	stewardship=6
	learning=7
	trait="education_martial_2"
	trait="intellect_good_2"
	trait="poet"
	prowess=16
	1144.1.1={
		birth=yes
	}
	1164.1.1={
		add_spouse=12550031
	}
	1180.1.1={
		give_nickname="nick_the_satsuma_no_kami"
		effect = {
			add_trait = "shoshii_ge"
		}
	}
	1184.3.20={
		death=yes
	}
}
10110035={
	name=character_name_10110035 # Tadako
	female=yes
	dynasty=10001100 # Taira
	father=10110026 # Taira Tadamori
	religion="shinto"
	culture="central_kinai"
	1145.1.1={
		birth=yes
	}
	1185.1.1={
		death=yes
	}
}
10110036={
	name=character_name_10110036 # Itsukushima
	female=yes
	religion="shinto"
	culture="western_chugoku"
	1145.1.1={
		birth=yes
	}
	1205.1.1={
		death=yes
	}
}
10110037={
	name=character_name_10110037 # Fuji
	female=yes
	religion="shinto"
	culture="central_kinai"
	1140.1.1={
		birth=yes
	}
	1185.4.25={
		death=yes
	}
}
10110040={
	name=character_name_10110040 # Shigemori
	dynasty=10001102 # Taira
	father=10110025 # Taira Kiyomori
	mother=10243055 # Takashina Akiko
	religion="shinto"
	culture="central_kinai"
	martial=8
	trait="education_martial_3"
	trait="bastard"
	trait="brave"
	trait="compassionate"
	prowess=18
	1138.1.1={
		birth=yes
	}
	1169.2.3={
		effect = {
			add_trait = "shonii"
		}
	}
	1177.3.5={
		give_nickname="nick_the_nai_daijin"
	}
	1179.9.2={
		death=yes
	}
}
10110041={
	name=character_name_10110041 # Motomori
	dynasty=10001103 # Taira
	father=10110025 # Taira Kiyomori
	mother=10243055 # Takashina Akiko
	religion="shinto"
	culture="central_kinai"
	trait="bastard"
	1139.1.1={
		birth=yes
	}
	1162.5.2={
		death=yes
	}
}
10110042={
	name=character_name_10110042 # Munemori
	dynasty=10001100 # Taira
	father=10110025 # Taira Kiyomori
	mother=10110650 # Taira Tokiko
	religion="shinto"
	culture="central_kinai"
	martial=8
	diplomacy=4
	intrigue=9
	stewardship=8
	learning=5
	trait="education_diplomacy_4"
	trait="administrator"
	trait="craven"
	trait="compassionate"
	trait="trusting"
	prowess=12
	1147.1.1={
		birth=yes
	}
	1170.1.1={
		add_spouse=10110654
	}
	1178.1.24={
		give_nickname="nick_gon_dai_nagon"
		effect = {
			add_trait = "shonii"
		}
	}
	1182.10.31={
		give_nickname="nick_the_nai_daijin"
	}
	1183.2.15={
		effect = {
			remove_trait = "shonii"
			add_trait = "juichii"
		}
	}
	1185.7.19={
		death={
			killer=10120075 # Minamoto Yoritomo
		}
	}
}
10110043={
	name=character_name_10110043 # Tomomori
	dynasty=10001100 # Taira
	father=10110025 # Taira Kiyomori
	mother=10110650 # Taira Tokiko
	religion="shinto"
	culture="central_kinai"
	martial=6
	diplomacy=6
	intrigue=7
	stewardship=6
	learning=6
	trait="education_martial_4"
	trait="physique_bad_2"
	trait="brave"
	trait="unyielding_defender"
	prowess=18
	1152.1.1={
		birth=yes
	}
	1168.1.1={
		add_spouse=10110052
	}
	1179.10.7={
		give_nickname="nick_the_sahyoe_no_kami"
		effect = {
			add_trait = "shosanmi"
		}
	}
	1182.10.3={
		give_nickname="nick_gon_chu_nagon"
	}
	1182.12.20={
		effect = {
			remove_trait = "shosanmi"
			add_trait = "junii"
		}
	}
	1185.4.25={
		death=yes
	}
}
10110044={
	name=character_name_10110044 # Tokuko
	female=yes
	dynasty=10001100 # Taira
	father=10110025 # Taira Kiyomori
	mother=10110650 # Taira Tokiko
	religion="shinto"
	culture="central_kinai"
	1155.1.1={
		birth=yes
	}
	1214.1.25={
		death=yes
	}
}
10110045={
	name=character_name_10110045 # Moriko
	female=yes
	dynasty=10001100 # Taira
	father=10110025 # Taira Kiyomori
	religion="shinto"
	culture="central_kinai"
	1156.1.1={
		birth=yes
	}
	1179.7.23={
		death=yes
	}
}
10110046={
	name=character_name_10110046 # Shigehira
	dynasty=10001100 # Taira
	father=10110025 # Taira Kiyomori
	mother=10110650 # Taira Tokiko
	religion="shinto"
	culture="central_kinai"
	martial=8
	trait="education_martial_3"
	trait="brave"
	trait="beauty_good_3"
	trait="compassionate"
	prowess=18
	1157.1.1={
		birth=yes
	}
	1172.3.13={
		effect = {
			add_trait = "shoshii_ge"
		}
	}
	1180.1.1={
		give_nickname="nick_the_sakonoe_gon_chujo"
	}
	1181.7.9={
		effect = {
			remove_trait = "shoshii_ge"
			add_trait = "jusanmi"
		}
	}
	1183.2.11={
		effect = {
			remove_trait = "jusanmi"
			add_trait = "shosanmi"
		}
	}
	1185.7.21={
		death={
			killer=10120075 # Minamoto Yoritomo
		}
	}
}
10110047={
	name=character_name_10110047 # Seiko
	female=yes
	dynasty=10001100 # Taira
	father=10110025 # Taira Kiyomori
	religion="shinto"
	culture="central_kinai"
	1158.1.1={
		birth=yes
	}
	1218.1.1={
		death=yes
	}
}
10110048={
	name=character_name_10110048 # Sadako
	female=yes
	dynasty=10001100 # Taira
	father=10110025 # Taira Kiyomori
	religion="shinto"
	culture="central_kinai"
	1159.1.1={
		birth=yes
	}
	1219.1.1={
		death=yes
	}
}
10110049={
	name=character_name_10110049 # Tomonori
	dynasty=10001100 # Taira
	father=10110025 # Taira Kiyomori
	religion="shinto"
	culture="central_kinai"
	1160.1.1={
		birth=yes
	}
	1179.12.18={
		give_nickname="nick_the_mikawa_no_kami"
		effect = {
			add_trait = "jugoi_jo"
		}
	}
	1183.6.2={
		death={
			killer=10120084 # Minamoto Yoshinaka
		}
	}
}
10110050={
	name=character_name_10110050 # Kiyofusa
	dynasty=10001100 # Taira
	father=10110025 # Taira Kiyomori
	religion="shinto"
	culture="central_kinai"
	1161.1.1={
		birth=yes
	}
	1184.3.20={
		death=yes
	}
}
10110051={
	name=character_name_10110051 # Miko
	female=yes
	dynasty=10001100 # Taira
	father=10110025 # Taira Kiyomori
	mother=10110036 # Itsukushima
	religion="shinto"
	culture="central_kinai"
	trait="legitimized_bastard"
	trait="beauty_good_3"
	1164.1.1={
		birth=yes
	}
	1181.1.1={
		death=yes
	}
}
10110052={
	name=character_name_10110052 # Jibu
	female=yes
	religion="shinto"
	culture="aristocrats"
	1152.1.1={
		birth=yes
	}
	1231.10.8={
		death=yes
	}
}
10110060={
	name=character_name_10110060 # Koremori
	dynasty=10001102 # Taira
	father=10110040 # Taira Shigemori
	religion="shinto"
	culture="central_kinai"
	martial=7
	diplomacy=7
	intrigue=7
	stewardship=7
	learning=5
	trait="education_martial_2"
	trait="bastard"
	trait="intellect_good_2"
	trait="beauty_good_3"
	prowess=15
	1158.1.1={
		birth=yes
	}
	1172.1.1={
		add_spouse=11006773 # daughter of Fujiwara Narichika
	}
	1179.2.6={
		effect = {
			add_trait = "shoshii_ge"
		}
	}
	1179.12.18={
		employer=10110025
	}
	1180.1.1={
		give_nickname="nick_the_ukonoe_gon_chujo"
	}
	1182.1.10={
		effect = {
			remove_trait = "shoshii_ge"
			add_trait = "jusanmi"
		}
	}
	1184.5.10={
		death=yes
	}
}
10110061={
	name=character_name_10110061 # Sukemori
	dynasty=10001102 # Taira
	father=10110040 # Taira Shigemori
	religion="shinto"
	culture="central_kinai"
	martial=7
	diplomacy=7
	intrigue=10
	stewardship=7
	learning=5
	trait="education_martial_3"
	trait="brave"
	trait="poet"
	prowess=17
	1161.1.1={
		birth=yes
	}
	1179.1.1={
		give_nickname="nick_the_ukonoe_gon_shosho"
	}
	1179.12.18={
		employer=10110025
	}
	1180.5.4={
		effect = {
			add_trait = "jushii_jo"
		}
	}
	1181.7.9={
		effect = {
			remove_trait = "jushii_jo"
			add_trait = "shoshii_ge"
		}
	}
	1181.10.29={
		give_nickname="nick_the_ukonoe_gon_chujo"
	}
	1183.7.23={
		effect = {
			remove_trait = "shoshii_ge"
			add_trait = "jusanmi"
		}
	}
	1185.4.25={
		death=yes
	}
}
10110062={
	name=character_name_10110062 # Kiyotsune
	dynasty=10001102 # Taira
	father=10110040 # Taira Shigemori
	religion="shinto"
	culture="central_kinai"
	1163.1.1={
		birth=yes
	}
	1179.12.18={
		employer=10110025
	}
	1180.1.1={
		give_nickname="nick_the_sakonoe_gon_chujo"
		effect = {
			add_trait = "shoshii_ge"
		}
	}
	1183.4.4={
		death=yes
	}
}
10110063={
	name=character_name_10110063 # Arimori
	dynasty=10001102 # Taira
	father=10110040 # Taira Shigemori
	religion="shinto"
	culture="central_kinai"
	1164.1.1={
		birth=yes
	}
	1179.12.18={
		employer=10110025
	}
	1180.1.1={
		give_nickname="nick_the_ukonoe_gon_shosho"
		effect = {
			add_trait = "jushii_ge"
		}
	}
	1185.4.25={
		death=yes
	}
}
10110064={
	name=character_name_10110064 # Moromori
	dynasty=10001102 # Taira
	father=10110040 # Taira Shigemori
	religion="shinto"
	culture="central_kinai"
	1167.1.1={
		birth=yes
	}
	1179.12.18={
		give_nickname="nick_the_bitchu_no_kami"
		effect = {
			add_trait = "jugoi_ge"
		}
	}
	1184.3.20={
		death=yes
	}
}
10110065={
	name=character_name_10110065 # Tadafusa
	dynasty=10001102 # Taira
	father=10110040 # Taira Shigemori
	religion="shinto"
	culture="central_kinai"
	1168.1.1={
		birth=yes
	}
	1179.12.18={
		give_nickname="nick_the_tango_no_kami"
		effect = {
			add_trait = "jugoi_ge"
			set_realm_capital = title:c_nmih_kasa
		}
	}
	1186.1.8={
		death={
			killer=10120075 # Minamoto Yoritomo
		}
	}
}
10110066={
	name=character_name_10110066 # Munezane
	dynasty=10001102 # Taira
	father=10110040 # Taira Shigemori
	religion="shinto"
	culture="central_kinai"
	1168.1.1={
		birth=yes
	}
	1179.12.18={
		employer=10110025
	}
	1179.11.1={
		give_nickname="nick_the_hitachi_no_suke"
	}
	1180.1.1={
		effect = {
			add_trait = "jugoi_jo"
		}
	}
	1186.1.1={
		death=yes
	}
}
10110067={
	name=character_name_10110067 # Takakiyo
	dynasty=10001102 # Taira
	father=10110060 # Taira Koremori
	mother=11006773 # daughter of Fujiwara Narichika
	religion="shinto"
	culture="central_kinai"
	1173.1.1={
		birth=yes
	}
	1199.3.3={
		death=yes
	}
}
10110068={
	name=character_name_10110068 # Yasha
	female=yes
	dynasty=10001102 # Taira
	father=10110060 # Taira Koremori
	mother=11006773 # daughter of Fujiwara Narichika
	religion="shinto"
	culture="central_kinai"
	1175.1.1={
		birth=yes
	}
	1210.1.1={
		death=yes
	}
}
10110070={
	name=character_name_10110070 # Yukimori
	dynasty=10001103 # Taira
	father=10110041 # Taira Motomori
	religion="shinto"
	culture="central_kinai"
	trait="education_diplomacy_2"
	trait="poet"
	1161.1.1={
		birth=yes
	}
	1178.1.1={
		give_nickname="nick_the_harima_no_kami"
	}
	1179.12.18={
		effect = {
			add_trait = "shogoi_ge"
		}
	}
	1180.1.1={
		effect = {
			set_realm_capital = title:c_nmih_shikama
		}
	}
	1185.4.25={
		death=yes
	}
}
10110075={
	name=character_name_10110075 # Kiyomune
	dynasty=10001100 # Taira
	father=10110042 # Taira Munemori
	mother=10110654 # Taira Kiyoko
	religion="shinto"
	culture="central_kinai"
	1170.1.1={
		birth=yes
	}
	1174.1.23={
		give_nickname="nick_the_jiju"
	}
	1180.1.14={
		effect = {
			add_trait = "jushii_jo"
		}
	}
	1180.6.24={
		effect = {
			remove_trait = "jushii_jo"
			add_trait = "jusanmi"
		}
	}
	1182.5.13={
		effect = {
			remove_trait = "jusanmi"
			add_trait = "shosanmi"
		}
	}
	1183.1.22={
		give_nickname="nick_the_uemon_no_kami"
	}
	1185.7.19={
		death={
			killer=10120075 # Minamoto Yoritomo
		}
	}
}
10110076={
	name=character_name_10110076 # Yoshimune
	dynasty=10001100 # Taira
	father=10110042 # Taira Munemori
	religion="shinto"
	culture="central_kinai"
	1178.1.1={
		birth=yes
	}
	1180.1.1={
		effect = {
			add_trait = "jugoi_jo"
		}
	}
	1185.6.6={
		death={
			killer=10120075 # Minamoto Yoritomo
		}
	}
}
10110080={
	name=character_name_10110080 # Tomoakira
	dynasty=10001100 # Taira
	father=10110043 # Taira Tomomori
	mother=10110052 # Jibu
	religion="shinto"
	culture="central_kinai"
	martial=8
	trait="education_martial_2"
	trait="strong"
	prowess=16
	1169.1.1={
		birth=yes
	}
	1180.1.1={
		give_nickname="nick_the_musashi_no_kami"
		effect = {
			add_trait = "jugoi_jo"
		}
	}
	1184.3.20={
		death=yes
	}
}
10110081={
	name=character_name_10110081 # Zosei
	dynasty=10001100 # Taira
	father=10110043 # Taira Tomomori
	religion="shinto"
	culture="kinai_buddhist"
	1170.1.1={
		birth=yes
	}
	1230.1.1={
		death=yes
	}
}
10110082={
	name=character_name_10110082 # Tomotada
	dynasty=10001100 # Taira
	father=10110043 # Taira Tomomori
	mother=10110052 # Jibu
	religion="shinto"
	culture="central_kinai"
	1176.1.1={
		birth=yes
	}
	1196.7.22={
		death=yes
	}
}
10110083={
	name=character_name_10110083 # Tomoko
	female=yes
	dynasty=10001100 # Taira
	father=10110043 # Taira Tomomori
	mother=10110052 # Jibu
	religion="shinto"
	culture="central_kinai"
	1181.1.1={
		birth=yes
	}
	1241.1.1={
		death=yes
	}
}
10110084={
	name=character_name_10110084 # Tomomune
	dynasty=10001100 # Taira
	father=10110043 # Taira Tomomori
	religion="shinto"
	culture="central_kinai"
	1184.1.1={
		birth=yes
	}
	1255.8.8={
		death=yes
	}
}
10110090={
	name=character_name_10110090 # Ieko
	female=yes
	dynasty=10001100 # Taira
	father=10110030 # Taira Iemori
	religion="shinto"
	culture="central_kinai"
	1145.1.1={
		birth=yes
	}
	1205.1.1={
		death=yes
	}
}
10110100={
	name=character_name_10110100 # Tsunemasa
	dynasty=10001100 # Taira
	father=10110031 # Taira Tsunemori
	religion="shinto"
	culture="central_kinai"
	1154.1.1={
		birth=yes
	}
	1180.1.1={
		give_nickname="nick_the_tajima_no_kami"
		effect = {
			add_trait = "shoshii_ge"
		}
	}
	1184.3.20={
		death=yes
	}
}
10110101={
	name=character_name_10110101 # Tsunetoshi
	dynasty=10001100 # Taira
	father=10110031 # Taira Tsunemori
	religion="shinto"
	culture="central_kinai"
	1166.1.1={
		birth=yes
	}
	1179.12.18={
		give_nickname="nick_the_wakasa_no_kami"
		effect = {
			add_trait = "jugoi_ge"
		}
	}
	1184.3.20={
		death=yes
	}
}
10110102={
	name=character_name_10110102 # Atsumori
	dynasty=10001100 # Taira
	father=10110031 # Taira Tsunemori
	mother=10110037 # Fuji
	religion="shinto"
	culture="central_kinai"
	martial=6
	learning=5
	trait="education_martial_2"
	trait="beauty_good_3"
	prowess=14
	1169.1.1={
		birth=yes
	}
	1174.1.1={
		give_nickname="nick_the_wakasa_no_kami"
	}
	1180.1.1={
		effect = {
			add_trait = "jugoi_ge"
		}
	}
	1184.3.20={
		death=yes
	}
}
10110110={
	name=character_name_10110110 # Michimori
	dynasty=10001100 # Taira
	father=10110032 # Taira Norimori
	mother=11004038 # Hino Noriko
	religion="shinto"
	culture="central_kinai"
	learning=5
	trait="education_martial_2"
	1153.1.1={
		birth=yes
	}
	1172.4.23={
		effect = {
			add_trait = "shoshii_ge"
		}
	}
	1179.12.18={
		give_nickname="nick_the_echizen_no_kami"
	}
	1183.4.14={
		effect = {
			remove_trait = "shoshii_ge"
			add_trait = "jusanmi"
		}
	}
	1184.3.20={
		death=yes
	}
}
10110111={
	name=character_name_10110111 # Noritsune
	dynasty=10001100 # Taira
	father=10110032 # Taira Norimori
	mother=11004038 # Hino Noriko
	religion="shinto"
	culture="central_kinai"
	martial=9
	diplomacy=5
	intrigue=6
	stewardship=5
	learning=5
	trait="education_martial_3"
	trait="intellect_good_2"
	trait="brave"
	trait="sharpshooter"
	prowess=19
	1160.1.1={
		birth=yes
	}
	1176.1.1={
		add_spouse=10110115
	}
	1179.12.18={
		give_nickname="nick_the_noto_no_kami"
	}
	1180.1.1={
		effect = {
			add_trait = "shogoi_ge"
		}
	}
	1185.4.25={
		death=yes
	}
}
10110112={
	name=character_name_10110112 # Noriko
	female=yes
	dynasty=10001100 # Taira
	father=10110032 # Taira Norimori
	mother=11004038 # Hino Noriko
	religion="shinto"
	culture="central_kinai"
	1162.1.1={
		birth=yes
	}
	1227.1.1={
		death=yes
	}
}
10110113={
	name=character_name_10110113 # Chukai
	dynasty=10001100 # Taira
	father=10110032 # Taira Norimori
	religion="shinto"
	culture="kinai_buddhist"
	1162.1.1={
		birth=yes
	}
	1227.4.3={
		death=yes
	}
}
10110114={
	name=character_name_10110114 # Narimori
	dynasty=10001100 # Taira
	father=10110032 # Taira Norimori
	mother=11004038 # Hino Noriko
	religion="shinto"
	culture="central_kinai"
	1169.1.1={
		birth=yes
	}
	1180.1.1={
		give_nickname="nick_kurodo"
		effect = {
			add_trait = "jugoi_ge"
		}
	}
	1184.3.20={
		death=yes
	}
}
10110115={
	name=character_name_10110115 # Umi
	female=yes
	religion="shinto"
	culture="central_kinai"
	1160.1.1={
		birth=yes
	}
	1185.4.25={
		death=yes
	}
}
10110120={
	name=character_name_10110120 # Yoriko
	female=yes
	dynasty=10001100 # Taira
	father=10110033 # Taira Yorimori
	religion="shinto"
	culture="central_kinai"
	1150.1.1={
		birth=yes
	}
	1210.1.1={
		death=yes
	}
}
10110121={
	name=character_name_10110121 # Yasumori
	dynasty=10001100 # Taira
	father=10110033 # Taira Yorimori
	religion="shinto"
	culture="central_kinai"
	1157.1.1={
		birth=yes
	}
	1178.1.1={
		effect = {
			add_trait = "jushii_jo"
		}
	}
	1182.1.1={
		effect = {
			remove_trait = "jushii_jo"
			add_trait = "shoshii_ge"
		}
	}
	1183.9.8={
		employer=10041060
	}
	1209.1.1={
		effect = {
			remove_trait = "shoshii_ge"
			add_trait = "jusanmi"
		}
	}
	1210.1.1={
		effect = {
			remove_trait = "jusanmi"
			add_trait = "shosanmi"
		}
	}
	1233.1.1={
		death=yes
	}
}
10110122={
	name=character_name_10110122 # Tamemori
	dynasty=10001100 # Taira
	father=10110033 # Taira Yorimori
	religion="shinto"
	culture="central_kinai"
	1160.1.1={
		birth=yes
	}
	1179.12.18={
		give_nickname="nick_the_kii_no_kami"
		effect = {
			add_trait = "jugoi_ge"
		}
	}
	1183.9.8={
		employer=10041060
	}
	1185.1.1={
		effect = {
			remove_trait = "jugoi_ge"
			add_trait = "jushii_jo"
		}
	}
	1220.1.1={
		death=yes
	}
}
10110123={
	name=character_name_10110123 # Yasunari
	dynasty=10001100 # Taira
	father=10110033 # Taira Yorimori
	religion="shinto"
	culture="central_kinai"
	1165.1.1={
		birth=yes
	}
	1225.1.1={
		death=yes
	}
}
10110124={
	name=character_name_10110124 # Nakamori
	dynasty=10001100 # Taira
	father=10110033 # Taira Yorimori
	religion="shinto"
	culture="central_kinai"
	1170.1.1={
		birth=yes
	}
	1230.1.1={
		death=yes
	}
}
10110125={
	name=character_name_10110125 # Mitsumori
	dynasty=10001100 # Taira
	father=10110033 # Taira Yorimori
	religion="shinto"
	culture="central_kinai"
	1172.1.1={
		birth=yes
	}
	1178.1.1={
		effect = {
			add_trait = "jugoi_jo"
		}
	}
	1181.1.1={
		effect = {
			remove_trait = "jugoi_jo"
			add_trait = "shogoi_ge"
		}
	}
	1183.9.8={
		employer=10041060
	}
	1185.1.1={
		effect = {
			remove_trait = "shogoi_ge"
			add_trait = "jushii_ge"
		}
	}
	1188.1.1={
		effect = {
			remove_trait = "jushii_ge"
			add_trait = "jushii_jo"
		}
	}
	1191.1.1={
		effect = {
			remove_trait = "jushii_jo"
			add_trait = "shoshii_ge"
		}
	}
	1205.1.1={
		effect = {
			remove_trait = "shoshii_ge"
			add_trait = "jusanmi"
		}
	}
	1211.1.1={
		effect = {
			remove_trait = "jusanmi"
			add_trait = "shosanmi"
		}
	}
	1222.1.1={
		effect = {
			remove_trait = "shosanmi"
			add_trait = "junii"
		}
	}
	1229.8.10={
		death=yes
	}
}
10110130={
	name=character_name_10110130 # Tadayuki
	dynasty=10001100 # Taira
	father=10110034 # Taira Tadanori
	mother=12550031 # Kumano Yasuko
	religion="shinto"
	culture="central_kinai"
	1165.1.1={
		birth=yes
	}
	1183.8.18={
		death=yes
	}
}
10110140={
	name=character_name_10110140 # Kiyosada
	dynasty=10001100 # Taira
	father=10110025 # Taira Kiyomori
	religion="shinto"
	culture="central_kinai"
	1160.1.1={
		birth=yes
		effect = {
			add_trait = "child_of_adoption"
		}
	}
	1179.12.18={
		give_nickname="nick_the_owari_no_kami"
		effect = {
			add_trait = "jugoi_ge"
		}
	}
	1184.3.20={
		death=yes
	}
}
10110141={
	name=character_name_10110141 # Kiyokuni
	dynasty=10001100 # Taira
	father=10110025 # Taira Kiyomori
	religion="shinto"
	culture="central_kinai"
	1175.1.1={
		birth=yes
		effect = {
			add_trait = "child_of_adoption"
		}
	}
	1179.12.18={
		give_nickname="nick_tanba_no_kami"
		effect = {
			add_trait = "jugoi_ge"
		}
	}
	1184.3.20={
		death=yes
	}
}
10110142={
	name=character_name_10110142 # Nariie
	dynasty=10001154 # Taira
	religion="shinto"
	culture="central_kinai"
	1165.1.1={
		birth=yes
	}
	1179.12.18={
		give_nickname="nick_the_etchu_no_kami"
		effect = {
			add_trait = "jugoi_ge"
		}
	}
	1184.3.20={
		death=yes
	}
}
10110143={
	name=character_name_10110143 # Noritsune
	dynasty=10001155 # Taira
	religion="shinto"
	culture="central_kinai"
	1165.1.1={
		birth=yes
	}
	1179.12.18={
		give_nickname="nick_the_suo_no_kami"
		effect = {
			add_trait = "jugoi_ge"
		}
	}
	1184.3.20={
		death=yes
	}
}
10110200={
	name=character_name_10110200 # Kimimasa
	dynasty=10001100 # Taira
	father=10110003 # Taira no Yoshikane
	religion="shinto"
	culture="aristocrats"
	learning=5
	0900.1.1={
		birth=yes
	}
	0960.1.1={
		death=yes
	}
}
10110201={
	name=character_name_10110201 # Kimitsura
	dynasty=10001100 # Taira
	father=10110003 # Taira no Yoshikane
	religion="shinto"
	culture="aristocrats"
	learning=5
	0902.1.1={
		birth=yes
	}
	0960.1.1={
		death=yes
	}
}
10110202={
	name=character_name_10110202 # Kimimoto
	dynasty=10001100 # Taira
	father=10110003 # Taira no Yoshikane
	religion="shinto"
	culture="aristocrats"
	learning=5
	0904.1.1={
		birth=yes
	}
	0960.1.1={
		death=yes
	}
}
10110203={
	female=yes
	name=character_name_10110203 # Yoshiko
	dynasty=10001100 # Taira
	father=10110003 # Taira no Yoshikane
	religion="shinto"
	culture="aristocrats"
	learning=5
	0910.1.1={
		birth=yes
	}
	0950.1.1={
		death=yes
	}
}
10110204={
	name=character_name_10110204 # Muneaki
	dynasty=10001100 # Taira
	father=10110200 # Taira Kimimasa
	religion="shinto"
	culture="aristocrats"
	learning=5
	0910.1.1={
		birth=yes
	}
	0960.1.1={
		death=yes
	}
}
10110205={
	name=character_name_10110205 # Munenari
	dynasty=10001100 # Taira
	father=10110200 # Taira Kimimasa
	religion="shinto"
	culture="aristocrats"
	learning=5
	0920.1.1={
		birth=yes
	}
	0970.1.1={
		death=yes
	}
}
10110206={
	name=character_name_10110206 # Muneyori
	dynasty=10001100 # Taira
	father=10110200 # Taira Kimimasa
	religion="shinto"
	culture="aristocrats"
	learning=5
	0930.1.1={
		birth=yes
	}
	1011.10.30={
		death=yes
	}
}
10110207={
	name=character_name_10110207 # Munemitsu
	dynasty=10001100 # Taira
	father=10110200 # Taira Kimimasa
	religion="shinto"
	culture="aristocrats"
	learning=4
	0935.1.1={
		birth=yes
	}
	0985.1.1={
		death=yes
	}
}
10110208={
	female=yes
	name=character_name_10110208 # Kimiko
	dynasty=10001100 # Taira
	father=10110200 # Taira Kimimasa
	religion="shinto"
	culture="aristocrats"
	learning=4
	0967.1.1={
		birth=yes
	}
	1027.1.1={
		death=yes
	}
}
10110209={
	female=yes
	name=character_name_10110209 # Masako
	dynasty=10001100 # Taira
	father=10110200 # Taira Kimimasa
	religion="shinto"
	culture="aristocrats"
	learning=4
	0940.1.1={
		birth=yes
	}
	0990.1.1={
		death=yes
	}
}
10110210={
	name=character_name_10110210 # Norisue
	dynasty=10001100 # Taira
	father=10110019 # Taira Sadasue
	religion="shinto"
	culture="western_chubu"
	learning=1
	1060.1.1={
		birth=yes
	}
	1120.1.1={
		death=yes
	}
}
10110211={
	name=character_name_10110211 # Kanesue
	dynasty=10001100 # Taira
	father=10110019 # Taira Sadasue
	religion="shinto"
	culture="western_chubu"
	learning=1
	1065.1.1={
		birth=yes
	}
	1125.1.1={
		death=yes
	}
}
10110215={
	name=character_name_10110215 # Iesada
	dynasty=10001100 # Taira
	father=10110210 # Taira Norisue
	religion="shinto"
	culture="western_chubu"
	learning=1
	trait="education_martial_3"
	1082.1.1={
		birth=yes
	}
	1167.6.17={
		death=yes
	}
}
10110216={
	name=character_name_10110216 # Suemune
	dynasty=10001100 # Taira
	father=10110210 # 
	religion="shinto"
	culture="western_chubu"
	1085.1.1={
		birth=yes
	}
	1145.1.1={
		death=yes
	}
}
10110220={
	name=character_name_10110220 # Ietsugu
	dynasty=10001100 # Taira
	father=10110215 # Taira Iesada
	religion="shinto"
	culture="western_chubu"
	learning=1
	trait="education_martial_2"
	1120.1.1={
		birth=yes
	}
	1184.8.14={
		death=yes
	}
}
10110221={
	name=character_name_10110221 # Sadayoshi
	dynasty=10001100 # Taira
	father=10110215 # Taira Iesada
	religion="shinto"
	culture="western_chubu"
	martial=9
	learning=1
	trait="education_martial_3"
	prowess=19
	1125.1.1={
		birth=yes
	}
	1179.12.18={
		employer=10110025
	}
	1180.1.1={
		give_nickname="nick_the_higo_no_kami"
		effect = {
			add_trait = "jugoi_jo"
		}
	}
	1186.1.1={
		death=yes
	}
}
10110222={
	name=character_name_10110222 # Iezane
	dynasty=10001100 # Taira
	father=10110215 # Taira Iesada
	religion="shinto"
	culture="western_chubu"
	learning=1
	1130.1.1={
		birth=yes
	}
	1184.8.14={
		death=yes
	}
}
10110223={
	name=character_name_10110223 # Ienaga
	dynasty=10001100 # Taira
	father=10110215 # 
	religion="shinto"
	culture="central_kinai"
	trait="education_martial_2"
	trait="brave"
	1152.1.1={
		birth=yes
	}
	1179.12.18={
		employer=10110025 # Taira Kiyomori
	}
	1185.4.25={
		death=yes
	}
}
10110224={
	name=character_name_10110224 # Nagatsuna
	dynasty=10001100 # Taira
	father=10110215 # 
	religion="shinto"
	culture="central_kinai"
	trait="education_martial_2"
	1155.1.1={
		birth=yes
	}
	1179.12.18={
		employer=10110025 # Taira Kiyomori
	}
	1183.6.22={
		death=yes
	}
}
10110225={
	name=character_name_10110225 # Iekane
	dynasty=10001100 # Taira
	father=10110220 # Taira Ietsugu
	religion="shinto"
	culture="western_chubu"
	learning=1
	1150.1.1={
		birth=yes
	}
	1184.8.14={
		death=yes
	}
}
10110230={
	name=character_name_10110230 # Morikane
	dynasty=10001100 # Taira
	father=10110211 # Taira Kanesue
	religion="shinto"
	culture="western_chubu"
	learning=1
	1095.1.1={
		birth=yes
	}
	1160.1.1={
		death=yes
	}
}
10110234={
	name=character_name_10110234 # Nobutada
	dynasty=10001100 # Taira
	father=10110230 # 
	religion="shinto"
	culture="western_chubu"
	1140.1.1={
		birth=yes
	}
	1180.1.1={
		employer = 10110235 # Taira Nobukane
	}
	1200.1.1={
		death=yes
	}
}
10110235={
	name=character_name_10110235 # Nobukane
	dynasty=10001100 # Taira
	father=10110230 # Taira Morikane
	religion="shinto"
	culture="western_chubu"
	martial=9
	learning=1
	trait="education_martial_2"
	prowess=17
	1125.1.1={
		birth=yes
	}
	1180.1.1={
		give_nickname="nick_the_izumi_no_kami"
		effect = {
			add_trait = "shogoi_ge"
		}
	}
	1184.9.23={
		death=yes
	}
}
10110236={
	name=character_name_10110236 # Kanetaka
	dynasty=10001100 # Taira
	father=10110235 # Taira Nobukane
	religion="shinto"
	culture="western_chubu"
	learning=1
	trait="education_intrigue_2"
	1150.1.1={
		birth=yes
	}
	1180.9.8={
		death=yes
	}
}
10110237={
	name=character_name_10110237 # Kanehira
	dynasty=10001100 # Taira
	father=10110235 # Taira Nobukane
	religion="shinto"
	culture="western_chubu"
	learning=1
	1152.1.1={
		birth=yes
	}
	1184.9.16={
		death=yes
	}
}
10110238={
	name=character_name_10110238 # Nobuhira
	dynasty=10001100 # Taira
	father=10110235 # Taira Nobukane
	religion="shinto"
	culture="western_chubu"
	learning=1
	1154.1.1={
		birth=yes
	}
	1184.9.16={
		death=yes
	}
}
10110239={
	name=character_name_10110239 # Kanetoki
	dynasty=10001100 # Taira
	father=10110235 # Taira Nobukane
	religion="shinto"
	culture="western_chubu"
	learning=1
	1156.1.1={
		birth=yes
	}
	1184.9.16={
		death=yes
	}
}
10110240={
	name=character_name_10110240 # Moriyasu
	dynasty=10001100 # Taira
	father=10110020 # Taira Suehira
	religion="shinto"
	culture="western_chubu"
	learning=1
	1070.1.1={
		birth=yes
	}
	1130.1.1={
		death=yes
	}
}
10110241={
	name=character_name_10110241 # Morimitsu
	dynasty=10001100 # Taira
	father=10110020 # 
	religion="shinto"
	culture="western_chubu"
	1065.1.1={
		birth=yes
	}
	1125.1.1={
		death=yes
	}
}
10110245={
	name=character_name_10110245 # Morikuni
	dynasty=10001100 # Taira
	father=10110240 # Taira Moriyasu
	religion="shinto"
	culture="western_chubu"
	martial=9
	learning=1
	trait="education_martial_3"
	prowess=19
	1113.1.1={
		birth=yes
	}
	1170.1.1={
		give_nickname="nick_the_saemon_no_jo"
	}
	1186.8.11={
		death=yes
	}
}
10110250={
	name=character_name_10110250 # Moritoshi
	dynasty=10001100 # Taira
	father=10110245 # Taira Morikuni
	religion="shinto"
	culture="western_chubu"
	martial=9
	learning=1
	trait="education_martial_2"
	trait="strong"
	prowess=17
	1135.1.1={
		birth=yes
	}
	1164.1.1={
		add_spouse=10110036
	}
	1176.1.1={
		give_nickname="nick_the_etchu_no_kami"
		effect = {
			add_trait = "jugoi_ge"
		}
	}
	1184.3.20={
		death=yes
	}
}
10110251={
	name=character_name_10110251 # Morihisa
	dynasty=10001100 # Taira
	father=10110245 # Taira Morikuni
	religion="shinto"
	culture="western_chubu"
	learning=1
	1140.1.1={
		birth=yes
	}
	1200.1.1={
		death=yes
	}
}
10110255={
	name=character_name_10110255 # Moritsuna
	dynasty=10001100 # Taira
	father=10110250 # Taira Moritoshi
	religion="shinto"
	culture="western_chubu"
	martial=9
	learning=1
	trait="education_martial_2"
	prowess=17
	1155.1.1={
		birth=yes
	}
	1180.1.1={
		give_nickname="nick_the_sanuki_no_kami"
		effect = {
			add_trait = "jugoi_ge"
		}
	}
	1185.4.25={
		death=yes
	}
}
10110256={
	name=character_name_10110256 # Moritsugu
	dynasty=10001100 # Taira
	father=10110250 # Taira Moritoshi
	religion="shinto"
	culture="western_chubu"
	martial=9
	learning=1
	trait="education_martial_2"
	trait="strong"
	prowess=17
	1160.1.1={
		birth=yes
	}
	1176.1.1={
		give_nickname="nick_Jirobee"
	}
	1194.1.1={
		death={
			killer=10120075 # Minamoto Yoritomo
		}
	}
}
10110260={
	name=character_name_10110260 # Morimoto
	dynasty=10001100 # Taira
	father=10110018 # 
	religion="shinto"
	culture="western_chubu"
	1060.1.1={
		birth=yes
	}
	1120.1.1={
		death=yes
	}
}
10110261={
	name=character_name_10110261 # Morikuni
	dynasty=10001100 # Taira
	father=10110260 # 
	religion="shinto"
	culture="western_chubu"
	1090.1.1={
		birth=yes
	}
	1150.1.1={
		death=yes
	}
}
10110262={
	name=character_name_10110262 # Kunifusa
	dynasty=10001100 # Taira
	father=10110261 # 
	religion="shinto"
	culture="western_chubu"
	1120.1.1={
		birth=yes
	}
	1180.1.1={
		death=yes
	}
}
10110263={
	name=character_name_10110263 # Moritoki
	dynasty=10001100 # Taira
	father=10110262 # 
	religion="shinto"
	culture="western_chubu"
	1150.1.1={
		birth=yes
	}
	1210.1.1={
		death=yes
	}
}
10110264={
	name=character_name_10110264 # Moritsuna
	dynasty=10001100 # Taira
	father=10110263 # 
	religion="shinto"
	culture="southern_kanto"
	1180.1.1={
		birth=yes
		employer = 10120075 # Minamoto Yoritomo
	}
	1250.1.1={
		death=yes
	}
}
10110265={
	name=character_name_10110265 # Moritoki
	dynasty=10001100 # Taira
	father=10110264 # 
	religion="shinto"
	culture="southern_kanto"
	1210.1.1={
		birth=yes
	}
	1270.1.1={
		death=yes
	}
}
10110266={
	name=character_name_10110266 # Yoritsuna
	dynasty=10001100 # Taira
	father=10110264 # 
	religion="shinto"
	culture="southern_kanto"
	1241.1.1={
		birth=yes
	}
	1293.5.29={
		death=yes
	}
}
10110267={
	name=character_name_10110267 # Mitsumori
	dynasty=10001110 # Nagasaki
	father=10110264 # 
	religion="shinto"
	culture="southern_kanto"
	1220.1.1={
		birth=yes
	}
	1250.1.1={
		death=yes
	}
}
10110268={
	name=character_name_10110268 # Munetsuna
	dynasty=10001100 # Taira
	father=10110266 # 
	religion="shinto"
	culture="southern_kanto"
	1265.1.1={
		birth=yes
	}
	1305.1.1={
		death=yes
	}
}
10110269={
	name=character_name_10110269 # Sukemune
	dynasty=10001100 # Taira
	father=10110266 # 
	religion="shinto"
	culture="southern_kanto"
	1267.1.1={
		birth=yes
	}
	1293.5.29={
		death=yes
	}
}
10110270={
	name=character_name_10110270 # Yorimoto
	dynasty=10001100 # Taira
	father=10110266 # 
	religion="shinto"
	culture="southern_kanto"
	1270.1.1={
		birth=yes
	}
	1333.7.4={
		death=yes
	}
}
10110271={
	name=character_name_10110271 # Mitsutsuna
	dynasty=10001110 # Nagasaki
	father=10110267 # 
	religion="shinto"
	culture="southern_kanto"
	1242.1.1={
		birth=yes
	}
	1297.8.25={
		death=yes
	}
}
10110272={
	name=character_name_10110272 # Takatsuna
	dynasty=10001110 # Nagasaki
	father=10110271 # 
	religion="shinto"
	culture="southern_kanto"
	1265.1.1={
		birth=yes
	}
	1333.7.4={
		death=yes
	}
}
10110273={
	name=character_name_10110273 # Takayori
	dynasty=10001110 # Nagasaki
	father=10110271 # 
	religion="shinto"
	culture="southern_kanto"
	1270.1.1={
		birth=yes
	}
	1310.1.1={
		death=yes
	}
}
10110274={
	name=character_name_10110274 # Takasuke
	dynasty=10001110 # Nagasaki
	father=10110272 # 
	religion="shinto"
	culture="southern_kanto"
	1285.1.1={
		birth=yes
	}
	1333.7.4={
		death=yes
	}
}
10110275={
	name=character_name_10110275 # Takasada
	dynasty=10001110 # Nagasaki
	father=10110272 # 
	religion="shinto"
	culture="southern_kanto"
	1287.1.1={
		birth=yes
	}
	1334.4.25={
		death=yes
	}
}
10110276={
	name=character_name_10110276 # Takashige
	dynasty=10001110 # Nagasaki
	father=10110274 # 
	religion="shinto"
	culture="southern_kanto"
	1310.1.1={
		birth=yes
	}
	1333.7.4={
		death=yes
	}
}
10110280={
	name=character_name_10110280 # Munekiyo
	dynasty=10001100 # Taira
	father=10110216 # 
	religion="shinto"
	culture="western_chubu"
	1120.1.1={
		birth=yes
	}
	1180.5.18={
		employer = 10041059 # Emperor Antoku
	}
	1185.1.1={
		death=yes
	}
}
10110285={
	name=character_name_10110285 # Iekiyo
	dynasty=10001100 # Taira
	father=10110280 # 
	religion="shinto"
	culture="western_chubu"
	1150.1.1={
		birth=yes
	}
	1180.5.18={
		employer = 10041059 # Emperor Antoku
	}
	1184.8.14={
		death=yes
	}
}
10110290={
	name=character_name_10110290 # Moriyuki
	dynasty=10001100 # Taira
	father=10110241 # 
	religion="shinto"
	culture="western_chubu"
	1100.1.1={
		birth=yes
	}
	1160.1.1={
		death=yes
	}
}
10110291={
	name=character_name_10110291 # Yorimune
	dynasty=10001100 # Taira
	father=10110290 # 
	religion="shinto"
	culture="western_chubu"
	1135.1.1={
		birth=yes
	}
	1180.1.1={
		employer = 10110235 # Taira Nobukane
	}
	1195.1.1={
		death=yes
	}
}
10110292={
	name=character_name_10110292 # Yoritoshi
	dynasty=10001100 # Taira
	father=10110291 # 
	religion="shinto"
	culture="western_chubu"
	1170.1.1={
		birth=yes
	}
	1230.1.1={
		death=yes
	}
}
10110293={
	name=character_name_10110293 # Toshitune
	dynasty=10001100 # Taira
	father=10110292 # 
	religion="shinto"
	culture="western_chubu"
	1205.1.1={
		birth=yes
	}
	1265.1.1={
		death=yes
	}
}
10110300={
	name=character_name_10110300 # Masaie
	dynasty=10001100 # Taira
	father=10110017 # 
	religion="shinto"
	culture="central_kinai"
	1050.1.1={
		birth=yes
	}
	1110.1.1={
		death=yes
	}
}
10110301={
	name=character_name_10110301 # Sadahiro
	dynasty=10001100 # Taira
	father=10110017 # 
	religion="shinto"
	culture="central_kinai"
	1060.1.1={
		birth=yes
	}
	1120.1.1={
		death=yes
	}
}
10110302={
	name=character_name_10110302 # Sukemori
	dynasty=10001100 # Taira
	father=10110300 # 
	religion="shinto"
	culture="central_kinai"
	1070.1.1={
		birth=yes
	}
	1130.1.1={
		death=yes
	}
}
10110303={
	name=character_name_10110303 # Atsumori
	dynasty=10001100 # Taira
	father=10110302 # 
	religion="shinto"
	culture="central_kinai"
	1090.1.1={
		birth=yes
	}
	1150.1.1={
		death=yes
	}
}
10110304={
	name=character_name_10110304 # Arimori
	dynasty=10001100 # Taira
	father=10110303 # 
	religion="shinto"
	culture="central_kinai"
	1110.1.1={
		birth=yes
	}
	1170.1.1={
		death=yes
	}
}
10110305={
	name=character_name_10110305 # Arikuni
	dynasty=10001111 # Musashi
	father=10110304 # 
	religion="shinto"
	culture="central_kinai"
	trait="education_martial_2"
	1130.1.1={
		birth=yes
	}
	1179.12.18={
		employer=10110025 # Taira Kiyomori
	}
	1183.6.22={
		death=yes
	}
}
10110306={
	name=character_name_10110306 # Masahiro
	dynasty=10001100 # Taira
	father=10110301 # 
	religion="shinto"
	culture="central_kinai"
	1090.1.1={
		birth=yes
	}
	1156.7.29={
		death=yes
	}
}
10110307={
	name=character_name_10110307 # Iehiro
	dynasty=10001100 # Taira
	father=10110306 # 
	religion="shinto"
	culture="central_kinai"
	1120.1.1={
		birth=yes
	}
	1156.7.29={
		death=yes
	}
}
10110308={
	name=character_name_10110308 # Yorihiro
	dynasty=10001100 # Taira
	father=10110307 # 
	religion="shinto"
	culture="central_kinai"
	1140.1.1={
		birth=yes
	}
	1156.7.29={
		death=yes
	}
}
10110310={
	name=character_name_10110310 # Sadayasu
	dynasty=10001112 # Tate
	father=10110027 # 
	religion="shinto"
	culture="central_kinai"
	trait="education_martial_2"
	1130.1.1={
		birth=yes
	}
	1179.12.18={
		employer=10110025 # Taira Kiyomori
	}
	1183.6.2={
		death=yes
	}
}
10110400={
	name=character_name_10110400 # Masamochi
	dynasty=10001100 # Taira
	father=10110004 # Yoshimasa
	religion="shinto"
	culture="central_kinai"
	901.1.1={
		birth=yes
	}
	930.1.1={
		death=yes
	}
}
10110401={
	name=character_name_10110401 # Masahiro
	dynasty=10001100 # Taira
	father=10110004 # Yoshimasa
	religion="shinto"
	culture="central_kinai"
	902.1.1={
		birth=yes
	}
	932.1.1={
		death=yes
	}
}
10110402={
	name=character_name_10110402 # Masakado
	dynasty=10001100 # Taira
	father=10110004 # Yoshimasa
	religion="shinto"
	culture="eastern_kanto"
	903.1.1={
		birth=yes
	}
	919.1.1={
		give_nickname="nick_Kojio"
	}
	940.3.25={
		death=yes
	}
}
10110403={
	name=character_name_10110403 # Masayori
	dynasty=10001100 # Taira
	father=10110004 # Yoshimasa
	religion="shinto"
	culture="eastern_kanto"
	904.1.1={
		birth=yes
	}
	920.1.1={
		give_nickname="nick_saburo"
	}
	940.3.25={
		death=yes
	}
}
10110404={
	name=character_name_10110404 # Masahira
	dynasty=10001100 # Taira
	father=10110004 # Yoshimasa
	religion="shinto"
	culture="eastern_kanto"
	905.1.1={
		birth=yes
	}
	921.1.1={
		give_nickname="nick_shiro"
	}
	945.1.1={
		death=yes
	}
}
10110405={
	name=character_name_10110405 # Masafumi
	dynasty=10001100 # Taira
	father=10110004 # Yoshimasa
	religion="shinto"
	culture="eastern_kanto"
	906.1.1={
		birth=yes
	}
	940.3.25={
		death=yes
	}
}
10110406={
	name=character_name_10110406 # Masatame
	dynasty=10001100 # Taira
	father=10110004 # Yoshimasa
	religion="shinto"
	culture="eastern_kanto"
	907.1.1={
		birth=yes
	}
	923.1.1={
		give_nickname="nick_goro"
	}
	940.3.25={
		death=yes
	}
}
10110407={
	name=character_name_10110407 # Masatake
	dynasty=10001100 # Taira
	father=10110004 # Yoshimasa
	religion="shinto"
	culture="southern_kanto"
	908.1.1={
		birth=yes
	}
	924.1.1={
		give_nickname="nick_rokuro"
	}
	940.3.25={
		death=yes
	}
}
10110408={
	name=character_name_10110408 # Munetoki
	dynasty=10001100 # Taira
	father=10110004 # Yoshimasa
	religion="shinto"
	culture="central_kinai"
	909.1.1={
		birth=yes
	}
	969.1.1={
		death=yes
	}
}
10110409={
	name=character_name_10110409 # Sadatoki
	dynasty=10001100 # Taira
	father=10110004 # Yoshimasa
	religion="shinto"
	culture="central_kinai"
	910.1.1={
		birth=yes
	}
	970.1.1={
		death=yes
	}
}
10110410={
	name=character_name_10110410 # Yoshikado
	dynasty=10001100 # Taira
	father=10110402 # Taira Masakado
	mother=10110203
	religion="shinto"
	culture="eastern_kanto"
	930.1.1={
		birth=yes
	}
	955.1.1={
		death=yes
	}
}
10110411={
	name=character_name_10110411 # Satsuki
	female=yes
	dynasty=10001100 # Taira
	father=10110402 # Taira Masakado
	mother=10110203
	religion="shinto"
	culture="eastern_kanto"
	932.1.1={
		birth=yes
	}
	955.1.1={
		death=yes
	}
}
10110412={
	name=character_name_10110412 # Masakuni
	dynasty=10001100 # Taira
	father=10110402 # Taira Masakado
	mother=10110203
	religion="shinto"
	culture="eastern_kanto"
	935.1.1={
		birth=yes
	}
	995.1.1={
		death=yes
	}
}
10110413={
	name=character_name_10110413 # Haru
	female=yes
	dynasty=10001100 # Taira
	father=10110402 # Taira Masakado
	mother=10110203
	religion="shinto"
	culture="eastern_kanto"
	940.1.1={
		birth=yes
	}
	1000.1.1={
		death=yes
	}
}
10110420={
	name=character_name_10110420 # Sadamoto
	dynasty=10001100 # Taira
	father=10110409 # Taira Sadatoki
	religion="shinto"
	culture="central_kinai"
	950.1.1={
		birth=yes
	}
	1010.1.1={
		death=yes
	}
}
10110421={
	name=character_name_10110421 # Suemoto
	dynasty=10001100 # Taira
	father=10110420 # Taira Sadamoto
	religion="shinto"
	culture="southern_kyushu"
	980.1.1={
		birth=yes
	}
	1040.1.1={
		death=yes
	}
}
10110422={
	name=character_name_10110422 # Kanesuke
	dynasty=10001100 # Taira
	father=10110421 # Taira Suemoto
	religion="shinto"
	culture="southern_kyushu"
	1015.1.1={
		birth=yes
	}
	1075.1.1={
		death=yes
	}
}
10110423={
	name=character_name_10110423 # Kaneshige
	dynasty=10001100 # Taira
	father=10110422 # Taira Kanesuke
	religion="shinto"
	culture="southern_kyushu"
	1045.1.1={
		birth=yes
	}
	1105.1.1={
		death=yes
	}
}
10110424={
	name=character_name_10110424 # Yoshitada
	dynasty=10001100 # Taira
	father=10110422 # Taira Kanesuke
	religion="shinto"
	culture="southern_kyushu"
	1050.1.1={
		birth=yes
	}
	1110.1.1={
		death=yes
	}
}
10110499={
	name=character_name_10110499 # Mochiko
	female=yes
	dynasty=10001100 # Taira
	father=10110001 # Taira Takamochi
	religion="shinto"
	culture="central_kinai"
	878.1.1={
		birth=yes
	}
	940.1.1={
		death=yes
	}
}
10110500={
	name=character_name_10110500 # Yoshifumi
	dynasty=10001100 # Taira
	father=10110001 # Taira Takamochi
	religion="shinto"
	culture="western_kanto"
	886.4.29={
		birth=yes
	}
	902.4.29={
		give_nickname="nick_goro"
	}
	953.1.11={
		give_nickname="nick_the_chinjufu_shogun"
		death=yes
	}
}
10110501={
	name=character_name_10110501 # Tadasuke
	dynasty=10001100 # Taira
	father=10110500 # Taira Yoshifumi
	religion="shinto"
	culture="western_kanto"
	910.1.1={
		birth=yes
	}
	930.1.1={
		death=yes
	}
}
10110502={
	name=character_name_10110502 # Tadayori
	dynasty=10001100 # Taira
	father=10110500 # Taira Yoshifumi
	religion="shinto"
	culture="western_kanto"
	0930.7.16={
		birth=yes
	}
	0916.7.16={
		give_nickname="nick_jio"
	}
	0960.1.1={
		add_spouse=10110413 # daughter of Taira no Masakado
	}
	0980.1.1={
		give_nickname="nick_the_mutsu_no_suke"
	}
	1019.1.25={
		death=yes
	}
}
10110503={
	name=character_name_10110503 # Tadamitsu
	dynasty=10001100 # Taira
	father=10110500 # Taira Yoshifumi
	religion="shinto"
	culture="western_kanto"
	932.1.1={
		birth=yes
	}
	992.1.1={
		death=yes
	}
}
10110510={
	name=character_name_10110510 # Tadatsune
	dynasty=10001100 # Taira
	father=10110502 # Taira Tadayori
	mother=10110413 # Taira Haru
	religion="shinto"
	culture="western_kanto"
	975.1.1={
		birth=yes
	}
	1031.6.28={
		death=yes
	}
}
10110511={
	name=character_name_10110511 # Masatsune
	dynasty=10001100 # Taira
	father=10110502 # Taira Tadayori
	mother=10110413
	religion="shinto"
	culture="western_kanto"
	980.1.1={
		birth=yes
	}
	1010.1.1={
		add_spouse=10260603
	}
	1024.1.1={
		remove_spouse=10260603  
		add_spouse=10110586
	}
	1057.11.1={
		death=yes
	}
}
10110512={
	name=character_name_10110512 # Yoritaka
	dynasty=10001100 # Taira
	father=10110502 # Taira Tadayori
	religion="shinto"
	culture="western_kanto"
	1010.1.1={
		birth=yes
	}
	1070.11.1={
		death=yes
	}
}
10110520={
	name=character_name_10110520 # Tsunemasa
	dynasty=10001100 # Taira
	father=10110510 # Taira Tadatsune
	religion="shinto"
	culture="eastern_kanto"
	1010.10.24={
		birth=yes
	}
	1076.7.6={
		give_nickname="nick_the_shimousa_no_suke"
		death=yes
	}
}
10110521={
	name=character_name_10110521 # Tsunechika
	dynasty=10001100 # Taira
	father=10110510 # Taira Tadatsune
	religion="shinto"
	culture="eastern_kanto"
	1012.1.1={
		birth=yes
	}
	1072.1.1={
		death=yes
	}
}
10110522={
	name=character_name_10110522 # Tanemune
	dynasty=10001100 # Taira
	father=10110510 # Taira Tadatsune
	religion="shinto"
	culture="western_kanto"
	1015.1.1={
		birth=yes
	}
	1075.1.1={
		death=yes
	}
}
10110530={
	name=character_name_10110530 # Tsunenaga
	dynasty=10001100 # Taira
	father=10110520 # Taira Tsunemasa
	religion="shinto"
	culture="eastern_kanto"
	1024.12.18={
		birth=yes
	}
	1108.3.23={
		give_nickname="nick_jio"
		death=yes
	}
}
10110531={
	name=character_name_10110531 # Tsunenao
	dynasty=10001100 # Taira
	father=10110520 # Taira Tsunemasa
	religion="shinto"
	culture="eastern_kanto"
	1030.1.1={
		birth=yes
	}
	1090.1.1={
		death=yes
	}
}
10110535={
	name=character_name_10110535 # Tsuneie
	dynasty=10001100 # Taira
	father=10110530 # Taira Tsunenaga
	religion="shinto"
	culture="eastern_kanto"
	1044.1.1={
		birth=yes
	}
	1109.1.1={
		death=yes
	}
}
10110540={
	name=character_name_10110540 # Motomune
	dynasty=10001100 # Taira
	father=10110522 # Taira Tanemune
	religion="shinto"
	culture="western_kanto"
	1040.1.1={
		birth=yes
	}
	1100.1.1={
		death=yes
	}
}
10110545={
	name=character_name_10110545 # Motonoga
	dynasty=10001100 # Taira
	father=10110522 # Taira Motomune
	religion="shinto"
	culture="western_kanto"
	1060.1.1={
		birth=yes
	}
	1120.1.1={
		death=yes
	}
}
10110546={
	name=character_name_10110546 # Yorito
	dynasty=10001100 # Taira
	father=10110540 # Taira Motomune
	religion="shinto"
	culture="western_kanto"
	1065.1.1={
		birth=yes
	}
	1125.1.1={
		death=yes
	}
}
10110550={
	name=character_name_10110550 # Yoriie
	dynasty=10001100 # Taira
	father=10110546 # Taira Yorito
	religion="shinto"
	culture="western_kanto"
	1090.1.1={
		birth=yes
	}
	1150.1.1={
		death=yes
	}
}
10110560={
	name=character_name_10110560 # Tsuneto
	dynasty=10001100 # Taira
	father=10110511 # Taira Masatsune
	mother=10110586
	religion="shinto"
	culture="western_kanto"
	1026.1.1={
		birth=yes
	}
	1057.11.1={
		death=yes
	}
}
10110570={
	name=character_name_10110570 # Tsuneto
	dynasty=10001100 # Taira
	father=10110512 # Taira Yoritaka
	religion="shinto"
	culture="southern_kanto"
	1040.1.1={
		birth=yes
	}
	1100.1.1={
		death=yes
	}
}
10110575={
	name=character_name_10110575 # Tsunemune
	dynasty=10001100 # Taira
	father=10110570 # Taira Tsuneto
	religion="shinto"
	culture="southern_kanto"
	1070.1.1={
		birth=yes
	}
	1130.1.1={
		death=yes
	}
}
10110580={
	name=character_name_10110580 # Sadamitsu
	dynasty=10001100 # Taira
	father=10110503 # Taira Tadamitsu
	religion="shinto"
	culture="western_kanto"
	954.1.1={
		birth=yes
	}
	1021.1.1={
		death=yes
	}
}
10110585={
	name=character_name_10110585 # Tadamichi
	dynasty=10001100 # Taira
	father=10110580 # Taira Sadamitsu
	religion="shinto"
	culture="western_kanto"
	980.1.1={
		birth=yes
	}
	1040.1.1={
		death=yes
	}
}
10110586={
	name=character_name_10110586 # Michiko
	female=yes
	dynasty=10001100 # Taira
	father=10110585 # Taira Tadamichi
	religion="shinto"
	culture="western_kanto"
	1000.1.1={
		birth=yes
	}
	1060.1.1={
		death=yes
	}
}
10110600={
	name=character_name_10110600 # Takamune
	dynasty=10001101 # Taira
	father=10110000 # Yamato Kazuwara
	religion="shinto"
	culture="aristocrats"
	trait="bastard"
	804.1.1={
		birth=yes
	}
	867.6.24={
		death=yes
	}
}
10110601={
	name=character_name_10110601 # Saneo
	dynasty=10001101 # Taira
	father=10110600 # Taira Takamune
	religion="shinto"
	culture="aristocrats"
	835.1.1={
		birth=yes
	}
	895.1.1={
		death=yes
	}
}
10110602={
	name=character_name_10110602 # Masanori
	dynasty=10001101 # Taira
	father=10110600 # Taira Takamune
	religion="shinto"
	culture="aristocrats"
	845.1.1={
		birth=yes
	}
	905.1.1={
		death=yes
	}
}
10110603={
	name=character_name_10110603 # Korenori
	dynasty=10001101 # Taira
	father=10110600 # Taira Takamune
	religion="shinto"
	culture="aristocrats"
	855.1.1={
		birth=yes
	}
	909.11.3={
		death=yes
	}
}
10110604={
	name=character_name_10110604 # Suenaga
	dynasty=10001101 # Taira
	father=10110600 # Taira Takamune
	religion="shinto"
	culture="aristocrats"
	857.1.1={
		birth=yes
	}
	897.8.23={
		death=yes
	}
}
10110605={
	name=character_name_10110605 # Tokimochi
	dynasty=10001101 # Taira
	father=10110603 # Taira Korenori
	religion="shinto"
	culture="aristocrats"
	877.1.1={
		birth=yes
	}
	938.4.27={
		death=yes
	}
}
10110606={
	name=character_name_10110606 # Koremochi
	dynasty=10001101 # Taira
	father=10110603 # Taira Korenori
	religion="shinto"
	culture="aristocrats"
	881.1.1={
		birth=yes
	}
	939.12.29={
		death=yes
	}
}
10110610={
	name=character_name_10110610 # Yoshiki
	dynasty=10001101 # Taira
	father=10110605 # Taira Tokimochi
	religion="shinto"
	culture="aristocrats"
	898.1.1={
		birth=yes
	}
	958.1.1={
		death=yes
	}
}
10110611={
	name=character_name_10110611 # Masaki
	dynasty=10001101 # Taira
	father=10110605 # Taira Tokimochi
	religion="shinto"
	culture="aristocrats"
	900.1.1={
		birth=yes
	}
	968.1.1={
		death=yes
	}
}
10110615={
	name=character_name_10110615 # Suenobu
	dynasty=10001101 # Taira
	father=10110611 # Taira Masaki
	religion="shinto"
	culture="aristocrats"
	940.1.1={
		birth=yes
	}
	1000.1.1={
		death=yes
	}
}
10110616={
	name=character_name_10110616 # Chikanobu
	dynasty=10001101 # Taira
	father=10110611 # Taira Masaki
	religion="shinto"
	culture="aristocrats"
	946.1.1={
		birth=yes
	}
	1017.7.8={
		death=yes
	}
}
10110620={
	name=character_name_10110620 # Shigeyoshi
	dynasty=10001101 # Taira
	father=10110616 # Taira Chikanobu
	religion="shinto"
	culture="aristocrats"
	966.1.1={
		birth=yes
	}
	1026.1.1={
		death=yes
	}
}
10110621={
	name=character_name_10110621 # Yukiyoshi
	dynasty=10001101 # Taira
	father=10110616 # Taira Chikanobu
	religion="shinto"
	culture="aristocrats"
	970.1.1={
		birth=yes
	}
	1017.7.31={
		death=yes
	}
}
10110622={
	name=character_name_10110622 # Tadayoshi
	dynasty=10001101 # Taira
	father=10110616 # Taira Chikanobu
	religion="shinto"
	culture="aristocrats"
	975.1.1={
		birth=yes
	}
	1035.1.1={
		death=yes
	}
}
10110625={
	name=character_name_10110625 # Norikuni
	dynasty=10001101 # Taira
	father=10110621 # Taira Yukiyoshi
	religion="shinto"
	culture="aristocrats"
	1000.1.1={
		birth=yes
	}
	1040.1.1={
		death=yes
	}
}
10110626={
	name=character_name_10110626 # Morosue
	dynasty=10001101 # Taira
	father=10110621 # Taira Yukiyoshi
	religion="shinto"
	culture="aristocrats"
	1005.1.1={
		birth=yes
	}
	1065.1.1={
		death=yes
	}
}
10110627={
	name=character_name_10110627 # Yukichika
	dynasty=10001101 # Taira
	father=10110621 # Taira Yukiyoshi
	religion="shinto"
	culture="aristocrats"
	1010.1.1={
		birth=yes
	}
	1070.1.1={
		death=yes
	}
}
10110630={
	name=character_name_10110630 # Tsunekata
	dynasty=10001101 # Taira
	father=10110625 # Taira Norikuni
	religion="shinto"
	culture="aristocrats"
	1030.1.1={
		birth=yes
	}
	1100.1.1={
		death=yes
	}
}
10110631={
	name=character_name_10110631 # Tsuneaki
	dynasty=10001101 # Taira
	father=10110625 # Taira Norikuni
	religion="shinto"
	culture="aristocrats"
	1037.1.1={
		birth=yes
	}
	1077.1.1={
		death=yes
	}
}
10110635={
	name=character_name_10110635 # Tomonobu
	dynasty=10001101 # Taira
	father=10110630 # Taira Tsunekata
	religion="shinto"
	culture="aristocrats"
	1070.1.1={
		birth=yes
	}
	1144.3.24={
		death=yes
	}
}
10110640={
	name=character_name_10110640 # Tokinobu
	dynasty=10001101 # Taira
	father=10110635 # Taira Tomonobu
	religion="shinto"
	culture="aristocrats"
	1100.1.1={
		birth=yes
	}
	1149.8.30={
		death=yes
	}
}
10110641={
	name=character_name_10110641 # Tomonori
	dynasty=10001101 # Taira
	father=10110635 # Taira Tomonobu
	religion="shinto"
	culture="aristocrats"
	1105.1.1={
		birth=yes
	}
	1165.1.1={
		death=yes
	}
}
10110642={
	name=character_name_10110642 # Nobunori
	dynasty=10001101 # Taira
	father=10110635 # Taira Tomonobu
	religion="shinto"
	culture="aristocrats"
	1112.1.1={
		birth=yes
	}
	1187.3.23={
		death=yes
	}
}
10110650={
	name=character_name_10110650 # Tokiko
	female=yes
	dynasty=10001101 # Taira
	father=10110640 # Taira Tokinobu
	religion="shinto"
	culture="aristocrats"
	1126.1.1={
		birth=yes
	}
	1185.4.25={
		death=yes
	}
}
10110651={
	name=character_name_10110651 # Tokitada
	dynasty=10001101 # Taira
	father=10110640 # Taira Tokinobu
	religion="shinto"
	culture="aristocrats"
	martial=3
	diplomacy=2
	intrigue=8
	stewardship=4
	learning=4
	trait="education_diplomacy_4"
	trait="intellect_good_2"
	trait="administrator"
	trait="cynical"
	trait="arrogant"
	prowess=11
	1130.1.1={
		birth=yes
	}
	1179.2.15={
		effect = {
			add_trait = "shonii"
		}
	}
	1179.12.18={
		employer=10110025
	}
	1189.3.12={
		death=yes
	}
}
10110652={
	name=character_name_10110652 # Shigeko
	female=yes
	dynasty=10001101 # Taira
	father=10110640 # Taira Tokinobu
	religion="shinto"
	culture="aristocrats"
	1142.1.1={
		birth=yes
	}
	1176.8.14={
		death=yes
	}
}
10110653={
	name=character_name_10110653 # Chikamune
	dynasty=10001101 # Taira
	father=10110640 # Taira Tokinobu
	religion="shinto"
	culture="aristocrats"
	1144.1.1={
		birth=yes
	}
	1178.1.26={
		effect = {
			add_trait = "jushii_jo"
		}
	}
	1180.5.18={
		employer = 10041059 # Emperor Antoku
	}
	1182.4.12={
		effect = {
			remove_trait = "jushii_jo"
			add_trait = "shoshii_ge"
		}
	}
	1183.9.8={
		employer=10041060
	}
	1184.5.9={
		effect = {
			remove_trait = "shoshii_ge"
			add_trait = "jusanmi"
		}
	}
	1189.1.23={
		effect = {
			remove_trait = "jusanmi"
			add_trait = "shosanmi"
		}
	}
	1194.1.29={
		effect = {
			remove_trait = "shosanmi"
			add_trait = "junii"
		}
	}
	1199.2.1={
		effect = {
			remove_trait = "junii"
			add_trait = "shonii"
		}
	}
	1199.8.10={
		death=yes
	}
}
10110654={
	name=character_name_10110654 # Kiyoko
	female=yes
	dynasty=10001101 # Taira
	father=10110640 # Taira Tokinobu
	religion="shinto"
	culture="aristocrats"
	1146.1.1={
		birth=yes
	}
	1178.8.30={
		death=yes
	}
}
10110660={
	name=character_name_10110660 # Tokizane
	dynasty=10001101 # Taira
	father=10110651 # Taira Tokitada
	religion="shinto"
	culture="aristocrats"
	1151.1.1={
		birth=yes
	}
	1176.1.1={
		effect = {
			add_trait = "jushii_jo"
		}
	}
	1179.12.18={
		employer=10110025
	}
	1182.1.1={
		effect = {
			remove_trait = "jushii_jo"
			add_trait = "shoshii_ge"
		}
	}
	1211.1.1={
		effect = {
			remove_trait = "shoshii_ge"
			add_trait = "jusanmi"
		}
	}
	1213.2.21={
		death=yes
	}
}
10110661={
	name=character_name_10110661 # Tokiie
	dynasty=10001101 # Taira
	father=10110651 # Taira Tokitada
	religion="shinto"
	culture="aristocrats"
	1155.1.1={
		birth=yes
	}
	1177.1.1={
		effect = {
			add_trait = "jushii_ge"
		}
	}
	1179.12.1={
		employer=12155017
	}
	1193.6.10={
		death=yes
	}
}
10110662={
	name=character_name_10110662 # Warabi
	female=yes
	dynasty=10001101 # Taira
	father=10110651 # Taira Tokitada
	religion="shinto"
	culture="aristocrats"
	1163.1.1={
		birth=yes
	}
	1190.1.1={
		death=yes
	}
}
10110663={
	name=character_name_10110663 # Matsuyori
	female=yes
	dynasty=10001101 # Taira
	father=10110651 # Taira Tokitada
	religion="shinto"
	culture="aristocrats"
	1164.1.1={
		birth=yes
	}
	1190.1.1={
		death=yes
	}
}
10115000={
	name=character_name_10115000 # Yasuyori
	dynasty=10001150 # Taira
	religion="shinto"
	culture="aristocrats"
	1146.1.1={
		birth=yes
	}
	1180.5.18={
		employer = 10041059 # Emperor Antoku
	}
	1220.1.1={
		death=yes
	}
}
10115010={
	name=character_name_10115010 # Tomoyasu
	dynasty=10001151 # Taira
	religion="shinto"
	culture="aristocrats"
	1150.1.1={
		birth=yes
	}
	1180.5.18={
		employer = 10041059 # Emperor Antoku
	}
	1210.1.1={
		death=yes
	}
}
10115020={
	name=character_name_10115020 # Nobushige
	dynasty=10001152 # Taira
	religion="shinto"
	culture="aristocrats"
	1110.1.1={
		birth=yes
	}
	1170.1.1={
		death=yes
	}
}
10115021={
	name=character_name_10115021 # Bomon
	female=yes
	dynasty=10001152 # Taira
	father=10115020 # 
	religion="shinto"
	culture="aristocrats"
	1130.1.1={
		birth=yes
	}
	1180.1.1={
		death=yes
	}
}
10115022={
	name=character_name_10115022 # Nobunari
	dynasty=10001152 # Taira
	father=10115020 # 
	religion="shinto"
	culture="aristocrats"
	1138.1.1={
		birth=yes
	}
	1180.5.18={
		employer = 10041059 # Emperor Antoku
	}
	1182.9.30={
		death=yes
	}
}
10115023={
	name=character_name_10115023 # Naritada
	dynasty=10001152 # Taira
	father=10115022 # 
	religion="shinto"
	culture="aristocrats"
	1160.1.1={
		birth=yes
	}
	1180.5.18={
		employer = 10041059 # Emperor Antoku
	}
	1212.9.12={
		death=yes
	}
}
10115030={
	name=character_name_10115030 # Tamekazu
	dynasty=10001153 # Taira
	religion="shinto"
	culture="central_kinai"
	1130.1.1={
		birth=yes
	}
	1179.12.18={
		employer=10110025 # Taira Kiyomori
	}
	1185.4.25={
		death=yes
	}
}
10115031={
	name=character_name_10115031 # Yoshinori
	dynasty=10001153 # Taira
	father=10115030 # 
	religion="shinto"
	culture="central_kinai"
	trait="sharpshooter"
	1160.1.1={
		birth=yes
	}
	1179.12.18={
		employer=10110025 # Taira Kiyomori
	}
	1184.1.1={
		death=yes
	}
}
