war = {
	name = "war_1577_invasion_of_chugoku"
	start_date = 1578.5.5
	end_date = 1578.9.30
	targeted_titles = {
		k_nmih_western_chugoku
	}
	casus_belli = sengoku_invasion_war
	attackers = { 10029120 } # Oda Nobunaga
	defenders = { 10056025 10053568 } # Mori Terumoto, Bessho Nagaharu
}
