c_nmih_noda = {

	1.1.1={
		effect={
			title:b_nmih_noda1={
				set_title_name=b_nmih_noda1
			}
		}
	}

	1.1.1 = { change_development_level = 0 }
	100.1.1 = { change_development_level = 0 }
	1200.1.1 = { change_development_level = 0 }

	0100.1.1={
	}
	1170.1.1={
		liege="d_nmih_esutoru"
		holder=10156600 # Chiuere
	}
	1210.1.1={
		liege=0
		holder=0 # 
	}
	1280.1.1={
		holder=10157223
	}
	1340.1.1={
		liege=0
		holder=0 # 
	}
	1435.1.1={
		holder=10156500
	}
	1495.1.1={
		holder=10156501
	}
	1535.1.1={
		holder=10156502
	}
	1555.1.1={
		holder=10156503
	}
}
