c_nmih_shibetoro = {

	1.1.1={
		effect={
			title:b_nmih_shibetoro1={
				set_title_name=b_nmih_shibetoro1
			}
		}
	}

	1.1.1 = { change_development_level = 0 }
	100.1.1 = { change_development_level = 0 }
	1400.1.1 = { change_development_level = 0 }
	1814.1.1 = { change_development_level = 0 }

	0100.1.1={
	}
	1170.1.1={
		liege="d_nmih_chishima"
		holder=10153100 # Atoi
	}
	1210.1.1={
		liege=0
		holder=0 # 
	}
	1450.1.1={
		liege="d_nmih_chishima"
		holder=10153000
	}
	1510.1.1={
		holder=10153001
	}
}
