c_nmih_utasutsu = {

	1.1.1={
		effect={
			title:b_nmih_utasutsu1={
				set_title_name=b_nmih_utasutsu1
			}
		}
	}

	1.1.1 = { change_development_level = 0 }
	100.1.1 = { change_development_level = 0 }
	900.1.1 = { change_development_level = 0 }
	1600.1.1 = { change_development_level = 10 }
	1700.1.1 = { change_development_level = 10 }

	0100.1.1={
	}
	1170.1.1={
		liege="d_nmih_sum_kur"
		holder=10150105 # Chotatsu
	}
	1210.1.1={
		liege=0
		holder=0 # 
	}
	1480.1.1={
		holder=10150000
	}
	1529.3.26={
		holder=10150002
	}
	1536.6.23={
		holder=10150003 #Hashitayn
	}
	1570.1.1={
		holder=10150004 #Totake
	}
}
