d_nmih_bungo = {
	0100.1.1={
	}
	180.1.1={
		holder=10290001 # Himiko
	}
	0701.1.1={
		liege="e_nmih_tenno"
	}
	1180.1.1={
		liege=0
		holder=12780100 # Ogata Koreyoshi
	}
	1185.12.16={
		holder=0 # 
	}
	1206.1.1={
		holder=10130538 # Otomo Yoshinao
	}
	1223.12.20={
		holder=0
	}
	1242.1.1={
		holder=10064006 # Otomo Yoriyasu
	}
	1285.1.1={
		holder=10064008 # Otomo Sadachika
	}
	1311.9.2={
		holder=10064008 # Otomo Sadamune
	}
	1334.1.9={
		holder=10064013 # Otomo Ujiyasu
	}
	1352.1.1={
		holder=10064014 # Otomo Ujitoki
	}
	1364.1.1={
		holder=10064015 # Otomo Ujitsugu
	}
	1371.1.1={
		holder=10064016 # Otomo Chikayo
	}
	1416.1.1={
		holder=10064017 # Otomo Chikaaki
	}
	1427.1.1={
		holder=10064018 # Otomo Mochinao
	}
	1431.1.1={
		holder=10064021 # Otomo Chikatsuna
	}
	1439.1.1={
		holder=10064019 # Otomo Chikataka
	}
	1444.1.1={
		holder=10064020 # Otomo Chikashige
	}
	1476.1.1={
		holder=10064022 # Otomo Masachika
	}
	1484.1.1={
		holder=10064024 # Otomo Yoshisuke
	}
	1496.7.7={
		holder=10064022 # Otomo Masachika
	}
	1496.7.20={
		holder=10064023 # Otomo Chikaharu
	}
	1497.1.1={
		holder=10064001 # Otomo Yoshinaga
	}
	1515.1.1={
		holder=10064000 # Otomo Yoshiaki
	}
	1550.2.12={
		holder=10064002 # Otomo Yoshishige(Sorin)
	}
}
