d_nmih_gosho = {
	0001.1.1={
	}
	8.2.11={
		holder = 10041101 # Emperor Jimmu
	}
	23.3.11={
		holder = 10041104 # Emperor Suizei
	}
	53.12.30={
		holder = 10041105 # Emperor Annei
	}
	64.9.21={
		holder = 10041107 # Emperor Itoku
	}
	93.3.10={
		holder = 10041110 # Emperor Kosyo
	}
	119.8.9={
		holder = 10041113 # Emperor Koan
	}
	149.5.4={
		holder = 10041115 # Emperor Korei
	}
	185.12.30={
		holder = 10041119 # Emperor Kogen
	}
	203.9.14={
		holder = 10041124 # Emperor Kaika
	}
	235.2.19={
		holder = 10041127 # Emperor Sujin
	}
	258.9.9={
		holder = 10041134 # Emperor Suinin
	}
	292.5.30={
		holder = 10041147 # Emperor Keiko
	}
	330.12.18={
		holder = 10041162 # Emperor Seimu
	}
	340.6.28={
		holder = 10041166 # Emperor Chuai
	}
	344.2.5={
		holder = 10041174 # Emperor Ojin
	}
	388.5.4={
		holder = 10041180 # Emperor Nintoku
	}
	430.3.1={
		holder = 10041185 # Emperor Richu
	}
	435.3.23={
		holder = 10041187 # Emperor Hanzei
	}
	440.3.7={
		holder = 10041188 # Emperor Ingyo
	}
	459.1.23={
		holder = 10041200 # Emperor Anko
	}
	463.8.19={
		holder = 10041201 # Emperor Yuryaku
	}
	489.9.15={
		holder = 10041203 # Emperor Seinei
	}
	491.1.21={
		holder = 10041210 # Emperor Kenzo
	}
	499.5.30={
		holder = 10041209 # Emperor Ninken
	}
	508.9.16={
		holder = 10041213 # Emperor Buretsu
	}
	517.1.14={
		holder = 10041001 # Emperor Keitai
	}
	531.3.10={
		holder = 10041002 # Emperor Ankan
	}
	535.12.17={
		holder = 10041003 # Emperor Senka
	}
	539.3.15={
		holder = 10041004 # Emperor Kinmei
	}
	571.4.30={
		holder = 10041005 # Emperor Bidatsu
	}
	585.9.5={
		holder = 10041006 # Emperor Yomei
	}
	587.4.9={
		holder = 10041007 # Emperor Sushun
	}
	592.12.12={
		holder = 10041008 # Empress Suiko
	}
	628.4.15={
		holder = 10041010 # Emperor Jomei
	}
	641.11.17={
		holder = 10041012 # Empress Kogyoku/Saimei
	}
	645.7.12={
		holder = 10041013 # Emperor Kotoku
	}
	654.11.24={
		holder = 10041012 # Empress Kogyoku/Saimei
	}
	661.8.24={
		holder = 10041014 # Emperor Tenchi
	}
	672.1.9={
		holder = 10041015 # Emperor Kobun
	}
	672.8.21={
		holder = 10041016 # Emperor Tenmu
	}
	686.10.1={
		holder = 10041017 # Empress Jito
	}
	697.8.22={
		holder = 10041019 # Emperor Monmu
	}
	707.7.18={
		holder = 10041020 # Empress Genmei
	}
	715.10.3={
		holder = 10041021 # Empress Gensho
	}
	721.12.29={
		holder = 10041022 # Emperor Shomu
	}
	749.8.19={
		holder = 10041023 # Empress Koken/Shotoku
	}
	758.9.7={
		holder = 10041025 # Emperor Junnin
	}
	764.11.6={
		holder = 10041023 # Empress Koken/Shotoku
	}
	770.8.28={
		holder = 10041027 # Emperor Konin
	}
	781.4.30={
		holder = 10041028 # Emperor Kanmu
	}
	806.4.9={
		holder = 10041029 # Emperor Heizei
	}
	809.5.8={
		holder = 10041030 # Emperor Saga
	}
	823.6.9={
		holder = 10041031 # Emperor Junna
	}
	833.3.30={
		holder = 10041032 # Emperor Ninmyo
	}
	850.5.6={
		holder = 10041033 # Emperor Montoku
	}
	858.10.7={
		holder = 10041034 # Emperor Seiwa
	}
	876.12.18={
		holder = 10041035 # Emperor Yozei
	}
	884.3.23={
		holder = 10041036 # Emperor Koko
	}
	887.9.17={
		holder = 10041037 # Emperor Uda
	}
	897.8.14={
		holder = 10041038 # Emperor Daigo
	}
	930.12.14={
		holder = 10041039 # Emperor Suzaku
	}
	946.5.31={
		holder = 10041040 # Emperor Murakami
	}
	967.7.5={
		holder = 10041041 # Emperor Reizei
	}
	969.11.5={
		holder = 10041042 # Emperor Enyu
	}
	984.11.5={
		holder = 10041043 # Emperor Kazan
	}
	986.7.31={
		holder = 10041044 # Emperor Ichijo
	}
	1011.7.16={
		holder = 10041045 # Emperor Sanjo
	}
	1016.3.24={
		holder = 10041046 # Emperor Go-Ichijo
	}
	1036.5.15={
		holder = 10041047 # Emperor Go-Suzaku
	}
	1045.2.5={
		holder = 10041048 # Emperor Go-Reizei
	}
	1068.5.22={
		holder = 10041049 # Emperor Go-Sanjo
	}
	1073.1.18={
		holder = 10041050 # Emperor Shirakawa
	}
	1086.12.16={
		holder = 10041051 # Emperor Horikawa
	}
	1107.8.9={
		holder = 10041052 # Emperor Toba
	}
	1123.2.19={
		holder = 10041053 # Emperor Sutoku
	}
	1142.1.5={
		holder = 10041055 # Emperor Konoe
	}
	1155.8.23={
		holder = 10041054 # Emperor Go-Shirakawa
	}
	1158.9.5={
		holder = 10041056 # Emperor Nijo
	}
	1165.8.3={
		holder = 10041057 # Emperor Rokujo
	}
	1168.3.30={
		holder = 10041058 # Emperor Takakura
	}
	1180.5.18={
		holder = 10041059 # Emperor Antoku
	}
	1180.6.20={
	}
	1183.8.17={ # Taira's escape to the west
		holder = 10041060 # Emperor Go-Toba
	}
	1198.2.18={
		holder = 10041061 # Emperor Tsuchimikado
	}
	1210.12.12={
		holder = 10041062 # Emperor Juntoku
	}
	1221.5.13={
		holder = 10041063 # Emperor Chukyo
	}
	1221.7.29={
		holder = 10041065 # Emperor Go-Horikawa
	}
	1232.11.17={
		holder = 10041066 # Emperor Shijo
	}
	1242.2.21={
		holder = 10041067 # Emperor Go-Saga
	}
	1246.2.16={
		holder = 10041068 # Emperor Go-Fukakusa
	}
	1260.1.9={
		holder = 10041069 # Emperor Kameyama
	}
	1274.3.6={
		holder = 10041070 # Emperor Go-Uda
	}
	1287.11.27={
		holder = 10041071 # Emperor Fushimi
	}
	1298.8.30={
		holder = 10041072 # Emperor Go-Fushimi
	}
	1301.3.2={
		holder = 10041073 # Emperor Go-Nijo
	}
	1308.12.28={
		holder = 10041074 # Emperor Hanazono
	}
	1318.4.30={
		holder = 10041075 # Emperor Go-Daigo
	}
	1331.10.22={
		holder = 10041076 # Emperor Kogon
	}
	1336.9.20={
		holder = 10041080 # Emperor Komyo
	}
	1348.11.18={
		holder = 10041081 # Emperor Suko
	}
	1352.9.25={
		holder = 10041082 # Emperor Go-Kogon
	}
	1371.4.9={
		holder = 10041083 # Emperor Go-Enyu
	}
	1382.5.24={
		holder = 10041084 # Emperor Go-Komatsu
	}
	1412.10.5={
		holder = 10041087 # Emperor Shoko
	}
	1428.9.7={
		holder = 10041088 # Emperor Go-Hanazono
	}
	1464.8.21={
		holder = 10041089 # Emperor Go-Tsuchimikado
	}
	1500.11.16={
		holder = 10041090 # Emperor Go-Kashiwabara
	}
	1526.6.9={
		holder = 10041096 # Emperor Go-Nara
	}
	1543.9.23={
	}
	1554.1.1={
	}
	1557.11.17={
		holder=10041097 # Emperor Oogimachi
	}
	1577.1.1={
	}
	1586.12.17={
		holder=10041098 # Emperor Go-Yozei
	}
	1611.5.9={
		holder=10041099 # Emperor Go-Mizunoo
	}
	1644.1.1={
	}

}
