d_nmih_oshima = {
	100.1.1={
	}
	1066.1.1={
		holder=10150204 # Matanki
	}
	1130.1.1={
		liege=0
		holder=0 # 
	}
	1515.8.1={
		liege="k_nmih_wajinchi"
		holder=10159002 # Kakizaki Mitsuhiro
	}
	1518.8.18={
		holder=10159000 # Kakizaki Yoshihiro
	}
	1545.9.24={
		holder=10159003 # Kakizaki Suehiro
	}
	1583.1.1={
		holder=10159034 # Kakizaki Yoshihiro
	}
}
