d_nmih_shiribeshi = {
	1170.1.1={
		holder=10155100
	}
	1210.1.1={
		holder=0
	}
	1270.1.1={
		holder=10157201
	}
	1310.1.1={
		liege=0
		holder=0 # 
	}
	1450.1.1={
		holder=10155003
	}
	1490.1.1={
		holder=10155000
	}
	1530.1.1={
		holder=10155001
	}
	1560.1.1={
		holder=10155002
	}

}
