d_nmih_sum_kur = {
	1170.1.1={
		holder=10150105
	}
	1210.1.1={
		holder=0
	}
	1270.1.1={
		holder=10157200
	}
	1310.1.1={
		liege=0
		holder=0 # 
	}
	1450.1.1={
		holder=10150005
	}
	1490.1.1={
		holder=10150000
	}
	1529.3.26={
		holder=10150002
	}
	1536.6.23={
		holder=10150003 #Hashitayn
	}
	1570.1.1={
		holder=10150004 #Totake
	}
}
