﻿31400000={
	name=dynasty_name_31400000
	culture="southern_kanto"
}
31400001={
	name=dynasty_name_31400001
	culture="southern_kanto"
}
31400002={
	name=dynasty_name_31400002
	culture="southern_kanto"
}
31400003={
	name=dynasty_name_31400003
	culture="southern_kanto"
}
31400004={
	name=dynasty_name_31400004
	culture="southern_kanto"
}
31400005={
	name=dynasty_name_31400005
	culture="southern_kanto"
}
31400006={
	name=dynasty_name_31400006
	culture="southern_kanto"
}
31400444 = {
	name=dynasty_name_31400444
	culture = southern_kanto
}
31400445 = {
	name=dynasty_name_31400445
	culture = southern_kanto
}
31400446 = {
	name=dynasty_name_31400446
	culture = southern_kanto
}
31400447 = {
	name=dynasty_name_31400447
	culture = southern_kanto
}
31400448 = {
	name=dynasty_name_31400448
	culture = southern_kanto
}
31400449 = {
	name=dynasty_name_31400449
	culture = southern_kanto
}
31400450 = {
	name=dynasty_name_31400450
	culture = southern_kanto
}
31400451 = {
	name=dynasty_name_31400451
	culture = southern_kanto
}
31400452 = {
	name=dynasty_name_31400452
	culture = southern_kanto
}
31400453 = {
	name=dynasty_name_31400453
	culture = southern_kanto
}
31400454 = {
	name=dynasty_name_31400454
	culture = southern_kanto
}
31400455 = {
	name=dynasty_name_31400455
	culture = southern_kanto
}
31400456 = {
	name=dynasty_name_31400456
	culture = southern_kanto
}
31400457 = {
	name=dynasty_name_31400457
	culture = southern_kanto
}
31400458 = {
	name=dynasty_name_31400458
	culture = southern_kanto
}
31400459 = {
	name=dynasty_name_31400459
	culture = southern_kanto
}
31400460 = {
	name=dynasty_name_31400460
	culture = southern_kanto
}
31400461 = {
	name=dynasty_name_31400461
	culture = southern_kanto
}
31400462 = {
	name=dynasty_name_31400462
	culture = southern_kanto
}
31400463 = {
	name=dynasty_name_31400463
	culture = southern_kanto
}
31400464 = {
	name=dynasty_name_31400464
	culture = southern_kanto
}