﻿34000000={
	name=dynasty_name_34000000
	culture="sanin"
}
34000001={
	name=dynasty_name_34000001
	culture="sanin"
}
34000002={
	name=dynasty_name_34000002
	culture="sanin"
}
34000924 = {
	name=dynasty_name_34000924
	culture = sanin
}
34000925 = {
	name=dynasty_name_34000925
	culture = sanin
}
34000926 = {
	name=dynasty_name_34000926
	culture = sanin
}
34000927 = {
	name=dynasty_name_34000927
	culture = sanin
}
34000928 = {
	name=dynasty_name_34000928
	culture = sanin
}
34000929 = {
	name=dynasty_name_34000929
	culture = sanin
}
34000930 = {
	name=dynasty_name_34000930
	culture = sanin
}
34000931 = {
	name=dynasty_name_34000931
	culture = sanin
}
34000932 = {
	name=dynasty_name_34000932
	culture = sanin
}
34000933 = {
	name=dynasty_name_34000933
	culture = sanin
}
34000934 = {
	name=dynasty_name_34000934
	culture = sanin
}
34000935 = {
	name=dynasty_name_34000935
	culture = sanin
}
34000936 = {
	name=dynasty_name_34000936
	culture = sanin
}
34000937 = {
	name=dynasty_name_34000937
	culture = sanin
}
34000938 = {
	name=dynasty_name_34000938
	culture = sanin
}
34000939 = {
	name=dynasty_name_34000939
	culture = sanin
}
34000940 = {
	name=dynasty_name_34000940
	culture = sanin
}
34000941 = {
	name=dynasty_name_34000941
	culture = sanin
}
34000942 = {
	name=dynasty_name_34000942
	culture = sanin
}
34000943 = {
	name=dynasty_name_34000943
	culture = sanin
}
34000944 = {
	name=dynasty_name_34000944
	culture = sanin
}
34000945 = {
	name=dynasty_name_34000945
	culture = sanin
}
34000946 = {
	name=dynasty_name_34000946
	culture = sanin
}
34000947 = {
	name=dynasty_name_34000947
	culture = sanin
}
34000948 = {
	name=dynasty_name_34000948
	culture = sanin
}
34000949 = {
	name=dynasty_name_34000949
	culture = sanin
}
34000950 = {
	name=dynasty_name_34000950
	culture = sanin
}
34000951 = {
	name=dynasty_name_34000951
	culture = sanin
}
34000952 = {
	name=dynasty_name_34000952
	culture = sanin
}
34000953 = {
	name=dynasty_name_34000953
	culture = sanin
}
34000954 = {
	name=dynasty_name_34000954
	culture = sanin
}
34000955 = {
	name=dynasty_name_34000955
	culture = sanin
}
34000956 = {
	name=dynasty_name_34000956
	culture = sanin
}
34000957 = {
	name=dynasty_name_34000957
	culture = sanin
}
34000958 = {
	name=dynasty_name_34000958
	culture = sanin
}
34000959 = {
	name=dynasty_name_34000959
	culture = sanin
}
34000960 = {
	name=dynasty_name_34000960
	culture = sanin
}
34000961 = {
	name=dynasty_name_34000961
	culture = sanin
}
34000962 = {
	name=dynasty_name_34000962
	culture = sanin
}
34000963 = {
	name=dynasty_name_34000963
	culture = sanin
}
34000964 = {
	name=dynasty_name_34000964
	culture = sanin
}
34000965 = {
	name=dynasty_name_34000965
	culture = sanin
}
34000966={
	name=dynasty_name_34000966
	culture="sanin"
}
34000967={
	name=dynasty_name_34000967
	culture="sanin"
}
34000968={
	name=dynasty_name_34000968
	culture="sanin"
}
34000969={
	name=dynasty_name_34000969
	culture="sanin"
}
34000970={
	name=dynasty_name_34000970
	culture="sanin"
}
34000971={
	name=dynasty_name_34000971
	culture="sanin"
}
34000972={
	name=dynasty_name_34000972
	culture="sanin"
}