﻿30600000={
	name=dynasty_name_30600000
	culture=tohoku_buddhist
}
30600001={
	name=dynasty_name_30600001
	culture=tohoku_buddhist
}
30600002={
	name=dynasty_name_30600002
	culture=tohoku_buddhist
}
30600003={
	name=dynasty_name_30600003
	culture=tohoku_buddhist
}
30600004={
	name=dynasty_name_30600004
	culture=tohoku_buddhist
}
30600005={
	name=dynasty_name_30600005
	culture=tohoku_buddhist
}
30600006={
	name=dynasty_name_30600006
	culture=tohoku_buddhist
}
30600007={
	name=dynasty_name_30600007
	culture=tohoku_buddhist
}
30600008={
	name=dynasty_name_30600008
	culture=tohoku_buddhist
}
30600009={
	name=dynasty_name_30600009
	culture=tohoku_buddhist
}