﻿35800000={
	name=dynasty_name_35800000
	culture=imperial_family
}
35800001={
	name=dynasty_name_35800001
	culture=imperial_family
}
35800002={
	name=dynasty_name_35800002
	culture=imperial_family
}
35800003={
	name=dynasty_name_35800003
	culture=imperial_family
}
35800004={
	name=dynasty_name_35800004
	culture=imperial_family
}
35800005={
	name=dynasty_name_35800005
	culture=imperial_family
}
35800006={
	name=dynasty_name_35800006
	culture=imperial_family
}
35800007={
	name=dynasty_name_35800007
	culture=imperial_family
}
35800008={
	name=dynasty_name_35800008
	culture=imperial_family
}
35800009={
	name=dynasty_name_35800009
	culture=imperial_family
}
35800010={
	name=dynasty_name_35800010
	culture=imperial_family
}
35800011={
	name=dynasty_name_35800011
	culture=imperial_family
}
35800012={
	name=dynasty_name_35800012
	culture=imperial_family
}
35800013={
	name=dynasty_name_35800013
	culture=imperial_family
}
35800014={
	name=dynasty_name_35800014
	culture=imperial_family
}
35800015={
	name=dynasty_name_35800015
	culture=imperial_family
}
35800016={
	name=dynasty_name_35800016
	culture=imperial_family
}
35800017={
	name=dynasty_name_35800017
	culture=imperial_family
}
35800018={
	name=dynasty_name_35800018
	culture=imperial_family
}
35800019={
	name=dynasty_name_35800019
	culture=imperial_family
}
35800020={
	name=dynasty_name_35800020
	culture=imperial_family
}
35800021={
	name=dynasty_name_35800021
	culture=imperial_family
}
35800022={
	name=dynasty_name_35800022
	culture=imperial_family
}
35800023={
	name=dynasty_name_35800023
	culture=imperial_family
}
