﻿33200000={
	name=dynasty_name_33200000
	culture="northern_kinai"
}
33200001={
	name=dynasty_name_33200001
	culture="northern_kinai"
}
33200002={
	name=dynasty_name_33200002
	culture="northern_kinai"
}
33200003={
	name=dynasty_name_33200003
	culture="northern_kinai"
}
33200004={
	name=dynasty_name_33200004
	culture="northern_kinai"
}
33200005={
	name=dynasty_name_33200005
	culture="northern_kinai"
}
33200006={
	name=dynasty_name_33200006
	culture="northern_kinai"
}
33200007={
	name=dynasty_name_33200007
	culture="northern_kinai"
}
33200672 = {
	name=dynasty_name_33200672
	culture = northern_kinai
}
33200673 = {
	name=dynasty_name_33200673
	culture = northern_kinai
}
33200674 = {
	name=dynasty_name_33200674
	culture = northern_kinai
}
33200675 = {
	name=dynasty_name_33200675
	culture = northern_kinai
}
33200676 = {
	name=dynasty_name_33200676
	culture = northern_kinai
}
33200677 = {
	name=dynasty_name_33200677
	culture = northern_kinai
}
33200678 = {
	name=dynasty_name_33200678
	culture = northern_kinai
}
33200679 = {
	name=dynasty_name_33200679
	culture = northern_kinai
}
33200680 = {
	name=dynasty_name_33200680
	culture = northern_kinai
}
33200681 = {
	name=dynasty_name_33200681
	culture = northern_kinai
}
33200682 = {
	name=dynasty_name_33200682
	culture = northern_kinai
}
33200683 = {
	name=dynasty_name_33200683
	culture = northern_kinai
}
33200684 = {
	name=dynasty_name_33200684
	culture = northern_kinai
}
33200685 = {
	name=dynasty_name_33200685
	culture = northern_kinai
}
33200686 = {
	name=dynasty_name_33200686
	culture = northern_kinai
}
33200687 = {
	name=dynasty_name_33200687
	culture = northern_kinai
}
33200688 = {
	name=dynasty_name_33200688
	culture = northern_kinai
}
33200689 = {
	name=dynasty_name_33200689
	culture = northern_kinai
}
33200690 = {
	name=dynasty_name_33200690
	culture = northern_kinai
}
33200691 = {
	name=dynasty_name_33200691
	culture = northern_kinai
}
33200692 = {
	name=dynasty_name_33200692
	culture = northern_kinai
}
33200693 = {
	name=dynasty_name_33200693
	culture = northern_kinai
}
33200694 = {
	name=dynasty_name_33200694
	culture = northern_kinai
}
33200695 = {
	name=dynasty_name_33200695
	culture = northern_kinai
}
33200696 = {
	name=dynasty_name_33200696
	culture = northern_kinai
}
33200697 = {
	name=dynasty_name_33200697
	culture = northern_kinai
}
33200698 = {
	name=dynasty_name_33200698
	culture = northern_kinai
}
33200699 = {
	name=dynasty_name_33200699
	culture = northern_kinai
}
33200700 = {
	name=dynasty_name_33200700
	culture = northern_kinai
}
33200701 = {
	name=dynasty_name_33200701
	culture = northern_kinai
}
33200702 = {
	name=dynasty_name_33200702
	culture = northern_kinai
}
33200703 = {
	name=dynasty_name_33200703
	culture = northern_kinai
}
33200704 = {
	name=dynasty_name_33200704
	culture = northern_kinai
}
33200705 = {
	name=dynasty_name_33200705
	culture = northern_kinai
}
33200706 = {
	name=dynasty_name_33200706
	culture = northern_kinai
}
33200707 = {
	name=dynasty_name_33200707
	culture = northern_kinai
}