﻿36800305 = {
	name=dynasty_name_36800305
	culture = hokkaido_wajin
}
36800306 = {
	name=dynasty_name_36800306
	culture = hokkaido_wajin
}
36800307 = {
	name=dynasty_name_36800307
	culture = hokkaido_wajin
}
36800308 = {
	name=dynasty_name_36800308
	culture = hokkaido_wajin
}
36800309 = {
	name=dynasty_name_36800309
	culture = hokkaido_wajin
}
36800310 = {
	name=dynasty_name_36800310
	culture = hokkaido_wajin
}
36800311 = {
	name=dynasty_name_36800311
	culture = hokkaido_wajin
}
36800312 = {
	name=dynasty_name_36800312
	culture = hokkaido_wajin
}
36800313 = {
	name=dynasty_name_36800313
	culture = hokkaido_wajin
}
36800314 = {
	name=dynasty_name_36800314
	culture = hokkaido_wajin
}
36800315 = {
	name=dynasty_name_36800315
	culture = hokkaido_wajin
}
36800316 = {
	name=dynasty_name_36800316
	culture = hokkaido_wajin
}
36800317 = {
	name=dynasty_name_36800317
	culture = hokkaido_wajin
}
36800318 = {
	name=dynasty_name_36800318
	culture = hokkaido_wajin
}
36800319 = {
	name=dynasty_name_36800319
	culture = hokkaido_wajin
}
36800320 = {
	name=dynasty_name_36800320
	culture = hokkaido_wajin
}
36800321 = {
	name=dynasty_name_36800321
	culture = hokkaido_wajin
}
36800322 = {
	name=dynasty_name_36800322
	culture = hokkaido_wajin
}
