﻿34200000={
	name=dynasty_name_34200000
	culture="sanyo"
}
34200855 = {
	name=dynasty_name_34200855
	culture = sanyo
}
34200856 = {
	name=dynasty_name_34200856
	culture = sanyo
}
34200857 = {
	name=dynasty_name_34200857
	culture = sanyo
}
34200858 = {
	name=dynasty_name_34200858
	culture = sanyo
}
34200859 = {
	name=dynasty_name_34200859
	culture = sanyo
}
34200860 = {
	name=dynasty_name_34200860
	culture = sanyo
}
34200861 = {
	name=dynasty_name_34200861
	culture = sanyo
}
34200862 = {
	name=dynasty_name_34200862
	culture = sanyo
}
34200863 = {
	name=dynasty_name_34200863
	culture = sanyo
}
34200864 = {
	name=dynasty_name_34200864
	culture = sanyo
}
34200865 = {
	name=dynasty_name_34200865
	culture = sanyo
}
34200866 = {
	name=dynasty_name_34200866
	culture = sanyo
}
34200867 = {
	name=dynasty_name_34200867
	culture = sanyo
}
34200868 = {
	name=dynasty_name_34200868
	culture = sanyo
}
34200869 = {
	name=dynasty_name_34200869
	culture = sanyo
}
34200870 = {
	name=dynasty_name_34200870
	culture = sanyo
}
34200871 = {
	name=dynasty_name_34200871
	culture = sanyo
}
34200872 = {
	name=dynasty_name_34200872
	culture = sanyo
}
34200873 = {
	name=dynasty_name_34200873
	culture = sanyo
}
34200874 = {
	name=dynasty_name_34200874
	culture = sanyo
}
34200875 = {
	name=dynasty_name_34200875
	culture = sanyo
}
34200876 = {
	name=dynasty_name_34200876
	culture = sanyo
}
34200877 = {
	name=dynasty_name_34200877
	culture = sanyo
}
34200878 = {
	name=dynasty_name_34200878
	culture = sanyo
}
34200879 = {
	name=dynasty_name_34200879
	culture = sanyo
}
34200880 = {
	name=dynasty_name_34200880
	culture = sanyo
}
34200881 = {
	name=dynasty_name_34200881
	culture = sanyo
}
34200882 = {
	name=dynasty_name_34200882
	culture = sanyo
}
34200883 = {
	name=dynasty_name_34200883
	culture = sanyo
}
34200884 = {
	name=dynasty_name_34200884
	culture = sanyo
}
34200885 = {
	name=dynasty_name_34200885
	culture = sanyo
}
34200886 = {
	name=dynasty_name_34200886
	culture = sanyo
}
34200887 = {
	name=dynasty_name_34200887
	culture = sanyo
}
34200888 = {
	name=dynasty_name_34200888
	culture = sanyo
}
34200889 = {
	name=dynasty_name_34200889
	culture = sanyo
}
34200890 = {
	name=dynasty_name_34200890
	culture = sanyo
}
34200891 = {
	name=dynasty_name_34200891
	culture = sanyo
}
34200892 = {
	name=dynasty_name_34200892
	culture = sanyo
}
34200893 = {
	name=dynasty_name_34200893
	culture = sanyo
}
34200894 = {
	name=dynasty_name_34200894
	culture = sanyo
}
34200895 = {
	name=dynasty_name_34200895
	culture = sanyo
}
34200896 = {
	name=dynasty_name_34200896
	culture = sanyo
}
34200897 = {
	name=dynasty_name_34200897
	culture = sanyo
}
34200898 = {
	name=dynasty_name_34200898
	culture = sanyo
}
34200899 = {
	name=dynasty_name_34200899
	culture = sanyo
}
34200900 = {
	name=dynasty_name_34200900
	culture = sanyo
}
34200901 = {
	name=dynasty_name_34200901
	culture = sanyo
}
34200902 = {
	name=dynasty_name_34200902
	culture = sanyo
}
34200903 = {
	name=dynasty_name_34200903
	culture = sanyo
}
34200904 = {
	name=dynasty_name_34200904
	culture = sanyo
}
34200905 = {
	name=dynasty_name_34200905
	culture = sanyo
}
34200906 = {
	name=dynasty_name_34200906
	culture = sanyo
}
34200907 = {
	name=dynasty_name_34200907
	culture = sanyo
}
34200908 = {
	name=dynasty_name_34200908
	culture = sanyo
}
34200909 = {
	name=dynasty_name_34200909
	culture = sanyo
}
34200910 = {
	name=dynasty_name_34200910
	culture = sanyo
}
34200911 = {
	name=dynasty_name_34200911
	culture = sanyo
}
34200912 = {
	name=dynasty_name_34200912
	culture = sanyo
}
34200913 = {
	name=dynasty_name_34200913
	culture = sanyo
}
34200914 = {
	name=dynasty_name_34200914
	culture = sanyo
}
34200915 = {
	name=dynasty_name_34200915
	culture = sanyo
}
34200916 = {
	name=dynasty_name_34200916
	culture = sanyo
}
34200917 = {
	name=dynasty_name_34200917
	culture = sanyo
}
34200918 = {
	name=dynasty_name_34200918
	culture = sanyo
}
34200919 = {
	name=dynasty_name_34200919
	culture = sanyo
}
34200920 = {
	name=dynasty_name_34200920
	culture = sanyo
}
34200921 = {
	name=dynasty_name_34200921
	culture = sanyo
}
34200922 = {
	name=dynasty_name_34200922
	culture = sanyo
}
34200923 = {
	name=dynasty_name_34200923
	culture = sanyo
}