﻿10000061 = {
	name=dynasty_name_10000061
	culture = southern_oshu
}
10000062 = {
	name=dynasty_name_10000062
	culture = southern_oshu
}
10000063 = {
	name=dynasty_name_10000063
	culture = southern_oshu
}
10000064 = {
	name=dynasty_name_10000064
	culture = southern_oshu
}
10000065 = {
	name=dynasty_name_10000065
	culture = southern_oshu
}
10000066 = {
	name=dynasty_name_10000066
	culture = southern_oshu
}
10000067 = {
	name=dynasty_name_10000067
	culture = southern_oshu
}
10000068 = {
	name=dynasty_name_10000068
	culture = southern_oshu
}
10000069 = {
	name=dynasty_name_10000069
	culture = southern_oshu
}
10000070 = {
	name=dynasty_name_10000070
	culture = southern_oshu
}
10000071 = {
	name=dynasty_name_10000071 # Shirakawa=Yuki
	culture = southern_oshu
}
10000072 = {
	name=dynasty_name_10000072
	culture = southern_oshu
}
10000073 = {
	name=dynasty_name_10000073
	culture = southern_oshu
}
10000074 = {
	name=dynasty_name_10000074
	culture = southern_oshu
}
10000075 = {
	name=dynasty_name_10000075
	culture = southern_oshu
}
10000076 = {
	name=dynasty_name_10000076
	culture = southern_oshu
}
10000077 = {
	name=dynasty_name_10000077
	culture = southern_oshu
}
10000078 = {
	name=dynasty_name_10000078
	culture = southern_oshu
}
10000079 = {
	name=dynasty_name_10000079
	culture = southern_oshu
}
10000080 = {
	name=dynasty_name_10000080	# Fujiwara Hidesato blanch, Oyama Clan
	culture = southern_oshu
}
10000081 = {
	name=dynasty_name_10000081
	culture = southern_oshu
}
10000082 = {
	name=dynasty_name_10000082
	culture = southern_oshu
}
10000083 = {
	name=dynasty_name_10000083
	culture = southern_oshu
}
10000084 = {
	name=dynasty_name_10000084
	culture = southern_oshu
}
10000085 = {
	name=dynasty_name_10000085
	culture = southern_oshu
}
10000086 = {
	name=dynasty_name_10000086
	culture = southern_oshu
}
10000087 = {
	name=dynasty_name_10000087
	culture = southern_oshu
}
10000088 = {
	name=dynasty_name_10000088
	culture = southern_oshu
}
10000089={
	name=dynasty_name_10000089
	culture = southern_oshu
}
10000090={
	name=dynasty_name_10000090
	culture = southern_oshu
}
10000091={
	name=dynasty_name_10000091
	culture = southern_oshu
}
10000092={
	name=dynasty_name_10000092
	culture=southern_oshu
}
10000093={
	name=dynasty_name_10000093
	culture=southern_oshu
}
10000094={
	name=dynasty_name_10000094
	culture=southern_oshu
}
10000095={
	name=dynasty_name_10000095
	culture=southern_oshu
}
10000096={
	name=dynasty_name_10000096
	culture=southern_oshu
}
10000097={
	name=dynasty_name_10000097
	culture=southern_oshu
}
10000098={
	name=dynasty_name_10000098
	culture=southern_oshu
}
10000099={
	name=dynasty_name_10000099
	culture=southern_oshu
}
