﻿10000600 = {
	name=dynasty_name_10000600
	culture = southern_kyushu
}
10000601 = {
	name=dynasty_name_10000601
	culture = southern_kyushu
}
10000602 = {
	name=dynasty_name_10000602
	culture = southern_kyushu
}
10000603 = {
	name=dynasty_name_10000603
	culture = southern_kyushu
}
10000604 = {
	name=dynasty_name_10000604
	culture = southern_kyushu
}
10000605 = {
	name=dynasty_name_10000605
	culture = southern_kyushu
}
10000606 = {
	name=dynasty_name_10000606
	culture = southern_kyushu
}
10000607={
	name=dynasty_name_10000607
	culture=southern_kyushu
}
10000608={
	name=dynasty_name_10000608
	culture=southern_kyushu
}
10000610 = {
	name=dynasty_name_10000610
	culture = southern_kyushu
}
10000611={
	name=dynasty_name_10000611
	culture=southern_kyushu
}
10000612={
	name=dynasty_name_10000612
	culture=southern_kyushu
}
10000613={
	name=dynasty_name_10000613
	culture=southern_kyushu
}
10000614={
	name=dynasty_name_10000614
	culture=southern_kyushu
}
10000615 = {
	name=dynasty_name_10000615
	culture = southern_kyushu
}
10000619={
	name=dynasty_name_10000619
	culture=southern_kyushu
}
10000620={
	name=dynasty_name_10000620
	culture=southern_kyushu
}
10000621={
	name=dynasty_name_10000621
	culture=southern_kyushu
}
10000622={
	name=dynasty_name_10000622
	culture=southern_kyushu
}
10000623={
	name=dynasty_name_10000623
	culture=southern_kyushu
}
10000624={
	name=dynasty_name_10000624
	culture=southern_kyushu
}
10000625={
	name=dynasty_name_10000625
	culture=southern_kyushu
}
10000626={
	name=dynasty_name_10000626
	culture=southern_kyushu
}