﻿10000230 = {
	name=dynasty_name_10000230
	culture = tokai
}
10000231 = {
	name=dynasty_name_10000231
	culture = tokai
}
10000232 = {
	name=dynasty_name_10000232
	culture = tokai
}
10000233 = {
	name=dynasty_name_10000233
	culture = tokai
}
10000234 = {
	name=dynasty_name_10000234
	culture = tokai
}
10000235 = {
	name=dynasty_name_10000235
	culture = tokai
}
10000236 = {
	name=dynasty_name_10000236
	culture = tokai
}
10000237 = {
	name=dynasty_name_10000237
	culture = tokai
}
10000238 = {
	name=dynasty_name_10000238
	culture = "tokai"
}
10000239 = {
	name=dynasty_name_10000239
	culture = tokai
}
10000240 = {
	name=dynasty_name_10000240
	culture = tokai
} 
10000241 = {
	name=dynasty_name_10000241
	culture = tokai
}
10000242 = {
	name=dynasty_name_10000242
	culture = tokai
}
10000243 = {
	name=dynasty_name_10000243
	culture = tokai
}
10000244 = {
	name=dynasty_name_10000244
	culture = tokai
}
10000245 = {
	name=dynasty_name_10000245
	culture = tokai
}
10000246 = {
	name=dynasty_name_10000246
	culture = tokai
}
10000247 = {
	name=dynasty_name_10000247
	culture = "tokai"
}
10000248 = {
	name=dynasty_name_10000248
	culture = "tokai"
}
10000249 = {
	name=dynasty_name_10000249
	culture = "tokai"
}
10000250 = {
	name=dynasty_name_10000250
	culture = "tokai"
}
10000255 = {
	name=dynasty_name_10000255
	culture = "tokai"
}
10000256 = {
	name=dynasty_name_10000256
	culture = "tokai"
}
10000257 = {
	name=dynasty_name_10000257
	culture = "tokai"
}
10000258 = {
	name=dynasty_name_10000258
	culture = "tokai"
}
10000259 = {
	name=dynasty_name_10000259
	culture = tokai
}
10000464 = {
	name=dynasty_name_10000464
	culture = tokai
}
10000465 = {
	name=dynasty_name_10000465
	culture = tokai
}
10000726={
	name=dynasty_name_10000726
	culture=tokai
}
10000727={
	name=dynasty_name_10000727
	culture=tokai
}
10000728={
	name=dynasty_name_10000728
	culture=tokai
}
10000729={
	name=dynasty_name_10000729
	culture=tokai
}
10000730={
	name=dynasty_name_10000730
	culture=tokai
}
10000731={
	name=dynasty_name_10000731
	culture=tokai
}
10000732={
	name=dynasty_name_10000732
	culture=tokai
}
10000828={
	name=dynasty_name_10000828
	culture=tokai
}
10000829={
	name=dynasty_name_10000829
	culture=tokai
}
10000830={
	name=dynasty_name_10000830
	culture=tokai
}
10000831={
	name=dynasty_name_10000831
	culture=tokai
}
10000832={
	name=dynasty_name_10000832
	culture=tokai
}
10000833={
	name=dynasty_name_10000833
	culture=tokai
}
10000834={
	name=dynasty_name_10000834
	culture=tokai
}